# MagicaVoxel @ Ephtracy

# group
o cupboard-6

# material
mtllib ludum dare_tile 01-17-cupboard-6.mtl
usemtl palette

# normals
vn -1 0 0
vn 1 0 0
vn 0 0 1
vn 0 0 -1
vn 0 -1 0
vn 0 1 0

# texcoords
vt 0.134766 0.5
vt 0.380859 0.5
vt 0.384766 0.5
vt 0.388672 0.5
vt 0.392578 0.5
vt 0.396484 0.5
vt 0.412109 0.5
vt 0.416016 0.5

# verts
v -1.9 0.1 5.7
v -1.9 0.1 -6
v -1.9 0.6 5.7
v -1.9 0.6 -6
v -1.9 3.8 5.7
v -1.9 3.8 -6
v -1.9 4.1 5.7
v -1.9 4.1 -6
v -1.7 0.6 5.5
v -1.7 0.6 -5.8
v -1.7 0.7 5.1
v -1.7 0.7 -2.6
v -1.7 0.7 -3
v -1.7 0.7 -5.4
v -1.7 0.8 -2.7
v -1.7 0.8 -2.9
v -1.7 1.3 4.4
v -1.7 1.3 3.5
v -1.7 1.3 1.7
v -1.7 1.3 0.8
v -1.7 1.3 -1
v -1.7 1.3 -1.9
v -1.7 1.5 4.4
v -1.7 1.5 3.5
v -1.7 1.5 1.7
v -1.7 1.5 0.8
v -1.7 1.5 -1
v -1.7 1.5 -1.9
v -1.7 2.2 4.4
v -1.7 2.2 3.5
v -1.7 2.2 1.7
v -1.7 2.2 0.8
v -1.7 2.2 -1
v -1.7 2.2 -1.9
v -1.7 2.4 4.4
v -1.7 2.4 3.5
v -1.7 2.4 1.7
v -1.7 2.4 0.8
v -1.7 2.4 -1
v -1.7 2.4 -1.9
v -1.7 3.2 4.4
v -1.7 3.2 3.5
v -1.7 3.2 1.7
v -1.7 3.2 0.8
v -1.7 3.2 -1
v -1.7 3.2 -1.9
v -1.7 3.4 4.4
v -1.7 3.4 3.5
v -1.7 3.4 1.7
v -1.7 3.4 0.8
v -1.7 3.4 -1
v -1.7 3.4 -1.9
v -1.7 3.6 -2.7
v -1.7 3.6 -2.9
v -1.7 3.7 5.1
v -1.7 3.7 -2.6
v -1.7 3.7 -3
v -1.7 3.7 -5.4
v -1.7 3.8 5.5
v -1.7 3.8 -5.8
v -1.6 0.7 2.8
v -1.6 0.7 2.6
v -1.6 0.7 -0.0999999
v -1.6 0.7 -0.3
v -1.6 0.9 -3.3
v -1.6 0.9 -3.5
v -1.6 3.5 -3.3
v -1.6 3.5 -3.5
v -1.6 3.7 2.8
v -1.6 3.7 2.6
v -1.6 3.7 -0.0999999
v -1.6 3.7 -0.3
v -1.5 0.8 5
v -1.5 0.8 2.9
v -1.5 0.8 2.5
v -1.5 0.8 0
v -1.5 0.8 -0.4
v -1.5 0.8 -2.5
v -1.5 0.8 -2.7
v -1.5 0.8 -2.9
v -1.5 0.8 -3.1
v -1.5 0.8 -5.3
v -1.5 0.9 -3.3
v -1.5 0.9 -3.5
v -1.5 1.3 4.4
v -1.5 1.3 4.3
v -1.5 1.3 3.6
v -1.5 1.3 3.5
v -1.5 1.3 1.7
v -1.5 1.3 1.6
v -1.5 1.3 0.9
v -1.5 1.3 0.8
v -1.5 1.3 -1
v -1.5 1.3 -1.1
v -1.5 1.3 -1.8
v -1.5 1.3 -1.9
v -1.5 1.5 4.4
v -1.5 1.5 4.3
v -1.5 1.5 3.6
v -1.5 1.5 3.5
v -1.5 1.5 1.7
v -1.5 1.5 1.6
v -1.5 1.5 0.9
v -1.5 1.5 0.8
v -1.5 1.5 -1
v -1.5 1.5 -1.1
v -1.5 1.5 -1.8
v -1.5 1.5 -1.9
v -1.5 1.7 5
v -1.5 1.7 2.9
v -1.5 1.7 2.5
v -1.5 1.7 0
v -1.5 1.7 -0.4
v -1.5 1.7 -2.5
v -1.5 1.8 5
v -1.5 1.8 2.9
v -1.5 1.8 2.5
v -1.5 1.8 0
v -1.5 1.8 -0.4
v -1.5 1.8 -2.5
v -1.5 2.2 4.4
v -1.5 2.2 4.3
v -1.5 2.2 3.6
v -1.5 2.2 3.5
v -1.5 2.2 1.7
v -1.5 2.2 1.6
v -1.5 2.2 0.9
v -1.5 2.2 0.8
v -1.5 2.2 -1
v -1.5 2.2 -1.1
v -1.5 2.2 -1.8
v -1.5 2.2 -1.9
v -1.5 2.4 4.4
v -1.5 2.4 4.3
v -1.5 2.4 3.6
v -1.5 2.4 3.5
v -1.5 2.4 1.7
v -1.5 2.4 1.6
v -1.5 2.4 0.9
v -1.5 2.4 0.8
v -1.5 2.4 -1
v -1.5 2.4 -1.1
v -1.5 2.4 -1.8
v -1.5 2.4 -1.9
v -1.5 2.6 5
v -1.5 2.6 2.9
v -1.5 2.6 2.5
v -1.5 2.6 0
v -1.5 2.6 -0.4
v -1.5 2.6 -2.5
v -1.5 2.7 5
v -1.5 2.7 2.9
v -1.5 2.7 2.5
v -1.5 2.7 0
v -1.5 2.7 -0.4
v -1.5 2.7 -2.5
v -1.5 3.2 4.4
v -1.5 3.2 4.3
v -1.5 3.2 3.6
v -1.5 3.2 3.5
v -1.5 3.2 1.7
v -1.5 3.2 1.6
v -1.5 3.2 0.9
v -1.5 3.2 0.8
v -1.5 3.2 -1
v -1.5 3.2 -1.1
v -1.5 3.2 -1.8
v -1.5 3.2 -1.9
v -1.5 3.4 4.4
v -1.5 3.4 4.3
v -1.5 3.4 3.6
v -1.5 3.4 3.5
v -1.5 3.4 1.7
v -1.5 3.4 1.6
v -1.5 3.4 0.9
v -1.5 3.4 0.8
v -1.5 3.4 -1
v -1.5 3.4 -1.1
v -1.5 3.4 -1.8
v -1.5 3.4 -1.9
v -1.5 3.5 -3.3
v -1.5 3.5 -3.5
v -1.5 3.6 5
v -1.5 3.6 2.9
v -1.5 3.6 2.5
v -1.5 3.6 0
v -1.5 3.6 -0.4
v -1.5 3.6 -2.5
v -1.5 3.6 -2.7
v -1.5 3.6 -2.9
v -1.5 3.6 -3.1
v -1.5 3.6 -5.3
v -1.4 0.7 5.1
v -1.4 0.7 2.8
v -1.4 0.7 2.6
v -1.4 0.7 -0.0999999
v -1.4 0.7 -0.3
v -1.4 0.7 -2.6
v -1.4 0.7 -3
v -1.4 0.7 -5.4
v -1.4 0.8 5
v -1.4 0.8 2.9
v -1.4 0.8 2.5
v -1.4 0.8 0
v -1.4 0.8 -0.4
v -1.4 0.8 -2.5
v -1.4 0.8 -3.1
v -1.4 0.8 -5.3
v -1.4 1.7 5
v -1.4 1.7 2.9
v -1.4 1.7 2.5
v -1.4 1.7 0
v -1.4 1.7 -0.4
v -1.4 1.7 -2.5
v -1.4 1.8 5
v -1.4 1.8 2.9
v -1.4 1.8 2.5
v -1.4 1.8 0
v -1.4 1.8 -0.4
v -1.4 1.8 -2.5
v -1.4 2.6 5
v -1.4 2.6 2.9
v -1.4 2.6 2.5
v -1.4 2.6 0
v -1.4 2.6 -0.4
v -1.4 2.6 -2.5
v -1.4 2.7 5
v -1.4 2.7 2.9
v -1.4 2.7 2.5
v -1.4 2.7 0
v -1.4 2.7 -0.4
v -1.4 2.7 -2.5
v -1.4 3.6 5
v -1.4 3.6 2.9
v -1.4 3.6 2.5
v -1.4 3.6 0
v -1.4 3.6 -0.4
v -1.4 3.6 -2.5
v -1.4 3.6 -3.1
v -1.4 3.6 -5.3
v -1.4 3.7 5.1
v -1.4 3.7 2.8
v -1.4 3.7 2.6
v -1.4 3.7 -0.0999999
v -1.4 3.7 -0.3
v -1.4 3.7 -2.6
v -1.4 3.7 -3
v -1.4 3.7 -5.4
v -1.6 1.3 4.3
v -1.6 1.3 3.6
v -1.6 1.3 1.6
v -1.6 1.3 0.9
v -1.6 1.3 -1.1
v -1.6 1.3 -1.8
v -1.6 1.5 4.3
v -1.6 1.5 3.6
v -1.6 1.5 1.6
v -1.6 1.5 0.9
v -1.6 1.5 -1.1
v -1.6 1.5 -1.8
v -1.6 2.2 4.3
v -1.6 2.2 3.6
v -1.6 2.2 1.6
v -1.6 2.2 0.9
v -1.6 2.2 -1.1
v -1.6 2.2 -1.8
v -1.6 2.4 4.3
v -1.6 2.4 3.6
v -1.6 2.4 1.6
v -1.6 2.4 0.9
v -1.6 2.4 -1.1
v -1.6 2.4 -1.8
v -1.6 3.2 4.3
v -1.6 3.2 3.6
v -1.6 3.2 1.6
v -1.6 3.2 0.9
v -1.6 3.2 -1.1
v -1.6 3.2 -1.8
v -1.6 3.4 4.3
v -1.6 3.4 3.6
v -1.6 3.4 1.6
v -1.6 3.4 0.9
v -1.6 3.4 -1.1
v -1.6 3.4 -1.8
v 1.7 0.8 5.3
v 1.7 0.8 4.6
v 1.7 0.8 4
v 1.7 0.8 3.9
v 1.7 0.8 3.6
v 1.7 0.8 2.9
v 1.7 0.8 1
v 1.7 0.8 0.3
v 1.7 0.8 -0.2
v 1.7 0.8 -2.3
v 1.7 0.8 -2.6
v 1.7 0.8 -3.3
v 1.7 0.8 -4
v 1.7 0.8 -4.3
v 1.7 0.8 -4.9
v 1.7 0.8 -5.4
v 1.7 0.8 -5.6
v 1.7 3 -2
v 1.7 3 -2.1
v 1.7 3.1 -2
v 1.7 3.1 -2.1
v 1.7 3.1 -2.2
v 1.7 3.2 -2.1
v 1.7 3.2 -2.2
v 1.7 3.3 -1.7
v 1.7 3.3 -1.8
v 1.7 3.4 -1.7
v 1.7 3.4 -1.8
v 1.7 3.6 5.3
v 1.7 3.6 3.9
v 1.7 3.6 3.6
v 1.7 3.6 -2.3
v 1.7 3.6 -2.6
v 1.7 3.6 -4
v 1.7 3.6 -4.3
v 1.7 3.6 -5.6
v 1.8 0.7 5.4
v 1.8 0.7 4.6
v 1.8 0.7 4
v 1.8 0.7 3.8
v 1.8 0.7 3.7
v 1.8 0.7 2.9
v 1.8 0.7 1
v 1.8 0.7 0.3
v 1.8 0.7 -0.2
v 1.8 0.7 -2.4
v 1.8 0.7 -2.5
v 1.8 0.7 -2.6
v 1.8 0.7 -3.3
v 1.8 0.7 -4.1
v 1.8 0.7 -4.2
v 1.8 0.7 -4.9
v 1.8 0.7 -5.4
v 1.8 0.7 -5.7
v 1.8 0.8 5.3
v 1.8 0.8 4.6
v 1.8 0.8 4
v 1.8 0.8 3.9
v 1.8 0.8 3.6
v 1.8 0.8 2.9
v 1.8 0.8 1
v 1.8 0.8 0.3
v 1.8 0.8 -0.2
v 1.8 0.8 -2.3
v 1.8 0.8 -2.6
v 1.8 0.8 -3.3
v 1.8 0.8 -4
v 1.8 0.8 -4.3
v 1.8 0.8 -4.9
v 1.8 0.8 -5.4
v 1.8 0.8 -5.6
v 1.8 3.6 5.3
v 1.8 3.6 3.9
v 1.8 3.6 3.6
v 1.8 3.6 -2.3
v 1.8 3.6 -2.6
v 1.8 3.6 -4
v 1.8 3.6 -4.3
v 1.8 3.6 -5.6
v 1.8 3.7 5.4
v 1.8 3.7 3.8
v 1.8 3.7 3.7
v 1.8 3.7 -2.4
v 1.8 3.7 -2.5
v 1.8 3.7 -4.1
v 1.8 3.7 -4.2
v 1.8 3.7 -5.7
v 1.9 0.6 5.5
v 1.9 0.6 -5.8
v 1.9 0.7 5.4
v 1.9 0.7 3.8
v 1.9 0.7 3.7
v 1.9 0.7 -2.4
v 1.9 0.7 -2.5
v 1.9 0.7 -4.1
v 1.9 0.7 -4.2
v 1.9 0.7 -5.7
v 1.9 3.7 5.4
v 1.9 3.7 3.8
v 1.9 3.7 3.7
v 1.9 3.7 -2.4
v 1.9 3.7 -2.5
v 1.9 3.7 -4.1
v 1.9 3.7 -4.2
v 1.9 3.7 -5.7
v 1.9 3.8 5.5
v 1.9 3.8 -5.8
v 2.1 0.1 5.7
v 2.1 0.1 -6
v 2.1 0.6 5.7
v 2.1 0.6 -6
v 2.1 3.8 5.7
v 2.1 3.8 -6
v 2.1 4.1 5.7
v 2.1 4.1 -6
v -1.9 0.1 5.7
v -1.9 0.6 5.7
v -1.9 3.8 5.7
v -1.9 4.1 5.7
v 2.1 0.1 5.7
v 2.1 0.6 5.7
v 2.1 3.8 5.7
v 2.1 4.1 5.7
v -1.7 0.6 5.5
v -1.7 3.8 5.5
v 1.9 0.6 5.5
v 1.9 3.8 5.5
v -1.5 0.8 5
v -1.5 1.7 5
v -1.5 1.8 5
v -1.5 2.6 5
v -1.5 2.7 5
v -1.5 3.6 5
v -1.4 0.8 5
v -1.4 1.7 5
v -1.4 1.8 5
v -1.4 2.6 5
v -1.4 2.7 5
v -1.4 3.6 5
v -1.7 1.3 4.4
v -1.7 1.5 4.4
v -1.7 2.2 4.4
v -1.7 2.4 4.4
v -1.7 3.2 4.4
v -1.7 3.4 4.4
v -1.5 1.3 4.4
v -1.5 1.5 4.4
v -1.5 2.2 4.4
v -1.5 2.4 4.4
v -1.5 3.2 4.4
v -1.5 3.4 4.4
v 1.7 0.8 3.9
v 1.7 3.6 3.9
v 1.8 0.8 3.9
v 1.8 3.6 3.9
v 1.8 0.7 3.8
v 1.8 3.7 3.8
v 1.9 0.7 3.8
v 1.9 3.7 3.8
v -1.6 1.3 3.6
v -1.6 1.5 3.6
v -1.6 2.2 3.6
v -1.6 2.4 3.6
v -1.6 3.2 3.6
v -1.6 3.4 3.6
v -1.5 1.3 3.6
v -1.5 1.5 3.6
v -1.5 2.2 3.6
v -1.5 2.4 3.6
v -1.5 3.2 3.6
v -1.5 3.4 3.6
v -1.6 0.7 2.8
v -1.6 3.7 2.8
v -1.4 0.7 2.8
v -1.4 3.7 2.8
v -1.5 0.8 2.5
v -1.5 1.7 2.5
v -1.5 1.8 2.5
v -1.5 2.6 2.5
v -1.5 2.7 2.5
v -1.5 3.6 2.5
v -1.4 0.8 2.5
v -1.4 1.7 2.5
v -1.4 1.8 2.5
v -1.4 2.6 2.5
v -1.4 2.7 2.5
v -1.4 3.6 2.5
v -1.7 1.3 1.7
v -1.7 1.5 1.7
v -1.7 2.2 1.7
v -1.7 2.4 1.7
v -1.7 3.2 1.7
v -1.7 3.4 1.7
v -1.5 1.3 1.7
v -1.5 1.5 1.7
v -1.5 2.2 1.7
v -1.5 2.4 1.7
v -1.5 3.2 1.7
v -1.5 3.4 1.7
v -1.6 1.3 0.9
v -1.6 1.5 0.9
v -1.6 2.2 0.9
v -1.6 2.4 0.9
v -1.6 3.2 0.9
v -1.6 3.4 0.9
v -1.5 1.3 0.9
v -1.5 1.5 0.9
v -1.5 2.2 0.9
v -1.5 2.4 0.9
v -1.5 3.2 0.9
v -1.5 3.4 0.9
v -1.6 0.7 -0.0999999
v -1.6 3.7 -0.0999999
v -1.4 0.7 -0.0999999
v -1.4 3.7 -0.0999999
v -1.5 0.8 -0.4
v -1.5 1.7 -0.4
v -1.5 1.8 -0.4
v -1.5 2.6 -0.4
v -1.5 2.7 -0.4
v -1.5 3.6 -0.4
v -1.4 0.8 -0.4
v -1.4 1.7 -0.4
v -1.4 1.8 -0.4
v -1.4 2.6 -0.4
v -1.4 2.7 -0.4
v -1.4 3.6 -0.4
v -1.7 1.3 -1
v -1.7 1.5 -1
v -1.7 2.2 -1
v -1.7 2.4 -1
v -1.7 3.2 -1
v -1.7 3.4 -1
v -1.5 1.3 -1
v -1.5 1.5 -1
v -1.5 2.2 -1
v -1.5 2.4 -1
v -1.5 3.2 -1
v -1.5 3.4 -1
v -1.6 1.3 -1.8
v -1.6 1.5 -1.8
v -1.6 2.2 -1.8
v -1.6 2.4 -1.8
v -1.6 3.2 -1.8
v -1.6 3.4 -1.8
v -1.5 1.3 -1.8
v -1.5 1.5 -1.8
v -1.5 2.2 -1.8
v -1.5 2.4 -1.8
v -1.5 3.2 -1.8
v -1.5 3.4 -1.8
v 1.7 0.8 -2.3
v 1.7 3.6 -2.3
v 1.8 0.8 -2.3
v 1.8 3.6 -2.3
v 1.8 0.7 -2.4
v 1.8 3.7 -2.4
v 1.9 0.7 -2.4
v 1.9 3.7 -2.4
v -1.7 0.7 -2.6
v -1.7 3.7 -2.6
v -1.4 0.7 -2.6
v -1.4 3.7 -2.6
v -1.7 0.8 -2.9
v -1.7 3.6 -2.9
v -1.5 0.8 -2.9
v -1.5 3.6 -2.9
v -1.5 0.8 -3.1
v -1.5 3.6 -3.1
v -1.4 0.8 -3.1
v -1.4 3.6 -3.1
v -1.6 0.9 -3.3
v -1.6 3.5 -3.3
v -1.5 0.9 -3.3
v -1.5 3.5 -3.3
v 1.7 0.8 -4
v 1.7 3.6 -4
v 1.8 0.8 -4
v 1.8 3.6 -4
v 1.8 0.7 -4.1
v 1.8 3.7 -4.1
v 1.9 0.7 -4.1
v 1.9 3.7 -4.1
v -1.7 0.7 -5.4
v -1.7 3.7 -5.4
v -1.4 0.7 -5.4
v -1.4 3.7 -5.4
v 1.7 0.8 -5.6
v 1.7 3.6 -5.6
v 1.8 0.8 -5.6
v 1.8 3.6 -5.6
v 1.8 0.7 -5.7
v 1.8 3.7 -5.7
v 1.9 0.7 -5.7
v 1.9 3.7 -5.7
v 1.8 0.7 5.4
v 1.8 3.7 5.4
v 1.9 0.7 5.4
v 1.9 3.7 5.4
v 1.7 0.8 5.3
v 1.7 3.6 5.3
v 1.8 0.8 5.3
v 1.8 3.6 5.3
v -1.7 0.7 5.1
v -1.7 3.7 5.1
v -1.4 0.7 5.1
v -1.4 3.7 5.1
v -1.6 1.3 4.3
v -1.6 1.5 4.3
v -1.6 2.2 4.3
v -1.6 2.4 4.3
v -1.6 3.2 4.3
v -1.6 3.4 4.3
v -1.5 1.3 4.3
v -1.5 1.5 4.3
v -1.5 2.2 4.3
v -1.5 2.4 4.3
v -1.5 3.2 4.3
v -1.5 3.4 4.3
v 1.8 0.7 3.7
v 1.8 3.7 3.7
v 1.9 0.7 3.7
v 1.9 3.7 3.7
v 1.7 0.8 3.6
v 1.7 3.6 3.6
v 1.8 0.8 3.6
v 1.8 3.6 3.6
v -1.7 1.3 3.5
v -1.7 1.5 3.5
v -1.7 2.2 3.5
v -1.7 2.4 3.5
v -1.7 3.2 3.5
v -1.7 3.4 3.5
v -1.5 1.3 3.5
v -1.5 1.5 3.5
v -1.5 2.2 3.5
v -1.5 2.4 3.5
v -1.5 3.2 3.5
v -1.5 3.4 3.5
v -1.5 0.8 2.9
v -1.5 1.7 2.9
v -1.5 1.8 2.9
v -1.5 2.6 2.9
v -1.5 2.7 2.9
v -1.5 3.6 2.9
v -1.4 0.8 2.9
v -1.4 1.7 2.9
v -1.4 1.8 2.9
v -1.4 2.6 2.9
v -1.4 2.7 2.9
v -1.4 3.6 2.9
v -1.6 0.7 2.6
v -1.6 3.7 2.6
v -1.4 0.7 2.6
v -1.4 3.7 2.6
v -1.6 1.3 1.6
v -1.6 1.5 1.6
v -1.6 2.2 1.6
v -1.6 2.4 1.6
v -1.6 3.2 1.6
v -1.6 3.4 1.6
v -1.5 1.3 1.6
v -1.5 1.5 1.6
v -1.5 2.2 1.6
v -1.5 2.4 1.6
v -1.5 3.2 1.6
v -1.5 3.4 1.6
v -1.7 1.3 0.8
v -1.7 1.5 0.8
v -1.7 2.2 0.8
v -1.7 2.4 0.8
v -1.7 3.2 0.8
v -1.7 3.4 0.8
v -1.5 1.3 0.8
v -1.5 1.5 0.8
v -1.5 2.2 0.8
v -1.5 2.4 0.8
v -1.5 3.2 0.8
v -1.5 3.4 0.8
v -1.5 0.8 0
v -1.5 1.7 0
v -1.5 1.8 0
v -1.5 2.6 0
v -1.5 2.7 0
v -1.5 3.6 0
v -1.4 0.8 0
v -1.4 1.7 0
v -1.4 1.8 0
v -1.4 2.6 0
v -1.4 2.7 0
v -1.4 3.6 0
v -1.6 0.7 -0.3
v -1.6 3.7 -0.3
v -1.4 0.7 -0.3
v -1.4 3.7 -0.3
v -1.6 1.3 -1.1
v -1.6 1.5 -1.1
v -1.6 2.2 -1.1
v -1.6 2.4 -1.1
v -1.6 3.2 -1.1
v -1.6 3.4 -1.1
v -1.5 1.3 -1.1
v -1.5 1.5 -1.1
v -1.5 2.2 -1.1
v -1.5 2.4 -1.1
v -1.5 3.2 -1.1
v -1.5 3.4 -1.1
v -1.7 1.3 -1.9
v -1.7 1.5 -1.9
v -1.7 2.2 -1.9
v -1.7 2.4 -1.9
v -1.7 3.2 -1.9
v -1.7 3.4 -1.9
v -1.5 1.3 -1.9
v -1.5 1.5 -1.9
v -1.5 2.2 -1.9
v -1.5 2.4 -1.9
v -1.5 3.2 -1.9
v -1.5 3.4 -1.9
v -1.5 0.8 -2.5
v -1.5 1.7 -2.5
v -1.5 1.8 -2.5
v -1.5 2.6 -2.5
v -1.5 2.7 -2.5
v -1.5 3.6 -2.5
v -1.4 0.8 -2.5
v -1.4 1.7 -2.5
v -1.4 1.8 -2.5
v -1.4 2.6 -2.5
v -1.4 2.7 -2.5
v -1.4 3.6 -2.5
v 1.8 0.7 -2.5
v 1.8 3.7 -2.5
v 1.9 0.7 -2.5
v 1.9 3.7 -2.5
v 1.7 0.8 -2.6
v 1.7 3.6 -2.6
v 1.8 0.8 -2.6
v 1.8 3.6 -2.6
v -1.7 0.8 -2.7
v -1.7 3.6 -2.7
v -1.5 0.8 -2.7
v -1.5 3.6 -2.7
v -1.7 0.7 -3
v -1.7 3.7 -3
v -1.4 0.7 -3
v -1.4 3.7 -3
v -1.6 0.9 -3.5
v -1.6 3.5 -3.5
v -1.5 0.9 -3.5
v -1.5 3.5 -3.5
v 1.8 0.7 -4.2
v 1.8 3.7 -4.2
v 1.9 0.7 -4.2
v 1.9 3.7 -4.2
v 1.7 0.8 -4.3
v 1.7 3.6 -4.3
v 1.8 0.8 -4.3
v 1.8 3.6 -4.3
v -1.5 0.8 -5.3
v -1.5 3.6 -5.3
v -1.4 0.8 -5.3
v -1.4 3.6 -5.3
v -1.7 0.6 -5.8
v -1.7 3.8 -5.8
v 1.9 0.6 -5.8
v 1.9 3.8 -5.8
v -1.9 0.1 -6
v -1.9 0.6 -6
v -1.9 3.8 -6
v -1.9 4.1 -6
v 2.1 0.1 -6
v 2.1 0.6 -6
v 2.1 3.8 -6
v 2.1 4.1 -6
v -1.9 0.1 5.7
v 2.1 0.1 5.7
v -1.9 0.1 -6
v 2.1 0.1 -6
v -1.5 0.8 5
v -1.4 0.8 5
v -1.5 0.8 2.9
v -1.4 0.8 2.9
v -1.5 0.8 2.5
v -1.4 0.8 2.5
v -1.5 0.8 0
v -1.4 0.8 0
v -1.5 0.8 -0.4
v -1.4 0.8 -0.4
v -1.5 0.8 -2.5
v -1.4 0.8 -2.5
v -1.5 0.8 -3.1
v -1.4 0.8 -3.1
v -1.5 0.8 -5.3
v -1.4 0.8 -5.3
v -1.6 0.9 -3.3
v -1.5 0.9 -3.3
v -1.6 0.9 -3.5
v -1.5 0.9 -3.5
v -1.7 1.3 4.4
v -1.5 1.3 4.4
v -1.6 1.3 4.3
v -1.5 1.3 4.3
v -1.6 1.3 3.6
v -1.5 1.3 3.6
v -1.7 1.3 3.5
v -1.5 1.3 3.5
v -1.7 1.3 1.7
v -1.5 1.3 1.7
v -1.6 1.3 1.6
v -1.5 1.3 1.6
v -1.6 1.3 0.9
v -1.5 1.3 0.9
v -1.7 1.3 0.8
v -1.5 1.3 0.8
v -1.7 1.3 -1
v -1.5 1.3 -1
v -1.6 1.3 -1.1
v -1.5 1.3 -1.1
v -1.6 1.3 -1.8
v -1.5 1.3 -1.8
v -1.7 1.3 -1.9
v -1.5 1.3 -1.9
v -1.5 1.8 5
v -1.4 1.8 5
v -1.5 1.8 2.9
v -1.4 1.8 2.9
v -1.5 1.8 2.5
v -1.4 1.8 2.5
v -1.5 1.8 0
v -1.4 1.8 0
v -1.5 1.8 -0.4
v -1.4 1.8 -0.4
v -1.5 1.8 -2.5
v -1.4 1.8 -2.5
v -1.7 2.2 4.4
v -1.5 2.2 4.4
v -1.6 2.2 4.3
v -1.5 2.2 4.3
v -1.6 2.2 3.6
v -1.5 2.2 3.6
v -1.7 2.2 3.5
v -1.5 2.2 3.5
v -1.7 2.2 1.7
v -1.5 2.2 1.7
v -1.6 2.2 1.6
v -1.5 2.2 1.6
v -1.6 2.2 0.9
v -1.5 2.2 0.9
v -1.7 2.2 0.8
v -1.5 2.2 0.8
v -1.7 2.2 -1
v -1.5 2.2 -1
v -1.6 2.2 -1.1
v -1.5 2.2 -1.1
v -1.6 2.2 -1.8
v -1.5 2.2 -1.8
v -1.7 2.2 -1.9
v -1.5 2.2 -1.9
v -1.5 2.7 5
v -1.4 2.7 5
v -1.5 2.7 2.9
v -1.4 2.7 2.9
v -1.5 2.7 2.5
v -1.4 2.7 2.5
v -1.5 2.7 0
v -1.4 2.7 0
v -1.5 2.7 -0.4
v -1.4 2.7 -0.4
v -1.5 2.7 -2.5
v -1.4 2.7 -2.5
v -1.7 3.2 4.4
v -1.5 3.2 4.4
v -1.6 3.2 4.3
v -1.5 3.2 4.3
v -1.6 3.2 3.6
v -1.5 3.2 3.6
v -1.7 3.2 3.5
v -1.5 3.2 3.5
v -1.7 3.2 1.7
v -1.5 3.2 1.7
v -1.6 3.2 1.6
v -1.5 3.2 1.6
v -1.6 3.2 0.9
v -1.5 3.2 0.9
v -1.7 3.2 0.8
v -1.5 3.2 0.8
v -1.7 3.2 -1
v -1.5 3.2 -1
v -1.6 3.2 -1.1
v -1.5 3.2 -1.1
v -1.6 3.2 -1.8
v -1.5 3.2 -1.8
v -1.7 3.2 -1.9
v -1.5 3.2 -1.9
v 1.7 3.6 5.3
v 1.8 3.6 5.3
v 1.7 3.6 3.9
v 1.8 3.6 3.9
v 1.7 3.6 3.6
v 1.8 3.6 3.6
v 1.7 3.6 -2.3
v 1.8 3.6 -2.3
v 1.7 3.6 -2.6
v 1.8 3.6 -2.6
v -1.7 3.6 -2.7
v -1.5 3.6 -2.7
v -1.7 3.6 -2.9
v -1.5 3.6 -2.9
v 1.7 3.6 -4
v 1.8 3.6 -4
v 1.7 3.6 -4.3
v 1.8 3.6 -4.3
v 1.7 3.6 -5.6
v 1.8 3.6 -5.6
v 1.8 3.7 5.4
v 1.9 3.7 5.4
v -1.7 3.7 5.1
v -1.4 3.7 5.1
v 1.8 3.7 3.8
v 1.9 3.7 3.8
v 1.8 3.7 3.7
v 1.9 3.7 3.7
v -1.6 3.7 2.8
v -1.4 3.7 2.8
v -1.6 3.7 2.6
v -1.4 3.7 2.6
v -1.6 3.7 -0.0999999
v -1.4 3.7 -0.0999999
v -1.6 3.7 -0.3
v -1.4 3.7 -0.3
v 1.8 3.7 -2.4
v 1.9 3.7 -2.4
v 1.8 3.7 -2.5
v 1.9 3.7 -2.5
v -1.7 3.7 -2.6
v -1.4 3.7 -2.6
v -1.7 3.7 -3
v -1.4 3.7 -3
v 1.8 3.7 -4.1
v 1.9 3.7 -4.1
v 1.8 3.7 -4.2
v 1.9 3.7 -4.2
v -1.7 3.7 -5.4
v -1.4 3.7 -5.4
v 1.8 3.7 -5.7
v 1.9 3.7 -5.7
v -1.9 3.8 5.7
v 2.1 3.8 5.7
v -1.7 3.8 5.5
v 1.9 3.8 5.5
v -1.7 3.8 -5.8
v 1.9 3.8 -5.8
v -1.9 3.8 -6
v 2.1 3.8 -6
v -1.9 0.6 5.7
v 2.1 0.6 5.7
v -1.7 0.6 5.5
v 1.9 0.6 5.5
v -1.7 0.6 -5.8
v 1.9 0.6 -5.8
v -1.9 0.6 -6
v 2.1 0.6 -6
v 1.8 0.7 5.4
v 1.9 0.7 5.4
v -1.7 0.7 5.1
v -1.4 0.7 5.1
v 1.8 0.7 4.6
v 1.8 0.7 4
v 1.8 0.7 3.8
v 1.9 0.7 3.8
v 1.8 0.7 3.7
v 1.9 0.7 3.7
v 1.8 0.7 2.9
v -1.6 0.7 2.8
v -1.4 0.7 2.8
v -1.6 0.7 2.6
v -1.4 0.7 2.6
v 1.8 0.7 1
v 1.8 0.7 0.3
v -1.6 0.7 -0.0999999
v -1.4 0.7 -0.0999999
v 1.8 0.7 -0.2
v -1.6 0.7 -0.3
v -1.4 0.7 -0.3
v 1.8 0.7 -2.4
v 1.9 0.7 -2.4
v 1.8 0.7 -2.5
v 1.9 0.7 -2.5
v -1.7 0.7 -2.6
v -1.4 0.7 -2.6
v 1.8 0.7 -2.6
v -1.7 0.7 -3
v -1.4 0.7 -3
v 1.8 0.7 -3.3
v 1.8 0.7 -4.1
v 1.9 0.7 -4.1
v 1.8 0.7 -4.2
v 1.9 0.7 -4.2
v 1.8 0.7 -4.9
v -1.7 0.7 -5.4
v -1.4 0.7 -5.4
v 1.8 0.7 -5.4
v 1.8 0.7 -5.7
v 1.9 0.7 -5.7
v 1.7 0.8 5.3
v 1.8 0.8 5.3
v 1.7 0.8 4.6
v 1.8 0.8 4.6
v 1.7 0.8 4
v 1.8 0.8 4
v 1.7 0.8 3.9
v 1.8 0.8 3.9
v 1.7 0.8 3.6
v 1.8 0.8 3.6
v 1.7 0.8 2.9
v 1.8 0.8 2.9
v 1.7 0.8 1
v 1.8 0.8 1
v 1.7 0.8 0.3
v 1.8 0.8 0.3
v 1.7 0.8 -0.2
v 1.8 0.8 -0.2
v 1.7 0.8 -2.3
v 1.8 0.8 -2.3
v 1.7 0.8 -2.6
v 1.8 0.8 -2.6
v -1.7 0.8 -2.7
v -1.5 0.8 -2.7
v -1.7 0.8 -2.9
v -1.5 0.8 -2.9
v 1.7 0.8 -3.3
v 1.8 0.8 -3.3
v 1.7 0.8 -4
v 1.8 0.8 -4
v 1.7 0.8 -4.3
v 1.8 0.8 -4.3
v 1.7 0.8 -4.9
v 1.8 0.8 -4.9
v 1.7 0.8 -5.4
v 1.8 0.8 -5.4
v 1.7 0.8 -5.6
v 1.8 0.8 -5.6
v -1.7 1.5 4.4
v -1.5 1.5 4.4
v -1.6 1.5 4.3
v -1.5 1.5 4.3
v -1.6 1.5 3.6
v -1.5 1.5 3.6
v -1.7 1.5 3.5
v -1.5 1.5 3.5
v -1.7 1.5 1.7
v -1.5 1.5 1.7
v -1.6 1.5 1.6
v -1.5 1.5 1.6
v -1.6 1.5 0.9
v -1.5 1.5 0.9
v -1.7 1.5 0.8
v -1.5 1.5 0.8
v -1.7 1.5 -1
v -1.5 1.5 -1
v -1.6 1.5 -1.1
v -1.5 1.5 -1.1
v -1.6 1.5 -1.8
v -1.5 1.5 -1.8
v -1.7 1.5 -1.9
v -1.5 1.5 -1.9
v -1.5 1.7 5
v -1.4 1.7 5
v -1.5 1.7 2.9
v -1.4 1.7 2.9
v -1.5 1.7 2.5
v -1.4 1.7 2.5
v -1.5 1.7 0
v -1.4 1.7 0
v -1.5 1.7 -0.4
v -1.4 1.7 -0.4
v -1.5 1.7 -2.5
v -1.4 1.7 -2.5
v -1.7 2.4 4.4
v -1.5 2.4 4.4
v -1.6 2.4 4.3
v -1.5 2.4 4.3
v -1.6 2.4 3.6
v -1.5 2.4 3.6
v -1.7 2.4 3.5
v -1.5 2.4 3.5
v -1.7 2.4 1.7
v -1.5 2.4 1.7
v -1.6 2.4 1.6
v -1.5 2.4 1.6
v -1.6 2.4 0.9
v -1.5 2.4 0.9
v -1.7 2.4 0.8
v -1.5 2.4 0.8
v -1.7 2.4 -1
v -1.5 2.4 -1
v -1.6 2.4 -1.1
v -1.5 2.4 -1.1
v -1.6 2.4 -1.8
v -1.5 2.4 -1.8
v -1.7 2.4 -1.9
v -1.5 2.4 -1.9
v -1.5 2.6 5
v -1.4 2.6 5
v -1.5 2.6 2.9
v -1.4 2.6 2.9
v -1.5 2.6 2.5
v -1.4 2.6 2.5
v -1.5 2.6 0
v -1.4 2.6 0
v -1.5 2.6 -0.4
v -1.4 2.6 -0.4
v -1.5 2.6 -2.5
v -1.4 2.6 -2.5
v -1.7 3.4 4.4
v -1.5 3.4 4.4
v -1.6 3.4 4.3
v -1.5 3.4 4.3
v -1.6 3.4 3.6
v -1.5 3.4 3.6
v -1.7 3.4 3.5
v -1.5 3.4 3.5
v -1.7 3.4 1.7
v -1.5 3.4 1.7
v -1.6 3.4 1.6
v -1.5 3.4 1.6
v -1.6 3.4 0.9
v -1.5 3.4 0.9
v -1.7 3.4 0.8
v -1.5 3.4 0.8
v -1.7 3.4 -1
v -1.5 3.4 -1
v -1.6 3.4 -1.1
v -1.5 3.4 -1.1
v -1.6 3.4 -1.8
v -1.5 3.4 -1.8
v -1.7 3.4 -1.9
v -1.5 3.4 -1.9
v -1.6 3.5 -3.3
v -1.5 3.5 -3.3
v -1.6 3.5 -3.5
v -1.5 3.5 -3.5
v -1.5 3.6 5
v -1.4 3.6 5
v -1.5 3.6 2.9
v -1.4 3.6 2.9
v -1.5 3.6 2.5
v -1.4 3.6 2.5
v -1.5 3.6 0
v -1.4 3.6 0
v -1.5 3.6 -0.4
v -1.4 3.6 -0.4
v -1.5 3.6 -2.5
v -1.4 3.6 -2.5
v -1.5 3.6 -3.1
v -1.4 3.6 -3.1
v -1.5 3.6 -5.3
v -1.4 3.6 -5.3
v -1.9 4.1 5.7
v 2.1 4.1 5.7
v -1.8 4.1 5.6
v 1.9 4.1 5.6
v -1.8 4.1 -5.9
v 1.9 4.1 -5.9
v -1.9 4.1 -6
v 2.1 4.1 -6

# faces
f 3/3/1 2/3/1 1/3/1
f 4/3/1 2/3/1 3/3/1
f 7/7/1 6/7/1 5/7/1
f 8/7/1 6/7/1 7/7/1
f 11/4/1 10/4/1 9/4/1
f 12/4/1 10/4/1 11/4/1
f 13/4/1 10/4/1 12/4/1
f 14/4/1 10/4/1 13/4/1
f 15/4/1 13/4/1 12/4/1
f 16/4/1 13/4/1 15/4/1
f 23/1/1 18/1/1 17/1/1
f 24/1/1 18/1/1 23/1/1
f 25/1/1 20/1/1 19/1/1
f 26/1/1 20/1/1 25/1/1
f 27/1/1 22/1/1 21/1/1
f 28/1/1 22/1/1 27/1/1
f 35/1/1 30/1/1 29/1/1
f 36/1/1 30/1/1 35/1/1
f 37/1/1 32/1/1 31/1/1
f 38/1/1 32/1/1 37/1/1
f 39/1/1 34/1/1 33/1/1
f 40/1/1 34/1/1 39/1/1
f 47/1/1 42/1/1 41/1/1
f 48/1/1 42/1/1 47/1/1
f 49/1/1 44/1/1 43/1/1
f 50/1/1 44/1/1 49/1/1
f 51/1/1 46/1/1 45/1/1
f 52/1/1 46/1/1 51/1/1
f 53/4/1 15/4/1 12/4/1
f 54/4/1 13/4/1 16/4/1
f 55/4/1 11/4/1 9/4/1
f 56/4/1 54/4/1 53/4/1
f 56/4/1 53/4/1 12/4/1
f 57/4/1 13/4/1 54/4/1
f 57/4/1 54/4/1 56/4/1
f 58/4/1 10/4/1 14/4/1
f 59/4/1 55/4/1 9/4/1
f 59/4/1 58/4/1 57/4/1
f 59/4/1 57/4/1 56/4/1
f 59/4/1 56/4/1 55/4/1
f 60/4/1 10/4/1 58/4/1
f 60/4/1 58/4/1 59/4/1
f 67/1/1 66/1/1 65/1/1
f 68/1/1 66/1/1 67/1/1
f 69/5/1 62/5/1 61/5/1
f 70/5/1 62/5/1 69/5/1
f 71/5/1 64/5/1 63/5/1
f 72/5/1 64/5/1 71/5/1
f 83/4/1 82/4/1 81/4/1
f 84/4/1 82/4/1 83/4/1
f 85/4/1 74/4/1 73/4/1
f 86/4/1 74/4/1 85/4/1
f 87/4/1 74/4/1 86/4/1
f 88/4/1 74/4/1 87/4/1
f 89/4/1 76/4/1 75/4/1
f 90/4/1 76/4/1 89/4/1
f 91/4/1 76/4/1 90/4/1
f 92/4/1 76/4/1 91/4/1
f 93/4/1 78/4/1 77/4/1
f 94/4/1 78/4/1 93/4/1
f 95/4/1 78/4/1 94/4/1
f 96/4/1 78/4/1 95/4/1
f 97/4/1 85/4/1 73/4/1
f 98/4/1 87/4/1 86/4/1
f 99/4/1 87/4/1 98/4/1
f 100/4/1 74/4/1 88/4/1
f 101/4/1 89/4/1 75/4/1
f 102/4/1 91/4/1 90/4/1
f 103/4/1 91/4/1 102/4/1
f 104/4/1 76/4/1 92/4/1
f 105/4/1 93/4/1 77/4/1
f 106/4/1 95/4/1 94/4/1
f 107/4/1 95/4/1 106/4/1
f 108/4/1 78/4/1 96/4/1
f 109/4/1 99/4/1 98/4/1
f 109/4/1 97/4/1 73/4/1
f 109/4/1 100/4/1 99/4/1
f 109/4/1 98/4/1 97/4/1
f 110/4/1 74/4/1 100/4/1
f 110/4/1 100/4/1 109/4/1
f 111/4/1 103/4/1 102/4/1
f 111/4/1 104/4/1 103/4/1
f 111/4/1 101/4/1 75/4/1
f 111/4/1 102/4/1 101/4/1
f 112/4/1 76/4/1 104/4/1
f 112/4/1 104/4/1 111/4/1
f 113/4/1 108/4/1 107/4/1
f 113/4/1 107/4/1 106/4/1
f 113/4/1 105/4/1 77/4/1
f 113/4/1 106/4/1 105/4/1
f 114/4/1 78/4/1 108/4/1
f 114/4/1 108/4/1 113/4/1
f 121/4/1 116/4/1 115/4/1
f 122/4/1 116/4/1 121/4/1
f 123/4/1 116/4/1 122/4/1
f 124/4/1 116/4/1 123/4/1
f 125/4/1 118/4/1 117/4/1
f 126/4/1 118/4/1 125/4/1
f 127/4/1 118/4/1 126/4/1
f 128/4/1 118/4/1 127/4/1
f 129/4/1 120/4/1 119/4/1
f 130/4/1 120/4/1 129/4/1
f 131/4/1 120/4/1 130/4/1
f 132/4/1 120/4/1 131/4/1
f 133/4/1 121/4/1 115/4/1
f 134/4/1 123/4/1 122/4/1
f 135/4/1 123/4/1 134/4/1
f 136/4/1 116/4/1 124/4/1
f 137/4/1 125/4/1 117/4/1
f 138/4/1 127/4/1 126/4/1
f 139/4/1 127/4/1 138/4/1
f 140/4/1 118/4/1 128/4/1
f 141/4/1 129/4/1 119/4/1
f 142/4/1 131/4/1 130/4/1
f 143/4/1 131/4/1 142/4/1
f 144/4/1 120/4/1 132/4/1
f 145/4/1 135/4/1 134/4/1
f 145/4/1 133/4/1 115/4/1
f 145/4/1 136/4/1 135/4/1
f 145/4/1 134/4/1 133/4/1
f 146/4/1 116/4/1 136/4/1
f 146/4/1 136/4/1 145/4/1
f 147/4/1 139/4/1 138/4/1
f 147/4/1 140/4/1 139/4/1
f 147/4/1 137/4/1 117/4/1
f 147/4/1 138/4/1 137/4/1
f 148/4/1 118/4/1 140/4/1
f 148/4/1 140/4/1 147/4/1
f 149/4/1 144/4/1 143/4/1
f 149/4/1 143/4/1 142/4/1
f 149/4/1 141/4/1 119/4/1
f 149/4/1 142/4/1 141/4/1
f 150/4/1 120/4/1 144/4/1
f 150/4/1 144/4/1 149/4/1
f 157/4/1 152/4/1 151/4/1
f 158/4/1 152/4/1 157/4/1
f 159/4/1 152/4/1 158/4/1
f 160/4/1 152/4/1 159/4/1
f 161/4/1 154/4/1 153/4/1
f 162/4/1 154/4/1 161/4/1
f 163/4/1 154/4/1 162/4/1
f 164/4/1 154/4/1 163/4/1
f 165/4/1 156/4/1 155/4/1
f 166/4/1 156/4/1 165/4/1
f 167/4/1 156/4/1 166/4/1
f 168/4/1 156/4/1 167/4/1
f 169/4/1 157/4/1 151/4/1
f 170/4/1 159/4/1 158/4/1
f 171/4/1 159/4/1 170/4/1
f 172/4/1 152/4/1 160/4/1
f 173/4/1 161/4/1 153/4/1
f 174/4/1 163/4/1 162/4/1
f 175/4/1 163/4/1 174/4/1
f 176/4/1 154/4/1 164/4/1
f 177/4/1 165/4/1 155/4/1
f 178/4/1 167/4/1 166/4/1
f 179/4/1 167/4/1 178/4/1
f 180/4/1 156/4/1 168/4/1
f 181/4/1 83/4/1 81/4/1
f 182/4/1 82/4/1 84/4/1
f 183/4/1 171/4/1 170/4/1
f 183/4/1 169/4/1 151/4/1
f 183/4/1 172/4/1 171/4/1
f 183/4/1 170/4/1 169/4/1
f 184/4/1 152/4/1 172/4/1
f 184/4/1 172/4/1 183/4/1
f 185/4/1 175/4/1 174/4/1
f 185/4/1 176/4/1 175/4/1
f 185/4/1 173/4/1 153/4/1
f 185/4/1 174/4/1 173/4/1
f 186/4/1 154/4/1 176/4/1
f 186/4/1 176/4/1 185/4/1
f 187/4/1 180/4/1 179/4/1
f 187/4/1 179/4/1 178/4/1
f 187/4/1 177/4/1 155/4/1
f 187/4/1 178/4/1 177/4/1
f 188/4/1 156/4/1 180/4/1
f 188/4/1 180/4/1 187/4/1
f 189/5/1 80/5/1 79/5/1
f 190/5/1 80/5/1 189/5/1
f 191/4/1 181/4/1 81/4/1
f 191/4/1 182/4/1 181/4/1
f 192/4/1 82/4/1 182/4/1
f 192/4/1 182/4/1 191/4/1
f 201/2/1 194/2/1 193/2/1
f 202/2/1 194/2/1 201/2/1
f 203/2/1 196/2/1 195/2/1
f 204/2/1 196/2/1 203/2/1
f 205/2/1 198/2/1 197/2/1
f 206/2/1 198/2/1 205/2/1
f 207/2/1 200/2/1 199/2/1
f 208/2/1 200/2/1 207/2/1
f 209/2/1 201/2/1 193/2/1
f 210/2/1 194/2/1 202/2/1
f 211/2/1 203/2/1 195/2/1
f 212/2/1 196/2/1 204/2/1
f 213/2/1 205/2/1 197/2/1
f 214/2/1 198/2/1 206/2/1
f 215/2/1 209/2/1 193/2/1
f 215/2/1 210/2/1 209/2/1
f 216/2/1 194/2/1 210/2/1
f 216/2/1 210/2/1 215/2/1
f 217/2/1 211/2/1 195/2/1
f 217/2/1 212/2/1 211/2/1
f 218/2/1 196/2/1 212/2/1
f 218/2/1 212/2/1 217/2/1
f 219/2/1 213/2/1 197/2/1
f 219/2/1 214/2/1 213/2/1
f 220/2/1 198/2/1 214/2/1
f 220/2/1 214/2/1 219/2/1
f 221/2/1 215/2/1 193/2/1
f 222/2/1 194/2/1 216/2/1
f 223/2/1 217/2/1 195/2/1
f 224/2/1 196/2/1 218/2/1
f 225/2/1 219/2/1 197/2/1
f 226/2/1 198/2/1 220/2/1
f 227/2/1 221/2/1 193/2/1
f 227/2/1 222/2/1 221/2/1
f 228/2/1 194/2/1 222/2/1
f 228/2/1 222/2/1 227/2/1
f 229/2/1 223/2/1 195/2/1
f 229/2/1 224/2/1 223/2/1
f 230/2/1 196/2/1 224/2/1
f 230/2/1 224/2/1 229/2/1
f 231/2/1 225/2/1 197/2/1
f 231/2/1 226/2/1 225/2/1
f 232/2/1 198/2/1 226/2/1
f 232/2/1 226/2/1 231/2/1
f 233/2/1 227/2/1 193/2/1
f 234/2/1 194/2/1 228/2/1
f 235/2/1 229/2/1 195/2/1
f 236/2/1 196/2/1 230/2/1
f 237/2/1 231/2/1 197/2/1
f 238/2/1 198/2/1 232/2/1
f 239/2/1 207/2/1 199/2/1
f 240/2/1 200/2/1 208/2/1
f 241/2/1 233/2/1 193/2/1
f 241/2/1 234/2/1 233/2/1
f 242/2/1 194/2/1 234/2/1
f 242/2/1 234/2/1 241/2/1
f 243/2/1 235/2/1 195/2/1
f 243/2/1 236/2/1 235/2/1
f 244/2/1 196/2/1 236/2/1
f 244/2/1 236/2/1 243/2/1
f 245/2/1 237/2/1 197/2/1
f 245/2/1 238/2/1 237/2/1
f 246/2/1 198/2/1 238/2/1
f 246/2/1 238/2/1 245/2/1
f 247/2/1 240/2/1 239/2/1
f 247/2/1 239/2/1 199/2/1
f 248/2/1 200/2/1 240/2/1
f 248/2/1 240/2/1 247/2/1
f 249/1/2 250/1/2 255/1/2
f 255/1/2 250/1/2 256/1/2
f 251/1/2 252/1/2 257/1/2
f 257/1/2 252/1/2 258/1/2
f 253/1/2 254/1/2 259/1/2
f 259/1/2 254/1/2 260/1/2
f 261/1/2 262/1/2 267/1/2
f 267/1/2 262/1/2 268/1/2
f 263/1/2 264/1/2 269/1/2
f 269/1/2 264/1/2 270/1/2
f 265/1/2 266/1/2 271/1/2
f 271/1/2 266/1/2 272/1/2
f 273/1/2 274/1/2 279/1/2
f 279/1/2 274/1/2 280/1/2
f 275/1/2 276/1/2 281/1/2
f 281/1/2 276/1/2 282/1/2
f 277/1/2 278/1/2 283/1/2
f 283/1/2 278/1/2 284/1/2
f 289/5/2 290/5/2 302/5/2
f 290/5/2 291/5/2 302/5/2
f 291/5/2 292/5/2 302/5/2
f 292/5/2 293/5/2 302/5/2
f 293/5/2 294/5/2 302/5/2
f 302/5/2 294/5/2 303/5/2
f 289/5/2 302/5/2 304/5/2
f 302/6/2 303/6/2 304/6/2
f 303/5/2 294/5/2 305/5/2
f 304/6/2 303/6/2 305/6/2
f 305/5/2 294/5/2 306/5/2
f 304/5/2 305/5/2 307/5/2
f 305/6/2 306/6/2 307/6/2
f 306/5/2 294/5/2 308/5/2
f 307/6/2 306/6/2 308/6/2
f 289/5/2 304/5/2 309/5/2
f 304/5/2 307/5/2 309/5/2
f 307/5/2 308/5/2 309/5/2
f 309/5/2 308/5/2 310/5/2
f 289/5/2 309/5/2 311/5/2
f 309/6/2 310/6/2 311/6/2
f 310/5/2 308/5/2 312/5/2
f 311/6/2 310/6/2 312/6/2
f 285/5/2 286/5/2 313/5/2
f 286/5/2 287/5/2 313/5/2
f 287/5/2 288/5/2 313/5/2
f 313/5/2 288/5/2 314/5/2
f 311/5/2 312/5/2 315/5/2
f 289/5/2 311/5/2 315/5/2
f 312/5/2 308/5/2 316/5/2
f 315/5/2 312/5/2 316/5/2
f 308/5/2 294/5/2 316/5/2
f 296/5/2 297/5/2 317/5/2
f 295/5/2 296/5/2 317/5/2
f 317/5/2 297/5/2 318/5/2
f 300/5/2 301/5/2 319/5/2
f 299/5/2 300/5/2 319/5/2
f 298/5/2 299/5/2 319/5/2
f 319/5/2 301/5/2 320/5/2
f 321/3/2 322/3/2 339/3/2
f 322/2/2 323/2/2 340/2/2
f 339/3/2 322/3/2 340/3/2
f 323/3/2 324/3/2 341/3/2
f 340/2/2 323/2/2 341/2/2
f 341/3/2 324/3/2 342/3/2
f 325/3/2 326/3/2 343/3/2
f 326/2/2 327/2/2 344/2/2
f 343/3/2 326/3/2 344/3/2
f 327/3/2 328/3/2 345/3/2
f 344/2/2 327/2/2 345/2/2
f 328/2/2 329/2/2 346/2/2
f 345/3/2 328/3/2 346/3/2
f 329/3/2 330/3/2 347/3/2
f 346/2/2 329/2/2 347/2/2
f 347/3/2 330/3/2 348/3/2
f 331/3/2 332/3/2 349/3/2
f 332/2/2 333/2/2 349/2/2
f 333/3/2 334/3/2 350/3/2
f 349/2/2 333/2/2 350/2/2
f 350/3/2 334/3/2 351/3/2
f 335/3/2 336/3/2 352/3/2
f 336/2/2 337/2/2 353/2/2
f 352/3/2 336/3/2 353/3/2
f 337/3/2 338/3/2 354/3/2
f 353/2/2 337/2/2 354/2/2
f 354/3/2 338/3/2 355/3/2
f 321/3/2 339/3/2 356/3/2
f 342/3/2 324/3/2 357/3/2
f 325/3/2 343/3/2 358/3/2
f 348/3/2 330/3/2 359/3/2
f 331/3/2 349/3/2 360/3/2
f 351/3/2 334/3/2 361/3/2
f 335/3/2 352/3/2 362/3/2
f 355/3/2 338/3/2 363/3/2
f 321/3/2 356/3/2 364/3/2
f 356/3/2 357/3/2 364/3/2
f 357/3/2 324/3/2 365/3/2
f 364/3/2 357/3/2 365/3/2
f 358/3/2 359/3/2 366/3/2
f 325/3/2 358/3/2 366/3/2
f 359/3/2 330/3/2 367/3/2
f 366/3/2 359/3/2 367/3/2
f 360/3/2 361/3/2 368/3/2
f 331/3/2 360/3/2 368/3/2
f 361/3/2 334/3/2 369/3/2
f 368/3/2 361/3/2 369/3/2
f 335/3/2 362/3/2 370/3/2
f 362/3/2 363/3/2 370/3/2
f 363/3/2 338/3/2 371/3/2
f 370/3/2 363/3/2 371/3/2
f 372/4/2 373/4/2 374/4/2
f 374/4/2 373/4/2 375/4/2
f 375/4/2 373/4/2 376/4/2
f 376/4/2 373/4/2 377/4/2
f 377/4/2 373/4/2 378/4/2
f 378/4/2 373/4/2 379/4/2
f 379/4/2 373/4/2 380/4/2
f 380/4/2 373/4/2 381/4/2
f 372/4/2 374/4/2 382/4/2
f 375/4/2 376/4/2 383/4/2
f 383/4/2 376/4/2 384/4/2
f 377/4/2 378/4/2 385/4/2
f 385/4/2 378/4/2 386/4/2
f 379/4/2 380/4/2 387/4/2
f 387/4/2 380/4/2 388/4/2
f 381/4/2 373/4/2 389/4/2
f 387/4/2 388/4/2 390/4/2
f 388/4/2 389/4/2 390/4/2
f 385/4/2 386/4/2 390/4/2
f 372/4/2 382/4/2 390/4/2
f 386/4/2 387/4/2 390/4/2
f 383/4/2 384/4/2 390/4/2
f 384/4/2 385/4/2 390/4/2
f 382/4/2 383/4/2 390/4/2
f 389/4/2 373/4/2 391/4/2
f 390/4/2 389/4/2 391/4/2
f 392/3/2 393/3/2 394/3/2
f 394/3/2 393/3/2 395/3/2
f 396/7/2 397/7/2 398/7/2
f 398/7/2 397/7/2 399/7/2
f 404/3/3 401/3/3 400/3/3
f 405/3/3 401/3/3 404/3/3
f 406/7/3 403/7/3 402/7/3
f 407/7/3 403/7/3 406/7/3
f 410/4/3 409/4/3 408/4/3
f 411/4/3 409/4/3 410/4/3
f 418/4/3 413/4/3 412/4/3
f 419/4/3 413/4/3 418/4/3
f 420/4/3 415/4/3 414/4/3
f 421/4/3 415/4/3 420/4/3
f 422/4/3 417/4/3 416/4/3
f 423/4/3 417/4/3 422/4/3
f 430/1/3 425/1/3 424/1/3
f 431/1/3 425/1/3 430/1/3
f 432/1/3 427/1/3 426/1/3
f 433/1/3 427/1/3 432/1/3
f 434/1/3 429/1/3 428/1/3
f 435/1/3 429/1/3 434/1/3
f 438/3/3 437/3/3 436/3/3
f 439/3/3 437/3/3 438/3/3
f 442/4/3 441/4/3 440/4/3
f 443/4/3 441/4/3 442/4/3
f 450/1/3 445/1/3 444/1/3
f 451/1/3 445/1/3 450/1/3
f 452/1/3 447/1/3 446/1/3
f 453/1/3 447/1/3 452/1/3
f 454/1/3 449/1/3 448/1/3
f 455/1/3 449/1/3 454/1/3
f 458/5/3 457/5/3 456/5/3
f 459/5/3 457/5/3 458/5/3
f 466/4/3 461/4/3 460/4/3
f 467/4/3 461/4/3 466/4/3
f 468/4/3 463/4/3 462/4/3
f 469/4/3 463/4/3 468/4/3
f 470/4/3 465/4/3 464/4/3
f 471/4/3 465/4/3 470/4/3
f 478/1/3 473/1/3 472/1/3
f 479/1/3 473/1/3 478/1/3
f 480/1/3 475/1/3 474/1/3
f 481/1/3 475/1/3 480/1/3
f 482/1/3 477/1/3 476/1/3
f 483/1/3 477/1/3 482/1/3
f 490/1/3 485/1/3 484/1/3
f 491/1/3 485/1/3 490/1/3
f 492/1/3 487/1/3 486/1/3
f 493/1/3 487/1/3 492/1/3
f 494/1/3 489/1/3 488/1/3
f 495/1/3 489/1/3 494/1/3
f 498/5/3 497/5/3 496/5/3
f 499/5/3 497/5/3 498/5/3
f 506/4/3 501/4/3 500/4/3
f 507/4/3 501/4/3 506/4/3
f 508/4/3 503/4/3 502/4/3
f 509/4/3 503/4/3 508/4/3
f 510/4/3 505/4/3 504/4/3
f 511/4/3 505/4/3 510/4/3
f 518/1/3 513/1/3 512/1/3
f 519/1/3 513/1/3 518/1/3
f 520/1/3 515/1/3 514/1/3
f 521/1/3 515/1/3 520/1/3
f 522/1/3 517/1/3 516/1/3
f 523/1/3 517/1/3 522/1/3
f 530/1/3 525/1/3 524/1/3
f 531/1/3 525/1/3 530/1/3
f 532/1/3 527/1/3 526/1/3
f 533/1/3 527/1/3 532/1/3
f 534/1/3 529/1/3 528/1/3
f 535/1/3 529/1/3 534/1/3
f 538/3/3 537/3/3 536/3/3
f 539/3/3 537/3/3 538/3/3
f 542/4/3 541/4/3 540/4/3
f 543/4/3 541/4/3 542/4/3
f 546/4/3 545/4/3 544/4/3
f 547/4/3 545/4/3 546/4/3
f 550/4/3 549/4/3 548/4/3
f 551/4/3 549/4/3 550/4/3
f 554/4/3 553/4/3 552/4/3
f 555/4/3 553/4/3 554/4/3
f 558/1/3 557/1/3 556/1/3
f 559/1/3 557/1/3 558/1/3
f 562/3/3 561/3/3 560/3/3
f 563/3/3 561/3/3 562/3/3
f 566/4/3 565/4/3 564/4/3
f 567/4/3 565/4/3 566/4/3
f 570/4/3 569/4/3 568/4/3
f 571/4/3 569/4/3 570/4/3
f 574/3/3 573/3/3 572/3/3
f 575/3/3 573/3/3 574/3/3
f 578/4/3 577/4/3 576/4/3
f 579/4/3 577/4/3 578/4/3
f 580/4/4 581/4/4 582/4/4
f 582/4/4 581/4/4 583/4/4
f 584/3/4 585/3/4 586/3/4
f 586/3/4 585/3/4 587/3/4
f 588/4/4 589/4/4 590/4/4
f 590/4/4 589/4/4 591/4/4
f 592/1/4 593/1/4 598/1/4
f 598/1/4 593/1/4 599/1/4
f 594/1/4 595/1/4 600/1/4
f 600/1/4 595/1/4 601/1/4
f 596/1/4 597/1/4 602/1/4
f 602/1/4 597/1/4 603/1/4
f 604/4/4 605/4/4 606/4/4
f 606/4/4 605/4/4 607/4/4
f 608/3/4 609/3/4 610/3/4
f 610/3/4 609/3/4 611/3/4
f 612/1/4 613/1/4 618/1/4
f 618/1/4 613/1/4 619/1/4
f 614/1/4 615/1/4 620/1/4
f 620/1/4 615/1/4 621/1/4
f 616/1/4 617/1/4 622/1/4
f 622/1/4 617/1/4 623/1/4
f 624/4/4 625/4/4 630/4/4
f 630/4/4 625/4/4 631/4/4
f 626/4/4 627/4/4 632/4/4
f 632/4/4 627/4/4 633/4/4
f 628/4/4 629/4/4 634/4/4
f 634/4/4 629/4/4 635/4/4
f 636/5/4 637/5/4 638/5/4
f 638/5/4 637/5/4 639/5/4
f 640/1/4 641/1/4 646/1/4
f 646/1/4 641/1/4 647/1/4
f 642/1/4 643/1/4 648/1/4
f 648/1/4 643/1/4 649/1/4
f 644/1/4 645/1/4 650/1/4
f 650/1/4 645/1/4 651/1/4
f 652/1/4 653/1/4 658/1/4
f 658/1/4 653/1/4 659/1/4
f 654/1/4 655/1/4 660/1/4
f 660/1/4 655/1/4 661/1/4
f 656/1/4 657/1/4 662/1/4
f 662/1/4 657/1/4 663/1/4
f 664/4/4 665/4/4 670/4/4
f 670/4/4 665/4/4 671/4/4
f 666/4/4 667/4/4 672/4/4
f 672/4/4 667/4/4 673/4/4
f 668/4/4 669/4/4 674/4/4
f 674/4/4 669/4/4 675/4/4
f 676/5/4 677/5/4 678/5/4
f 678/5/4 677/5/4 679/5/4
f 680/1/4 681/1/4 686/1/4
f 686/1/4 681/1/4 687/1/4
f 682/1/4 683/1/4 688/1/4
f 688/1/4 683/1/4 689/1/4
f 684/1/4 685/1/4 690/1/4
f 690/1/4 685/1/4 691/1/4
f 692/1/4 693/1/4 698/1/4
f 698/1/4 693/1/4 699/1/4
f 694/1/4 695/1/4 700/1/4
f 700/1/4 695/1/4 701/1/4
f 696/1/4 697/1/4 702/1/4
f 702/1/4 697/1/4 703/1/4
f 704/4/4 705/4/4 710/4/4
f 710/4/4 705/4/4 711/4/4
f 706/4/4 707/4/4 712/4/4
f 712/4/4 707/4/4 713/4/4
f 708/4/4 709/4/4 714/4/4
f 714/4/4 709/4/4 715/4/4
f 716/4/4 717/4/4 718/4/4
f 718/4/4 717/4/4 719/4/4
f 720/3/4 721/3/4 722/3/4
f 722/3/4 721/3/4 723/3/4
f 724/4/4 725/4/4 726/4/4
f 726/4/4 725/4/4 727/4/4
f 728/4/4 729/4/4 730/4/4
f 730/4/4 729/4/4 731/4/4
f 732/1/4 733/1/4 734/1/4
f 734/1/4 733/1/4 735/1/4
f 736/4/4 737/4/4 738/4/4
f 738/4/4 737/4/4 739/4/4
f 740/3/4 741/3/4 742/3/4
f 742/3/4 741/3/4 743/3/4
f 744/4/4 745/4/4 746/4/4
f 746/4/4 745/4/4 747/4/4
f 748/4/4 749/4/4 750/4/4
f 750/4/4 749/4/4 751/4/4
f 752/3/4 753/3/4 756/3/4
f 756/3/4 753/3/4 757/3/4
f 754/7/4 755/7/4 758/7/4
f 758/7/4 755/7/4 759/7/4
f 762/3/5 761/3/5 760/3/5
f 763/3/5 761/3/5 762/3/5
f 766/4/5 765/4/5 764/4/5
f 767/4/5 765/4/5 766/4/5
f 770/4/5 769/4/5 768/4/5
f 771/4/5 769/4/5 770/4/5
f 774/4/5 773/4/5 772/4/5
f 775/4/5 773/4/5 774/4/5
f 778/4/5 777/4/5 776/4/5
f 779/4/5 777/4/5 778/4/5
f 782/1/5 781/1/5 780/1/5
f 783/1/5 781/1/5 782/1/5
f 786/1/5 785/1/5 784/1/5
f 787/1/5 785/1/5 786/1/5
f 788/1/5 786/1/5 784/1/5
f 790/1/5 788/1/5 784/1/5
f 790/1/5 789/1/5 788/1/5
f 791/1/5 789/1/5 790/1/5
f 794/1/5 793/1/5 792/1/5
f 795/1/5 793/1/5 794/1/5
f 796/1/5 794/1/5 792/1/5
f 798/1/5 796/1/5 792/1/5
f 798/1/5 797/1/5 796/1/5
f 799/1/5 797/1/5 798/1/5
f 802/1/5 801/1/5 800/1/5
f 803/1/5 801/1/5 802/1/5
f 804/1/5 802/1/5 800/1/5
f 806/1/5 804/1/5 800/1/5
f 806/1/5 805/1/5 804/1/5
f 807/1/5 805/1/5 806/1/5
f 810/4/5 809/4/5 808/4/5
f 811/4/5 809/4/5 810/4/5
f 814/4/5 813/4/5 812/4/5
f 815/4/5 813/4/5 814/4/5
f 818/4/5 817/4/5 816/4/5
f 819/4/5 817/4/5 818/4/5
f 822/1/5 821/1/5 820/1/5
f 823/1/5 821/1/5 822/1/5
f 824/1/5 822/1/5 820/1/5
f 826/1/5 824/1/5 820/1/5
f 826/1/5 825/1/5 824/1/5
f 827/1/5 825/1/5 826/1/5
f 830/1/5 829/1/5 828/1/5
f 831/1/5 829/1/5 830/1/5
f 832/1/5 830/1/5 828/1/5
f 834/1/5 832/1/5 828/1/5
f 834/1/5 833/1/5 832/1/5
f 835/1/5 833/1/5 834/1/5
f 838/1/5 837/1/5 836/1/5
f 839/1/5 837/1/5 838/1/5
f 840/1/5 838/1/5 836/1/5
f 842/1/5 840/1/5 836/1/5
f 842/1/5 841/1/5 840/1/5
f 843/1/5 841/1/5 842/1/5
f 846/4/5 845/4/5 844/4/5
f 847/4/5 845/4/5 846/4/5
f 850/4/5 849/4/5 848/4/5
f 851/4/5 849/4/5 850/4/5
f 854/4/5 853/4/5 852/4/5
f 855/4/5 853/4/5 854/4/5
f 858/1/5 857/1/5 856/1/5
f 859/1/5 857/1/5 858/1/5
f 860/1/5 858/1/5 856/1/5
f 862/1/5 860/1/5 856/1/5
f 862/1/5 861/1/5 860/1/5
f 863/1/5 861/1/5 862/1/5
f 866/1/5 865/1/5 864/1/5
f 867/1/5 865/1/5 866/1/5
f 868/1/5 866/1/5 864/1/5
f 870/1/5 868/1/5 864/1/5
f 870/1/5 869/1/5 868/1/5
f 871/1/5 869/1/5 870/1/5
f 874/1/5 873/1/5 872/1/5
f 875/1/5 873/1/5 874/1/5
f 876/1/5 874/1/5 872/1/5
f 878/1/5 876/1/5 872/1/5
f 878/1/5 877/1/5 876/1/5
f 879/1/5 877/1/5 878/1/5
f 882/3/5 881/3/5 880/3/5
f 883/3/5 881/3/5 882/3/5
f 886/3/5 885/3/5 884/3/5
f 887/3/5 885/3/5 886/3/5
f 892/4/5 891/4/5 890/4/5
f 893/4/5 891/4/5 892/4/5
f 894/3/5 889/3/5 888/3/5
f 895/3/5 889/3/5 894/3/5
f 898/3/5 897/3/5 896/3/5
f 899/3/5 897/3/5 898/3/5
f 904/4/5 901/4/5 900/4/5
f 905/4/5 901/4/5 904/4/5
f 908/4/5 903/4/5 902/4/5
f 909/4/5 903/4/5 908/4/5
f 910/4/5 908/4/5 902/4/5
f 912/4/5 910/4/5 902/4/5
f 912/4/5 911/4/5 910/4/5
f 913/4/5 911/4/5 912/4/5
f 914/4/5 912/4/5 902/4/5
f 916/4/5 907/4/5 906/4/5
f 917/4/5 907/4/5 916/4/5
f 920/4/5 915/4/5 914/4/5
f 920/4/5 914/4/5 902/4/5
f 921/4/5 915/4/5 920/4/5
f 924/4/5 919/4/5 918/4/5
f 925/4/5 919/4/5 924/4/5
f 928/4/5 923/4/5 922/4/5
f 929/4/5 923/4/5 928/4/5
f 930/4/5 927/4/5 926/4/5
f 931/4/5 927/4/5 930/4/5
f 934/7/5 933/7/5 932/7/5
f 935/7/5 933/7/5 934/7/5
f 936/7/5 934/7/5 932/7/5
f 937/7/5 933/7/5 935/7/5
f 938/7/5 936/7/5 932/7/5
f 938/7/5 937/7/5 936/7/5
f 939/7/5 933/7/5 937/7/5
f 939/7/5 937/7/5 938/7/5
f 940/3/6 941/3/6 942/3/6
f 942/3/6 941/3/6 943/3/6
f 940/3/6 942/3/6 944/3/6
f 943/3/6 941/3/6 945/3/6
f 940/3/6 944/3/6 946/3/6
f 944/3/6 945/3/6 946/3/6
f 945/3/6 941/3/6 947/3/6
f 946/3/6 945/3/6 947/3/6
f 948/4/6 949/4/6 952/4/6
f 952/4/6 949/4/6 953/4/6
f 953/4/6 949/4/6 954/4/6
f 954/4/6 949/4/6 955/4/6
f 956/4/6 957/4/6 958/4/6
f 950/4/6 951/4/6 959/4/6
f 959/4/6 951/4/6 960/4/6
f 950/4/6 959/4/6 961/4/6
f 958/4/6 957/4/6 963/4/6
f 963/4/6 957/4/6 964/4/6
f 961/4/6 962/4/6 965/4/6
f 950/4/6 961/4/6 965/4/6
f 965/4/6 962/4/6 966/4/6
f 964/4/6 957/4/6 967/4/6
f 950/4/6 965/4/6 968/4/6
f 967/4/6 957/4/6 970/4/6
f 970/4/6 957/4/6 971/4/6
f 968/4/6 969/4/6 974/4/6
f 950/4/6 968/4/6 974/4/6
f 974/4/6 969/4/6 975/4/6
f 972/4/6 973/4/6 976/4/6
f 976/4/6 973/4/6 979/4/6
f 979/4/6 973/4/6 980/4/6
f 980/4/6 973/4/6 981/4/6
f 982/4/6 983/4/6 984/4/6
f 977/4/6 978/4/6 985/4/6
f 985/4/6 978/4/6 986/4/6
f 984/4/6 983/4/6 987/4/6
f 987/4/6 983/4/6 988/4/6
f 988/4/6 983/4/6 989/4/6
f 990/3/6 991/3/6 992/3/6
f 992/3/6 991/3/6 993/3/6
f 992/2/6 993/2/6 994/2/6
f 994/2/6 993/2/6 995/2/6
f 994/3/6 995/3/6 996/3/6
f 996/3/6 995/3/6 997/3/6
f 998/3/6 999/3/6 1000/3/6
f 1000/3/6 999/3/6 1001/3/6
f 1000/2/6 1001/2/6 1002/2/6
f 1002/2/6 1001/2/6 1003/2/6
f 1002/3/6 1003/3/6 1004/3/6
f 1004/3/6 1003/3/6 1005/3/6
f 1004/2/6 1005/2/6 1006/2/6
f 1006/2/6 1005/2/6 1007/2/6
f 1006/3/6 1007/3/6 1008/3/6
f 1008/3/6 1007/3/6 1009/3/6
f 1012/4/6 1013/4/6 1014/4/6
f 1014/4/6 1013/4/6 1015/4/6
f 1010/2/6 1011/2/6 1016/2/6
f 1016/2/6 1011/2/6 1017/2/6
f 1016/3/6 1017/3/6 1018/3/6
f 1018/3/6 1017/3/6 1019/3/6
f 1020/3/6 1021/3/6 1022/3/6
f 1022/3/6 1021/3/6 1023/3/6
f 1022/2/6 1023/2/6 1024/2/6
f 1024/2/6 1023/2/6 1025/2/6
f 1024/3/6 1025/3/6 1026/3/6
f 1026/3/6 1025/3/6 1027/3/6
f 1028/1/6 1029/1/6 1030/1/6
f 1030/1/6 1029/1/6 1031/1/6
f 1028/1/6 1030/1/6 1032/1/6
f 1028/1/6 1032/1/6 1034/1/6
f 1032/1/6 1033/1/6 1034/1/6
f 1034/1/6 1033/1/6 1035/1/6
f 1036/1/6 1037/1/6 1038/1/6
f 1038/1/6 1037/1/6 1039/1/6
f 1036/1/6 1038/1/6 1040/1/6
f 1036/1/6 1040/1/6 1042/1/6
f 1040/1/6 1041/1/6 1042/1/6
f 1042/1/6 1041/1/6 1043/1/6
f 1044/1/6 1045/1/6 1046/1/6
f 1046/1/6 1045/1/6 1047/1/6
f 1044/1/6 1046/1/6 1048/1/6
f 1044/1/6 1048/1/6 1050/1/6
f 1048/1/6 1049/1/6 1050/1/6
f 1050/1/6 1049/1/6 1051/1/6
f 1052/4/6 1053/4/6 1054/4/6
f 1054/4/6 1053/4/6 1055/4/6
f 1056/4/6 1057/4/6 1058/4/6
f 1058/4/6 1057/4/6 1059/4/6
f 1060/4/6 1061/4/6 1062/4/6
f 1062/4/6 1061/4/6 1063/4/6
f 1064/1/6 1065/1/6 1066/1/6
f 1066/1/6 1065/1/6 1067/1/6
f 1064/1/6 1066/1/6 1068/1/6
f 1064/1/6 1068/1/6 1070/1/6
f 1068/1/6 1069/1/6 1070/1/6
f 1070/1/6 1069/1/6 1071/1/6
f 1072/1/6 1073/1/6 1074/1/6
f 1074/1/6 1073/1/6 1075/1/6
f 1072/1/6 1074/1/6 1076/1/6
f 1072/1/6 1076/1/6 1078/1/6
f 1076/1/6 1077/1/6 1078/1/6
f 1078/1/6 1077/1/6 1079/1/6
f 1080/1/6 1081/1/6 1082/1/6
f 1082/1/6 1081/1/6 1083/1/6
f 1080/1/6 1082/1/6 1084/1/6
f 1080/1/6 1084/1/6 1086/1/6
f 1084/1/6 1085/1/6 1086/1/6
f 1086/1/6 1085/1/6 1087/1/6
f 1088/4/6 1089/4/6 1090/4/6
f 1090/4/6 1089/4/6 1091/4/6
f 1092/4/6 1093/4/6 1094/4/6
f 1094/4/6 1093/4/6 1095/4/6
f 1096/4/6 1097/4/6 1098/4/6
f 1098/4/6 1097/4/6 1099/4/6
f 1100/1/6 1101/1/6 1102/1/6
f 1102/1/6 1101/1/6 1103/1/6
f 1100/1/6 1102/1/6 1104/1/6
f 1100/1/6 1104/1/6 1106/1/6
f 1104/1/6 1105/1/6 1106/1/6
f 1106/1/6 1105/1/6 1107/1/6
f 1108/1/6 1109/1/6 1110/1/6
f 1110/1/6 1109/1/6 1111/1/6
f 1108/1/6 1110/1/6 1112/1/6
f 1108/1/6 1112/1/6 1114/1/6
f 1112/1/6 1113/1/6 1114/1/6
f 1114/1/6 1113/1/6 1115/1/6
f 1116/1/6 1117/1/6 1118/1/6
f 1118/1/6 1117/1/6 1119/1/6
f 1116/1/6 1118/1/6 1120/1/6
f 1116/1/6 1120/1/6 1122/1/6
f 1120/1/6 1121/1/6 1122/1/6
f 1122/1/6 1121/1/6 1123/1/6
f 1124/1/6 1125/1/6 1126/1/6
f 1126/1/6 1125/1/6 1127/1/6
f 1128/4/6 1129/4/6 1130/4/6
f 1130/4/6 1129/4/6 1131/4/6
f 1132/4/6 1133/4/6 1134/4/6
f 1134/4/6 1133/4/6 1135/4/6
f 1136/4/6 1137/4/6 1138/4/6
f 1138/4/6 1137/4/6 1139/4/6
f 1140/4/6 1141/4/6 1142/4/6
f 1142/4/6 1141/4/6 1143/4/6
f 1144/7/6 1145/7/6 1146/7/6
f 1146/7/6 1145/7/6 1147/7/6
f 1144/7/6 1146/7/6 1148/7/6
f 1146/8/6 1147/8/6 1148/8/6
f 1147/7/6 1145/7/6 1149/7/6
f 1148/8/6 1147/8/6 1149/8/6
f 1144/7/6 1148/7/6 1150/7/6
f 1148/7/6 1149/7/6 1150/7/6
f 1149/7/6 1145/7/6 1151/7/6
f 1150/7/6 1149/7/6 1151/7/6
