# MagicaVoxel @ Ephtracy

# group
o vitrine

# material
mtllib ludum dare_tile 01-3-vitrine.mtl
usemtl palette

# normals
vn -1 0 0
vn 1 0 0
vn 0 0 1
vn 0 0 -1
vn 0 -1 0
vn 0 1 0

# texcoords
vt 0.00195313 0.5
vt 0.103516 0.5
vt 0.134766 0.5
vt 0.138672 0.5
vt 0.193359 0.5
vt 0.197266 0.5
vt 0.361328 0.5
vt 0.365234 0.5
vt 0.380859 0.5
vt 0.388672 0.5
vt 0.392578 0.5
vt 0.396484 0.5
vt 0.568359 0.5
vt 0.572266 0.5
vt 0.759766 0.5
vt 0.763672 0.5
vt 0.791016 0.5
vt 0.810547 0.5

# verts
v -1.5 0 4
v -1.5 0 3.5
v -1.5 0 1.4
v -1.5 0 1.1
v -1.5 0 -1.1
v -1.5 0 -1.4
v -1.5 0 -3.5
v -1.5 0 -4
v -1.5 0.2 4
v -1.5 0.2 3.5
v -1.5 0.2 1.4
v -1.5 0.2 1.1
v -1.5 0.2 -1.1
v -1.5 0.2 -1.4
v -1.5 0.2 -3.5
v -1.5 0.2 -4
v -1.5 1.4 3.9
v -1.5 1.4 -3.9
v -1.5 1.5 4
v -1.5 1.5 3.9
v -1.5 1.5 -3.9
v -1.5 1.5 -4
v -1.5 1.6 4
v -1.5 1.6 -4
v -1.4 0.2 3.9
v -1.4 0.2 3.5
v -1.4 0.2 1.3
v -1.4 0.2 1.2
v -1.4 0.2 -1.2
v -1.4 0.2 -1.3
v -1.4 0.2 -3.5
v -1.4 0.2 -3.9
v -1.4 0.3 3.9
v -1.4 0.3 3.5
v -1.4 0.3 1.3
v -1.4 0.3 1.2
v -1.4 0.3 -1.2
v -1.4 0.3 -1.3
v -1.4 0.3 -3.5
v -1.4 0.3 -3.9
v -1.3 0.3 3.8
v -1.3 0.3 3.5
v -1.3 0.3 -3.5
v -1.3 0.3 -3.8
v -1.3 1.3 3.5
v -1.3 1.3 -3.5
v -1.3 1.4 3.8
v -1.3 1.4 -3.8
v -1.3 1.6 3.9
v -1.3 1.6 3.6
v -1.3 1.6 -3.6
v -1.3 1.6 -3.9
v -1.3 2 3.9
v -1.3 2 3.6
v -1.3 2 -3.6
v -1.3 2 -3.9
v -1.2 0.3 1.3
v -1.2 0.3 1.2
v -1.2 0.3 -1.2
v -1.2 0.3 -1.3
v -1.2 1.3 1.3
v -1.2 1.3 1.2
v -1.2 1.3 -1.2
v -1.2 1.3 -1.3
v -0.5 1.6 2.4
v -0.5 1.6 2.2
v -0.5 1.6 1.8
v -0.5 1.6 1.6
v -0.5 1.6 -2.9
v -0.5 1.6 -3.5
v -0.5 1.7 2.4
v -0.5 1.7 2.2
v -0.5 1.7 1.8
v -0.5 1.7 1.6
v -0.5 1.8 2.2
v -0.5 1.8 1.8
v -0.5 1.8 -2.9
v -0.5 1.8 -3.5
v -0.5 2.1 2.4
v -0.5 2.1 2.3
v -0.5 2.1 1.7
v -0.5 2.1 1.6
v -0.5 2.2 2.3
v -0.5 2.2 1.7
v -0.5 2.3 -2.7
v -0.5 2.3 -3.7
v -0.5 2.6 -2.7
v -0.5 2.6 -3.7
v -0.4 1.7 2.2
v -0.4 1.7 1.8
v -0.4 1.8 2.2
v -0.4 1.8 1.8
v -0.4 1.8 -2.9
v -0.4 1.8 -3.5
v -0.4 1.9 1.6
v -0.4 1.9 1.5
v -0.4 2 2.6
v -0.4 2 2.4
v -0.4 2 -2.9
v -0.4 2 -3.5
v -0.4 2.1 2.4
v -0.4 2.1 2.3
v -0.4 2.1 1.7
v -0.4 2.1 1.6
v -0.4 2.1 1.5
v -0.4 2.2 2.3
v -0.4 2.2 1.7
v -0.4 2.2 -2.7
v -0.4 2.2 -2.8
v -0.4 2.2 -3.6
v -0.4 2.2 -3.7
v -0.4 2.3 2.2
v -0.4 2.3 1.6
v -0.4 2.3 -2.7
v -0.4 2.3 -2.8
v -0.4 2.3 -3.6
v -0.4 2.3 -3.7
v -0.4 2.4 2.6
v -0.4 2.4 2.5
v -0.4 2.5 2.5
v -0.4 2.5 2.4
v -0.4 2.5 2.3
v -0.4 2.6 2.4
v -0.4 2.6 2.3
v -0.4 2.6 2.2
v -0.3 1.8 1.6
v -0.3 1.8 1.5
v -0.3 1.9 2.6
v -0.3 1.9 2.4
v -0.3 1.9 1.6
v -0.3 1.9 1.5
v -0.3 2 2.6
v -0.3 2 2.4
v -0.3 2 -2.9
v -0.3 2 -3.5
v -0.3 2.1 1.6
v -0.3 2.1 1.5
v -0.3 2.1 -2.7
v -0.3 2.1 -2.8
v -0.3 2.1 -2.9
v -0.3 2.1 -3.5
v -0.3 2.1 -3.6
v -0.3 2.1 -3.7
v -0.3 2.2 1.6
v -0.3 2.2 1.5
v -0.3 2.2 -2.7
v -0.3 2.2 -2.8
v -0.3 2.2 -3.6
v -0.3 2.2 -3.7
v -0.3 2.3 2.2
v -0.3 2.3 1.7
v -0.3 2.4 2.2
v -0.3 2.4 1.7
v -0.2 2 2.7
v -0.2 2 2.6
v -0.2 2 -2.7
v -0.2 2 -2.8
v -0.2 2 -2.9
v -0.2 2 -3.5
v -0.2 2 -3.6
v -0.2 2 -3.7
v -0.2 2.1 -2.7
v -0.2 2.1 -2.8
v -0.2 2.1 -2.9
v -0.2 2.1 -3.5
v -0.2 2.1 -3.6
v -0.2 2.1 -3.7
v -0.2 2.2 2.7
v -0.2 2.2 2.6
v -0.1 1.9 -2.7
v -0.1 1.9 -2.8
v -0.1 1.9 -3.6
v -0.1 1.9 -3.7
v -0.1 2 -2.7
v -0.1 2 -2.8
v -0.1 2 -3.6
v -0.1 2 -3.7
v -0.1 2.2 1.6
v -0.1 2.2 1.5
v -0.1 2.3 1.6
v -0.1 2.4 1.6
v -0.1 2.4 1.5
v 0 1.7 -1.4
v 0 1.7 -1.6
v 0 1.8 -1.3
v 0 1.8 -1.4
v 0 1.8 -1.6
v 0 1.8 -1.7
v 0 1.8 -2.7
v 0 1.8 -2.8
v 0 1.8 -3.6
v 0 1.8 -3.7
v 0 1.9 -2.7
v 0 1.9 -2.8
v 0 1.9 -3.6
v 0 1.9 -3.7
v 0 2.1 -1.3
v 0 2.1 -1.7
v 0 2.2 2.1
v 0 2.2 1.8
v 0 2.2 -1.3
v 0 2.2 -1.7
v 0 2.3 -1.3
v 0 2.3 -1.7
v 0 2.4 2.1
v 0 2.4 1.8
v 0 2.6 -1.5
v 0 2.6 -1.8
v 0 2.7 -1.5
v 0 2.7 -1.8
v 0 2.9 -1.5
v 0 2.9 -1.8
v 0.1 1.6 -1.4
v 0.1 1.6 -1.6
v 0.1 1.7 -1.3
v 0.1 1.7 -1.4
v 0.1 1.7 -1.6
v 0.1 1.7 -1.7
v 0.1 1.7 -2.7
v 0.1 1.7 -2.8
v 0.1 1.7 -3.6
v 0.1 1.7 -3.7
v 0.1 1.8 -1.2
v 0.1 1.8 -1.3
v 0.1 1.8 -1.4
v 0.1 1.8 -1.6
v 0.1 1.8 -1.7
v 0.1 1.8 -1.8
v 0.1 1.8 -2.7
v 0.1 1.8 -2.8
v 0.1 1.8 -3.6
v 0.1 1.8 -3.7
v 0.1 2.1 -1.2
v 0.1 2.1 -1.3
v 0.1 2.1 -1.7
v 0.1 2.1 -1.8
v 0.1 2.2 -1.2
v 0.1 2.2 -1.3
v 0.1 2.2 -1.7
v 0.1 2.2 -1.8
v 0.1 2.3 -1.2
v 0.1 2.3 -1.3
v 0.1 2.3 -1.7
v 0.1 2.3 -1.8
v 0.1 2.5 2.4
v 0.1 2.5 2.3
v 0.1 2.5 2.2
v 0.1 2.5 -1.5
v 0.1 2.5 -1.8
v 0.1 2.6 2.4
v 0.1 2.6 2.3
v 0.1 2.6 2.2
v 0.1 2.6 -1.4
v 0.1 2.6 -1.5
v 0.1 2.6 -1.8
v 0.1 2.6 -1.9
v 0.1 2.7 -1.4
v 0.1 2.7 -1.5
v 0.1 2.7 -1.8
v 0.1 2.7 -1.9
v 0.1 2.9 -1.4
v 0.1 2.9 -1.5
v 0.1 2.9 -1.8
v 0.1 2.9 -1.9
v 0.1 3 -1.5
v 0.1 3 -1.8
v 0.2 1.6 2.4
v 0.2 1.6 2.2
v 0.2 1.6 1.8
v 0.2 1.6 1.6
v 0.2 1.6 -1.3
v 0.2 1.6 -1.4
v 0.2 1.6 -1.6
v 0.2 1.6 -1.7
v 0.2 1.6 -2.7
v 0.2 1.6 -3.7
v 0.2 1.7 2.4
v 0.2 1.7 2.3
v 0.2 1.7 2.2
v 0.2 1.7 1.8
v 0.2 1.7 1.7
v 0.2 1.7 1.6
v 0.2 1.7 -1.2
v 0.2 1.7 -1.3
v 0.2 1.7 -1.4
v 0.2 1.7 -1.6
v 0.2 1.7 -1.7
v 0.2 1.7 -1.8
v 0.2 1.7 -2.7
v 0.2 1.7 -2.8
v 0.2 1.7 -3.6
v 0.2 1.7 -3.7
v 0.2 1.8 2.4
v 0.2 1.8 2.3
v 0.2 1.8 1.7
v 0.2 1.8 1.6
v 0.2 1.8 -1.1
v 0.2 1.8 -1.2
v 0.2 1.8 -1.3
v 0.2 1.8 -1.7
v 0.2 1.8 -1.8
v 0.2 1.8 -1.9
v 0.2 2.1 -1.1
v 0.2 2.1 -1.2
v 0.2 2.1 -1.3
v 0.2 2.1 -1.7
v 0.2 2.1 -1.8
v 0.2 2.1 -1.9
v 0.2 2.2 -1.1
v 0.2 2.2 -1.2
v 0.2 2.2 -1.3
v 0.2 2.2 -1.7
v 0.2 2.2 -1.8
v 0.2 2.2 -1.9
v 0.2 2.3 -1.1
v 0.2 2.3 -1.2
v 0.2 2.3 -1.6
v 0.2 2.3 -1.7
v 0.2 2.3 -1.8
v 0.2 2.3 -1.9
v 0.2 2.5 -1.6
v 0.2 2.5 -1.7
v 0.3 1.6 -1.2
v 0.3 1.6 -1.3
v 0.3 1.6 -1.7
v 0.3 1.6 -1.8
v 0.3 1.7 -1.1
v 0.3 1.7 -1.2
v 0.3 1.7 -1.3
v 0.3 1.7 -1.7
v 0.3 1.7 -1.8
v 0.3 1.7 -1.9
v 0.3 1.8 -1.1
v 0.3 1.8 -1.2
v 0.3 1.8 -1.8
v 0.3 1.8 -1.9
v 0.4 1.9 -1.3
v 0.4 1.9 -1.6
v 0.4 2 -1.3
v 0.4 2 -1.6
v 0.4 2.5 -1.2
v 0.4 2.5 -1.5
v 0.4 2.6 -1.2
v 0.4 2.6 -1.4
v 0.4 2.6 -1.5
v 0.4 2.7 -1.4
v 0.4 2.8 -1.2
v 0.4 2.8 -1.4
v 0.5 1.9 -1.6
v 0.5 1.9 -1.7
v 0.5 2 -1.3
v 0.5 2 -1.4
v 0.5 2 -1.6
v 0.5 2.1 -1.3
v 0.5 2.1 -1.4
v 0.5 2.1 -1.6
v 0.5 2.1 -1.7
v 0.5 2.2 -1.2
v 0.5 2.2 -1.3
v 0.5 2.2 -1.4
v 0.5 2.2 -1.6
v 0.5 2.2 -1.7
v 0.5 2.2 -1.8
v 0.5 2.3 -1.2
v 0.5 2.3 -1.3
v 0.5 2.3 -1.7
v 0.5 2.3 -1.8
v 0.5 2.4 -1.2
v 0.5 2.4 -1.5
v 0.5 2.5 -1.1
v 0.5 2.5 -1.2
v 0.5 2.5 -1.5
v 0.5 2.5 -1.6
v 0.5 2.6 -1.1
v 0.5 2.6 -1.2
v 0.5 2.6 -1.5
v 0.5 2.6 -1.6
v 0.5 2.8 -1.1
v 0.5 2.8 -1.2
v 0.5 2.8 -1.5
v 0.5 2.9 -1.2
v 0.5 2.9 -1.5
v 0.6 2 -1.4
v 0.6 2 -1.6
v 0.6 2.1 -1.4
v 0.6 2.1 -1.6
v 0.6 2.2 -1.3
v 0.6 2.2 -1.4
v 0.6 2.2 -1.6
v 0.6 2.2 -1.7
v 0.6 2.3 -1.3
v 0.6 2.3 -1.6
v 0.6 2.3 -1.7
v 0.6 2.4 -1.3
v 0.6 2.4 -1.4
v 0.7 2.2 -1.4
v 0.7 2.2 -1.6
v 0.7 2.3 -1.4
v 0.7 2.3 -1.6
v 0.9 0.3 3.6
v 0.9 0.3 3.5
v 0.9 0.3 -3.5
v 0.9 0.3 -3.6
v 0.9 1.3 3.6
v 0.9 1.3 3.5
v 0.9 1.3 -3.5
v 0.9 1.3 -3.6
v 1 0 3.5
v 1 0 1.4
v 1 0 1.1
v 1 0 -1.1
v 1 0 -1.4
v 1 0 -3.5
v 1 0.2 3.5
v 1 0.2 1.4
v 1 0.2 1.3
v 1 0.2 1.2
v 1 0.2 1.1
v 1 0.2 -1.1
v 1 0.2 -1.2
v 1 0.2 -1.3
v 1 0.2 -1.4
v 1 0.2 -3.5
v 1 0.3 3.5
v 1 0.3 1.3
v 1 0.3 1.2
v 1 0.3 -1.2
v 1 0.3 -1.3
v 1 0.3 -3.5
v 1 1.3 3.5
v 1 1.3 1.3
v 1 1.3 1.2
v 1 1.3 -1.2
v 1 1.3 -1.3
v 1 1.3 -3.5
v 1 1.6 3.9
v 1 1.6 3.6
v 1 1.6 1.4
v 1 1.6 1.1
v 1 1.6 -1.1
v 1 1.6 -1.4
v 1 1.6 -3.6
v 1 1.6 -3.9
v 1 1.8 3.8
v 1 1.8 3.7
v 1 1.8 -3.7
v 1 1.8 -3.8
v 1 1.9 3.8
v 1 1.9 3.7
v 1 1.9 -3.7
v 1 1.9 -3.8
v 1 2 3.9
v 1 2 3.6
v 1 2 1.4
v 1 2 1.1
v 1 2 -1.1
v 1 2 -1.4
v 1 2 -3.6
v 1 2 -3.9
v 1.1 0.3 3.8
v 1.1 0.3 3.7
v 1.1 0.3 -3.7
v 1.1 0.3 -3.8
v 1.1 1.3 3.8
v 1.1 1.3 3.7
v 1.1 1.3 -3.7
v 1.1 1.3 -3.8
v 1.1 1.8 3.6
v 1.1 1.8 1.4
v 1.1 1.8 1.1
v 1.1 1.8 -1.1
v 1.1 1.8 -1.4
v 1.1 1.8 -3.6
v 1.1 1.9 3.6
v 1.1 1.9 1.4
v 1.1 1.9 1.1
v 1.1 1.9 -1.1
v 1.1 1.9 -1.4
v 1.1 1.9 -3.6
v -1.2 0.3 3.8
v -1.2 0.3 3.7
v -1.2 0.3 3.6
v -1.2 0.3 3.5
v -1.2 0.3 -3.5
v -1.2 0.3 -3.6
v -1.2 0.3 -3.7
v -1.2 0.3 -3.8
v -1.2 1.3 3.8
v -1.2 1.3 3.7
v -1.2 1.3 3.6
v -1.2 1.3 3.5
v -1.2 1.3 -3.5
v -1.2 1.3 -3.6
v -1.2 1.3 -3.7
v -1.2 1.3 -3.8
v -1 1.6 3.9
v -1 1.6 3.6
v -1 1.6 -3.6
v -1 1.6 -3.9
v -1 1.8 3.8
v -1 1.8 3.7
v -1 1.8 -3.7
v -1 1.8 -3.8
v -1 1.9 3.8
v -1 1.9 3.7
v -1 1.9 -3.7
v -1 1.9 -3.8
v -1 2 3.9
v -1 2 3.6
v -1 2 -3.6
v -1 2 -3.9
v -0.4 1.6 -2.9
v -0.4 1.6 -3.5
v -0.4 1.8 -2.9
v -0.4 1.8 -3.5
v -0.4 2.5 -2.7
v -0.4 2.5 -2.8
v -0.4 2.5 -3.6
v -0.4 2.5 -3.7
v -0.4 2.6 -2.7
v -0.4 2.6 -3.7
v -0.3 1.6 2.4
v -0.3 1.6 2.2
v -0.3 1.6 1.8
v -0.3 1.6 1.6
v -0.3 1.7 2.4
v -0.3 1.7 2.3
v -0.3 1.7 2.2
v -0.3 1.7 1.8
v -0.3 1.7 1.7
v -0.3 1.7 1.6
v -0.3 1.8 2.4
v -0.3 1.8 2.3
v -0.3 1.8 1.7
v -0.3 1.8 1.6
v -0.3 1.8 -2.9
v -0.3 1.8 -3.5
v -0.3 2 -2.9
v -0.3 2 -3.5
v -0.3 2.4 -2.7
v -0.3 2.4 -2.8
v -0.3 2.4 -2.9
v -0.3 2.4 -3.4
v -0.3 2.4 -3.6
v -0.3 2.4 -3.7
v -0.3 2.5 -2.7
v -0.3 2.5 -2.8
v -0.3 2.5 -3.6
v -0.3 2.5 -3.7
v -0.2 2.3 -2.7
v -0.2 2.3 -2.8
v -0.2 2.3 -2.9
v -0.2 2.3 -3.4
v -0.2 2.3 -3.6
v -0.2 2.3 -3.7
v -0.2 2.4 -2.7
v -0.2 2.4 -2.8
v -0.2 2.4 -2.9
v -0.2 2.4 -3.4
v -0.2 2.4 -3.6
v -0.2 2.4 -3.7
v -0.2 2.5 2.4
v -0.2 2.5 2.3
v -0.2 2.5 2.2
v -0.2 2.6 2.4
v -0.2 2.6 2.3
v -0.2 2.6 2.2
v -0.1 2.2 2.1
v -0.1 2.2 1.8
v -0.1 2.2 -2.7
v -0.1 2.2 -2.8
v -0.1 2.2 -2.9
v -0.1 2.2 -3.2
v -0.1 2.2 -3.3
v -0.1 2.2 -3.5
v -0.1 2.2 -3.6
v -0.1 2.2 -3.7
v -0.1 2.3 -2.7
v -0.1 2.3 -2.8
v -0.1 2.3 -3.6
v -0.1 2.3 -3.7
v -0.1 2.4 2.1
v -0.1 2.4 1.8
v 0 2.1 -2.7
v 0 2.1 -2.8
v 0 2.1 -2.9
v 0 2.1 -3.2
v 0 2.1 -3.3
v 0 2.1 -3.5
v 0 2.1 -3.6
v 0 2.1 -3.7
v 0 2.2 1.6
v 0 2.2 1.5
v 0 2.2 -2.7
v 0 2.2 -2.8
v 0 2.2 -2.9
v 0 2.2 -3.2
v 0 2.2 -3.3
v 0 2.2 -3.5
v 0 2.2 -3.6
v 0 2.2 -3.7
v 0 2.3 1.6
v 0 2.4 1.6
v 0 2.4 1.5
v 0.1 2 2.7
v 0.1 2 2.6
v 0.1 2 -2.7
v 0.1 2 -2.8
v 0.1 2 -3
v 0.1 2 -3.4
v 0.1 2 -3.6
v 0.1 2 -3.7
v 0.1 2.1 -2.7
v 0.1 2.1 -2.8
v 0.1 2.1 -3.6
v 0.1 2.1 -3.7
v 0.1 2.2 2.7
v 0.1 2.2 2.6
v 0.1 2.2 -1.4
v 0.1 2.2 -1.6
v 0.1 2.3 -1.4
v 0.1 2.3 -1.6
v 0.2 1.8 1.6
v 0.2 1.8 1.5
v 0.2 1.9 2.6
v 0.2 1.9 2.4
v 0.2 1.9 1.6
v 0.2 1.9 1.5
v 0.2 1.9 -1.4
v 0.2 1.9 -1.6
v 0.2 1.9 -2.7
v 0.2 1.9 -2.8
v 0.2 1.9 -3
v 0.2 1.9 -3.4
v 0.2 1.9 -3.6
v 0.2 1.9 -3.7
v 0.2 2 2.6
v 0.2 2 2.4
v 0.2 2 -2.7
v 0.2 2 -2.8
v 0.2 2 -3
v 0.2 2 -3.4
v 0.2 2 -3.6
v 0.2 2 -3.7
v 0.2 2.1 1.6
v 0.2 2.1 1.5
v 0.2 2.1 -1.4
v 0.2 2.1 -1.6
v 0.2 2.2 1.6
v 0.2 2.2 1.5
v 0.2 2.2 -1.3
v 0.2 2.2 -1.4
v 0.2 2.2 -1.6
v 0.2 2.3 2.2
v 0.2 2.3 1.7
v 0.2 2.3 -1.3
v 0.2 2.3 -1.4
v 0.2 2.4 2.2
v 0.2 2.4 1.7
v 0.3 1.7 2.2
v 0.3 1.7 1.8
v 0.3 1.8 2.2
v 0.3 1.8 1.8
v 0.3 1.8 -2.7
v 0.3 1.8 -2.8
v 0.3 1.8 -2.9
v 0.3 1.8 -3.2
v 0.3 1.8 -3.6
v 0.3 1.8 -3.7
v 0.3 1.9 1.6
v 0.3 1.9 1.5
v 0.3 1.9 -1.3
v 0.3 1.9 -1.4
v 0.3 1.9 -1.6
v 0.3 1.9 -1.7
v 0.3 1.9 -2.7
v 0.3 1.9 -2.8
v 0.3 1.9 -3.6
v 0.3 1.9 -3.7
v 0.3 2 2.6
v 0.3 2 2.4
v 0.3 2.1 2.4
v 0.3 2.1 2.3
v 0.3 2.1 1.7
v 0.3 2.1 1.6
v 0.3 2.1 1.5
v 0.3 2.1 -1.3
v 0.3 2.1 -1.4
v 0.3 2.1 -1.6
v 0.3 2.1 -1.7
v 0.3 2.2 2.3
v 0.3 2.2 1.7
v 0.3 2.2 -1.2
v 0.3 2.2 -1.3
v 0.3 2.2 -1.4
v 0.3 2.2 -1.6
v 0.3 2.2 -1.7
v 0.3 2.2 -1.8
v 0.3 2.3 2.2
v 0.3 2.3 1.6
v 0.3 2.3 -1.2
v 0.3 2.3 -1.3
v 0.3 2.3 -1.7
v 0.3 2.3 -1.8
v 0.3 2.4 2.6
v 0.3 2.4 2.5
v 0.3 2.5 2.5
v 0.3 2.5 2.4
v 0.3 2.5 2.3
v 0.3 2.5 -1.6
v 0.3 2.5 -1.7
v 0.3 2.6 2.4
v 0.3 2.6 2.3
v 0.3 2.6 2.2
v 0.4 1.6 2.4
v 0.4 1.6 2.2
v 0.4 1.6 1.8
v 0.4 1.6 1.6
v 0.4 1.7 2.4
v 0.4 1.7 2.2
v 0.4 1.7 1.8
v 0.4 1.7 1.6
v 0.4 1.7 -2.7
v 0.4 1.7 -2.8
v 0.4 1.7 -2.9
v 0.4 1.7 -3.2
v 0.4 1.7 -3.6
v 0.4 1.7 -3.7
v 0.4 1.8 2.2
v 0.4 1.8 1.8
v 0.4 1.8 -2.7
v 0.4 1.8 -2.8
v 0.4 1.8 -2.9
v 0.4 1.8 -3.2
v 0.4 1.8 -3.6
v 0.4 1.8 -3.7
v 0.4 2.1 2.4
v 0.4 2.1 2.3
v 0.4 2.1 1.7
v 0.4 2.1 1.6
v 0.4 2.2 2.3
v 0.4 2.2 1.7
v 0.4 2.5 -1.5
v 0.4 2.5 -1.8
v 0.4 2.6 -1.5
v 0.4 2.6 -1.8
v 0.4 2.6 -1.9
v 0.4 2.7 -1.8
v 0.4 2.7 -1.9
v 0.4 2.8 -1.4
v 0.4 2.8 -1.5
v 0.4 2.9 -1.4
v 0.4 2.9 -1.5
v 0.4 2.9 -1.8
v 0.4 2.9 -1.9
v 0.4 3 -1.5
v 0.4 3 -1.8
v 0.5 1.6 -1.2
v 0.5 1.6 -1.3
v 0.5 1.6 -1.7
v 0.5 1.6 -1.8
v 0.5 1.6 -2.7
v 0.5 1.6 -3.7
v 0.5 1.7 -1.1
v 0.5 1.7 -1.2
v 0.5 1.7 -1.3
v 0.5 1.7 -1.7
v 0.5 1.7 -1.8
v 0.5 1.7 -1.9
v 0.5 1.7 -2.7
v 0.5 1.7 -3.7
v 0.5 1.8 -1.1
v 0.5 1.8 -1.2
v 0.5 1.8 -1.8
v 0.5 1.8 -1.9
v 0.5 2.6 -1.6
v 0.5 2.6 -1.8
v 0.5 2.7 -1.6
v 0.5 2.7 -1.8
v 0.5 2.8 -1.5
v 0.5 2.8 -1.6
v 0.5 2.9 -1.5
v 0.5 2.9 -1.8
v 0.6 1.6 -1.3
v 0.6 1.6 -1.4
v 0.6 1.6 -1.6
v 0.6 1.6 -1.7
v 0.6 1.7 -1.2
v 0.6 1.7 -1.3
v 0.6 1.7 -1.4
v 0.6 1.7 -1.6
v 0.6 1.7 -1.7
v 0.6 1.7 -1.8
v 0.6 1.8 -1.1
v 0.6 1.8 -1.2
v 0.6 1.8 -1.3
v 0.6 1.8 -1.7
v 0.6 1.8 -1.8
v 0.6 1.8 -1.9
v 0.6 2.1 -1.1
v 0.6 2.1 -1.2
v 0.6 2.1 -1.3
v 0.6 2.1 -1.7
v 0.6 2.1 -1.8
v 0.6 2.1 -1.9
v 0.6 2.2 -1.1
v 0.6 2.2 -1.2
v 0.6 2.2 -1.3
v 0.6 2.2 -1.7
v 0.6 2.2 -1.8
v 0.6 2.2 -1.9
v 0.6 2.3 -1.1
v 0.6 2.3 -1.2
v 0.6 2.3 -1.8
v 0.6 2.3 -1.9
v 0.7 1.6 -1.4
v 0.7 1.6 -1.6
v 0.7 1.7 -1.3
v 0.7 1.7 -1.4
v 0.7 1.7 -1.6
v 0.7 1.7 -1.7
v 0.7 1.8 -1.2
v 0.7 1.8 -1.3
v 0.7 1.8 -1.4
v 0.7 1.8 -1.6
v 0.7 1.8 -1.7
v 0.7 1.8 -1.8
v 0.7 2.1 -1.2
v 0.7 2.1 -1.3
v 0.7 2.1 -1.7
v 0.7 2.1 -1.8
v 0.7 2.2 -1.2
v 0.7 2.2 -1.3
v 0.7 2.2 -1.7
v 0.7 2.2 -1.8
v 0.7 2.3 -1.2
v 0.7 2.3 -1.3
v 0.7 2.3 -1.4
v 0.7 2.3 -1.7
v 0.7 2.3 -1.8
v 0.7 2.4 -1.3
v 0.7 2.4 -1.4
v 0.8 1.7 -1.4
v 0.8 1.7 -1.6
v 0.8 1.8 -1.3
v 0.8 1.8 -1.4
v 0.8 1.8 -1.6
v 0.8 1.8 -1.7
v 0.8 2.1 -1.3
v 0.8 2.1 -1.7
v 0.8 2.2 -1.3
v 0.8 2.2 -1.7
v 0.8 2.3 -1.3
v 0.8 2.3 -1.7
v 0.8 2.4 -1.2
v 0.8 2.4 -1.5
v 0.8 2.5 -1.1
v 0.8 2.5 -1.2
v 0.8 2.5 -1.5
v 0.8 2.5 -1.6
v 0.8 2.6 -1.1
v 0.8 2.6 -1.2
v 0.8 2.6 -1.5
v 0.8 2.6 -1.6
v 0.8 2.8 -1.1
v 0.8 2.8 -1.2
v 0.8 2.8 -1.5
v 0.8 2.8 -1.6
v 0.8 2.9 -1.2
v 0.8 2.9 -1.5
v 0.9 2.5 -1.2
v 0.9 2.5 -1.5
v 0.9 2.6 -1.2
v 0.9 2.6 -1.5
v 0.9 2.8 -1.2
v 0.9 2.8 -1.5
v 1.1 0.3 3.6
v 1.1 0.3 1.3
v 1.1 0.3 1.2
v 1.1 0.3 -1.2
v 1.1 0.3 -1.3
v 1.1 0.3 -3.6
v 1.1 1.3 3.6
v 1.1 1.3 1.3
v 1.1 1.3 1.2
v 1.1 1.3 -1.2
v 1.1 1.3 -1.3
v 1.1 1.3 -3.6
v 1.2 0.3 3.8
v 1.2 0.3 3.6
v 1.2 0.3 1.3
v 1.2 0.3 1.2
v 1.2 0.3 -1.2
v 1.2 0.3 -1.3
v 1.2 0.3 -3.6
v 1.2 0.3 -3.8
v 1.2 1.3 3.6
v 1.2 1.3 1.3
v 1.2 1.3 1.2
v 1.2 1.3 -1.2
v 1.2 1.3 -1.3
v 1.2 1.3 -3.6
v 1.2 1.4 3.8
v 1.2 1.4 -3.8
v 1.2 1.8 3.6
v 1.2 1.8 1.4
v 1.2 1.8 1.1
v 1.2 1.8 -1.1
v 1.2 1.8 -1.4
v 1.2 1.8 -3.6
v 1.2 1.9 3.6
v 1.2 1.9 1.4
v 1.2 1.9 1.1
v 1.2 1.9 -1.1
v 1.2 1.9 -1.4
v 1.2 1.9 -3.6
v 1.3 0.2 3.9
v 1.3 0.2 -3.9
v 1.3 0.3 3.9
v 1.3 0.3 -3.9
v 1.3 1.4 3.9
v 1.3 1.4 -3.9
v 1.3 1.5 3.9
v 1.3 1.5 -3.9
v 1.3 1.6 3.9
v 1.3 1.6 3.6
v 1.3 1.6 1.4
v 1.3 1.6 1.1
v 1.3 1.6 -1.1
v 1.3 1.6 -1.4
v 1.3 1.6 -3.6
v 1.3 1.6 -3.9
v 1.3 2 3.9
v 1.3 2 3.6
v 1.3 2 1.4
v 1.3 2 1.1
v 1.3 2 -1.1
v 1.3 2 -1.4
v 1.3 2 -3.6
v 1.3 2 -3.9
v 1.5 0 4
v 1.5 0 -4
v 1.5 0.2 4
v 1.5 0.2 -4
v 1.5 1.5 4
v 1.5 1.5 -4
v 1.5 1.6 4
v 1.5 1.6 -4
v -1.5 0 4
v -1.5 0.2 4
v -1.5 1.5 4
v -1.5 1.6 4
v 1.5 0 4
v 1.5 0.2 4
v 1.5 1.5 4
v 1.5 1.6 4
v -1.5 1.4 3.9
v -1.5 1.5 3.9
v -1.4 0.2 3.9
v -1.4 0.3 3.9
v -1.3 1.6 3.9
v -1.3 2 3.9
v -1 1.6 3.9
v -1 2 3.9
v 1 1.6 3.9
v 1 2 3.9
v 1.3 0.2 3.9
v 1.3 0.3 3.9
v 1.3 1.4 3.9
v 1.3 1.5 3.9
v 1.3 1.6 3.9
v 1.3 2 3.9
v -1.3 0.3 3.8
v -1.3 1.4 3.8
v -1.2 0.3 3.8
v -1.2 1.3 3.8
v -1 1.8 3.8
v -1 1.9 3.8
v 1 1.8 3.8
v 1 1.9 3.8
v 1.1 0.3 3.8
v 1.1 1.3 3.8
v 1.2 0.3 3.8
v 1.2 1.4 3.8
v -1.2 0.3 3.7
v -1.2 1.3 3.7
v 1.1 0.3 3.7
v 1.1 1.3 3.7
v -0.2 2 2.7
v -0.2 2.2 2.7
v 0.1 2 2.7
v 0.1 2.2 2.7
v -0.4 2 2.6
v -0.4 2.4 2.6
v -0.3 1.9 2.6
v -0.3 2 2.6
v -0.2 2 2.6
v -0.2 2.2 2.6
v 0.1 2 2.6
v 0.1 2.2 2.6
v 0.2 1.9 2.6
v 0.2 2 2.6
v 0.3 2 2.6
v 0.3 2.4 2.6
v -0.4 2.4 2.5
v -0.4 2.5 2.5
v 0.3 2.4 2.5
v 0.3 2.5 2.5
v -0.5 1.6 2.4
v -0.5 1.7 2.4
v -0.5 2.1 2.4
v -0.4 2 2.4
v -0.4 2.1 2.4
v -0.4 2.5 2.4
v -0.4 2.6 2.4
v -0.3 1.6 2.4
v -0.3 1.7 2.4
v -0.3 1.8 2.4
v -0.3 1.9 2.4
v -0.3 2 2.4
v -0.2 2.5 2.4
v -0.2 2.6 2.4
v 0.1 2.5 2.4
v 0.1 2.6 2.4
v 0.2 1.6 2.4
v 0.2 1.7 2.4
v 0.2 1.8 2.4
v 0.2 1.9 2.4
v 0.2 2 2.4
v 0.3 2 2.4
v 0.3 2.1 2.4
v 0.3 2.5 2.4
v 0.3 2.6 2.4
v 0.4 1.6 2.4
v 0.4 1.7 2.4
v 0.4 2.1 2.4
v -0.5 2.1 2.3
v -0.5 2.2 2.3
v -0.4 2.1 2.3
v -0.4 2.2 2.3
v -0.3 1.7 2.3
v -0.3 1.8 2.3
v 0.2 1.7 2.3
v 0.2 1.8 2.3
v 0.3 2.1 2.3
v 0.3 2.2 2.3
v 0.4 2.1 2.3
v 0.4 2.2 2.3
v -0.5 1.6 1.8
v -0.5 1.7 1.8
v -0.5 1.8 1.8
v -0.4 1.7 1.8
v -0.4 1.8 1.8
v -0.3 1.6 1.8
v -0.3 1.7 1.8
v -0.1 2.2 1.8
v -0.1 2.4 1.8
v 0 2.2 1.8
v 0 2.4 1.8
v 0.2 1.6 1.8
v 0.2 1.7 1.8
v 0.3 1.7 1.8
v 0.3 1.8 1.8
v 0.4 1.6 1.8
v 0.4 1.7 1.8
v 0.4 1.8 1.8
v -0.1 2.3 1.6
v -0.1 2.4 1.6
v 0 2.3 1.6
v 0 2.4 1.6
v -1.5 0 1.4
v -1.5 0.2 1.4
v 1 0 1.4
v 1 0.2 1.4
v 1 1.6 1.4
v 1 2 1.4
v 1.1 1.8 1.4
v 1.1 1.9 1.4
v 1.2 1.8 1.4
v 1.2 1.9 1.4
v 1.3 1.6 1.4
v 1.3 2 1.4
v -1.4 0.2 1.3
v -1.4 0.3 1.3
v -1.2 0.3 1.3
v -1.2 1.3 1.3
v 1 0.2 1.3
v 1 0.3 1.3
v 1 1.3 1.3
v 1.1 0.3 1.3
v 1.1 1.3 1.3
v 1.2 0.3 1.3
v 1.2 1.3 1.3
v -1.5 0 -1.1
v -1.5 0.2 -1.1
v 0.2 1.8 -1.1
v 0.2 2.1 -1.1
v 0.2 2.2 -1.1
v 0.2 2.3 -1.1
v 0.3 1.7 -1.1
v 0.3 1.8 -1.1
v 0.5 1.7 -1.1
v 0.5 1.8 -1.1
v 0.5 2.5 -1.1
v 0.5 2.6 -1.1
v 0.5 2.8 -1.1
v 0.6 1.8 -1.1
v 0.6 2.1 -1.1
v 0.6 2.2 -1.1
v 0.6 2.3 -1.1
v 0.8 2.5 -1.1
v 0.8 2.6 -1.1
v 0.8 2.8 -1.1
v 1 0 -1.1
v 1 0.2 -1.1
v 1 1.6 -1.1
v 1 2 -1.1
v 1.1 1.8 -1.1
v 1.1 1.9 -1.1
v 1.2 1.8 -1.1
v 1.2 1.9 -1.1
v 1.3 1.6 -1.1
v 1.3 2 -1.1
v -1.4 0.2 -1.2
v -1.4 0.3 -1.2
v -1.2 0.3 -1.2
v -1.2 1.3 -1.2
v 0.1 1.8 -1.2
v 0.1 2.1 -1.2
v 0.1 2.2 -1.2
v 0.1 2.3 -1.2
v 0.2 1.7 -1.2
v 0.2 1.8 -1.2
v 0.2 2.1 -1.2
v 0.2 2.2 -1.2
v 0.2 2.3 -1.2
v 0.3 1.6 -1.2
v 0.3 1.7 -1.2
v 0.3 1.8 -1.2
v 0.4 2.5 -1.2
v 0.4 2.6 -1.2
v 0.4 2.8 -1.2
v 0.5 1.6 -1.2
v 0.5 1.7 -1.2
v 0.5 1.8 -1.2
v 0.5 2.4 -1.2
v 0.5 2.5 -1.2
v 0.5 2.6 -1.2
v 0.5 2.8 -1.2
v 0.5 2.9 -1.2
v 0.6 1.7 -1.2
v 0.6 1.8 -1.2
v 0.6 2.1 -1.2
v 0.6 2.2 -1.2
v 0.6 2.3 -1.2
v 0.7 1.8 -1.2
v 0.7 2.1 -1.2
v 0.7 2.2 -1.2
v 0.7 2.3 -1.2
v 0.8 2.4 -1.2
v 0.8 2.5 -1.2
v 0.8 2.6 -1.2
v 0.8 2.8 -1.2
v 0.8 2.9 -1.2
v 0.9 2.5 -1.2
v 0.9 2.6 -1.2
v 0.9 2.8 -1.2
v 1 0.2 -1.2
v 1 0.3 -1.2
v 1 1.3 -1.2
v 1.1 0.3 -1.2
v 1.1 1.3 -1.2
v 1.2 0.3 -1.2
v 1.2 1.3 -1.2
v 0 1.8 -1.3
v 0 2.1 -1.3
v 0 2.2 -1.3
v 0 2.3 -1.3
v 0.1 1.7 -1.3
v 0.1 1.8 -1.3
v 0.1 2.1 -1.3
v 0.1 2.2 -1.3
v 0.1 2.3 -1.3
v 0.2 1.6 -1.3
v 0.2 1.7 -1.3
v 0.2 1.8 -1.3
v 0.2 2.1 -1.3
v 0.2 2.2 -1.3
v 0.3 1.6 -1.3
v 0.3 1.7 -1.3
v 0.5 1.6 -1.3
v 0.5 1.7 -1.3
v 0.6 1.6 -1.3
v 0.6 1.7 -1.3
v 0.6 1.8 -1.3
v 0.6 2.1 -1.3
v 0.6 2.2 -1.3
v 0.6 2.3 -1.3
v 0.6 2.4 -1.3
v 0.7 1.7 -1.3
v 0.7 1.8 -1.3
v 0.7 2.1 -1.3
v 0.7 2.2 -1.3
v 0.7 2.3 -1.3
v 0.7 2.4 -1.3
v 0.8 1.8 -1.3
v 0.8 2.1 -1.3
v 0.8 2.2 -1.3
v 0.8 2.3 -1.3
v 0 1.7 -1.4
v 0 1.8 -1.4
v 0.1 1.6 -1.4
v 0.1 1.7 -1.4
v 0.1 1.8 -1.4
v 0.1 2.6 -1.4
v 0.1 2.7 -1.4
v 0.1 2.9 -1.4
v 0.2 1.6 -1.4
v 0.2 1.7 -1.4
v 0.4 2.6 -1.4
v 0.4 2.7 -1.4
v 0.4 2.8 -1.4
v 0.4 2.9 -1.4
v 0.6 1.6 -1.4
v 0.6 1.7 -1.4
v 0.7 1.6 -1.4
v 0.7 1.7 -1.4
v 0.7 1.8 -1.4
v 0.8 1.7 -1.4
v 0.8 1.8 -1.4
v 0 2.6 -1.5
v 0 2.7 -1.5
v 0 2.9 -1.5
v 0.1 2.5 -1.5
v 0.1 2.6 -1.5
v 0.1 2.7 -1.5
v 0.1 2.9 -1.5
v 0.1 3 -1.5
v 0.4 2.5 -1.5
v 0.4 2.6 -1.5
v 0.4 2.8 -1.5
v 0.4 2.9 -1.5
v 0.4 3 -1.5
v 0.5 2.8 -1.5
v 0.5 2.9 -1.5
v 0.1 2.2 -1.6
v 0.1 2.3 -1.6
v 0.2 1.9 -1.6
v 0.2 2.1 -1.6
v 0.2 2.2 -1.6
v 0.2 2.3 -1.6
v 0.2 2.5 -1.6
v 0.3 1.9 -1.6
v 0.3 2.1 -1.6
v 0.3 2.2 -1.6
v 0.3 2.5 -1.6
v 0.5 2 -1.6
v 0.5 2.1 -1.6
v 0.5 2.2 -1.6
v 0.6 2 -1.6
v 0.6 2.1 -1.6
v 0.6 2.2 -1.6
v 0.6 2.3 -1.6
v 0.7 2.2 -1.6
v 0.7 2.3 -1.6
v 0.3 1.9 -1.7
v 0.3 2.1 -1.7
v 0.3 2.2 -1.7
v 0.5 1.9 -1.7
v 0.5 2.1 -1.7
v 0.5 2.2 -1.7
v 0.5 2.3 -1.7
v 0.6 2.2 -1.7
v 0.6 2.3 -1.7
v 0.3 2.2 -1.8
v 0.3 2.3 -1.8
v 0.5 2.2 -1.8
v 0.5 2.3 -1.8
v -0.5 2.3 -2.7
v -0.5 2.6 -2.7
v -0.4 2.2 -2.7
v -0.4 2.3 -2.7
v -0.4 2.5 -2.7
v -0.4 2.6 -2.7
v -0.3 2.1 -2.7
v -0.3 2.2 -2.7
v -0.3 2.4 -2.7
v -0.3 2.5 -2.7
v -0.2 2 -2.7
v -0.2 2.1 -2.7
v -0.2 2.3 -2.7
v -0.2 2.4 -2.7
v -0.1 1.9 -2.7
v -0.1 2 -2.7
v -0.1 2.2 -2.7
v -0.1 2.3 -2.7
v 0 1.8 -2.7
v 0 1.9 -2.7
v 0 2.1 -2.7
v 0 2.2 -2.7
v 0.1 1.7 -2.7
v 0.1 1.8 -2.7
v 0.1 2 -2.7
v 0.1 2.1 -2.7
v 0.2 1.6 -2.7
v 0.2 1.7 -2.7
v 0.2 1.9 -2.7
v 0.2 2 -2.7
v 0.3 1.8 -2.7
v 0.3 1.9 -2.7
v 0.4 1.7 -2.7
v 0.4 1.8 -2.7
v 0.5 1.6 -2.7
v 0.5 1.7 -2.7
v -0.5 1.6 -2.9
v -0.5 1.8 -2.9
v -0.4 1.6 -2.9
v -0.4 1.8 -2.9
v -0.4 2 -2.9
v -0.3 1.8 -2.9
v -0.3 2 -2.9
v -0.3 2.1 -2.9
v -0.2 2 -2.9
v -0.2 2.1 -2.9
v -1.5 0 -3.5
v -1.5 0.2 -3.5
v -1.4 0.2 -3.5
v -1.4 0.3 -3.5
v -1.3 0.3 -3.5
v -1.3 1.3 -3.5
v -1.2 0.3 -3.5
v -1.2 1.3 -3.5
v 0.9 0.3 -3.5
v 0.9 1.3 -3.5
v 1 0 -3.5
v 1 0.2 -3.5
v 1 0.3 -3.5
v 1 1.3 -3.5
v -1.3 1.6 -3.6
v -1.3 2 -3.6
v -1.2 0.3 -3.6
v -1.2 1.3 -3.6
v -1 1.6 -3.6
v -1 2 -3.6
v 0.9 0.3 -3.6
v 0.9 1.3 -3.6
v 1 1.6 -3.6
v 1 2 -3.6
v 1.1 0.3 -3.6
v 1.1 1.3 -3.6
v 1.1 1.8 -3.6
v 1.1 1.9 -3.6
v 1.2 0.3 -3.6
v 1.2 1.3 -3.6
v 1.2 1.8 -3.6
v 1.2 1.9 -3.6
v 1.3 1.6 -3.6
v 1.3 2 -3.6
v -1 1.8 -3.7
v -1 1.9 -3.7
v -0.1 1.9 -3.7
v 0 1.8 -3.7
v 0 1.9 -3.7
v 0.3 1.8 -3.7
v 0.3 1.9 -3.7
v 0.4 1.8 -3.7
v 1 1.8 -3.7
v 1 1.9 -3.7
v -1 1.8 3.7
v -1 1.9 3.7
v 1 1.8 3.7
v 1 1.9 3.7
v -1.3 1.6 3.6
v -1.3 2 3.6
v -1.2 0.3 3.6
v -1.2 1.3 3.6
v -1 1.6 3.6
v -1 2 3.6
v 0.9 0.3 3.6
v 0.9 1.3 3.6
v 1 1.6 3.6
v 1 2 3.6
v 1.1 0.3 3.6
v 1.1 1.3 3.6
v 1.1 1.8 3.6
v 1.1 1.9 3.6
v 1.2 0.3 3.6
v 1.2 1.3 3.6
v 1.2 1.8 3.6
v 1.2 1.9 3.6
v 1.3 1.6 3.6
v 1.3 2 3.6
v -1.5 0 3.5
v -1.5 0.2 3.5
v -1.4 0.2 3.5
v -1.4 0.3 3.5
v -1.3 0.3 3.5
v -1.3 1.3 3.5
v -1.2 0.3 3.5
v -1.2 1.3 3.5
v 0.9 0.3 3.5
v 0.9 1.3 3.5
v 1 0 3.5
v 1 0.2 3.5
v 1 0.3 3.5
v 1 1.3 3.5
v -0.5 1.6 2.2
v -0.5 1.7 2.2
v -0.5 1.8 2.2
v -0.4 1.7 2.2
v -0.4 1.8 2.2
v -0.4 2.3 2.2
v -0.4 2.6 2.2
v -0.3 1.6 2.2
v -0.3 1.7 2.2
v -0.3 2.3 2.2
v -0.3 2.4 2.2
v -0.2 2.5 2.2
v -0.2 2.6 2.2
v 0.1 2.5 2.2
v 0.1 2.6 2.2
v 0.2 1.6 2.2
v 0.2 1.7 2.2
v 0.2 2.3 2.2
v 0.2 2.4 2.2
v 0.3 1.7 2.2
v 0.3 1.8 2.2
v 0.3 2.3 2.2
v 0.3 2.6 2.2
v 0.4 1.6 2.2
v 0.4 1.7 2.2
v 0.4 1.8 2.2
v -0.1 2.2 2.1
v -0.1 2.4 2.1
v 0 2.2 2.1
v 0 2.4 2.1
v -0.5 2.1 1.7
v -0.5 2.2 1.7
v -0.4 2.1 1.7
v -0.4 2.2 1.7
v -0.3 1.7 1.7
v -0.3 1.8 1.7
v -0.3 2.3 1.7
v -0.3 2.4 1.7
v 0.2 1.7 1.7
v 0.2 1.8 1.7
v 0.2 2.3 1.7
v 0.2 2.4 1.7
v 0.3 2.1 1.7
v 0.3 2.2 1.7
v 0.4 2.1 1.7
v 0.4 2.2 1.7
v -0.5 1.6 1.6
v -0.5 1.7 1.6
v -0.5 2.1 1.6
v -0.4 1.9 1.6
v -0.4 2.1 1.6
v -0.4 2.3 1.6
v -0.3 1.6 1.6
v -0.3 1.7 1.6
v -0.3 1.8 1.6
v -0.3 1.9 1.6
v -0.3 2.1 1.6
v -0.3 2.2 1.6
v -0.1 2.2 1.6
v -0.1 2.3 1.6
v 0 2.2 1.6
v 0 2.3 1.6
v 0.2 1.6 1.6
v 0.2 1.7 1.6
v 0.2 1.8 1.6
v 0.2 1.9 1.6
v 0.2 2.1 1.6
v 0.2 2.2 1.6
v 0.3 1.9 1.6
v 0.3 2.1 1.6
v 0.3 2.3 1.6
v 0.4 1.6 1.6
v 0.4 1.7 1.6
v 0.4 2.1 1.6
v -0.4 1.9 1.5
v -0.4 2.1 1.5
v -0.3 1.8 1.5
v -0.3 1.9 1.5
v -0.3 2.1 1.5
v -0.3 2.2 1.5
v -0.1 2.2 1.5
v -0.1 2.4 1.5
v 0 2.2 1.5
v 0 2.4 1.5
v 0.2 1.8 1.5
v 0.2 1.9 1.5
v 0.2 2.1 1.5
v 0.2 2.2 1.5
v 0.3 1.9 1.5
v 0.3 2.1 1.5
v -1.4 0.2 1.2
v -1.4 0.3 1.2
v -1.2 0.3 1.2
v -1.2 1.3 1.2
v 1 0.2 1.2
v 1 0.3 1.2
v 1 1.3 1.2
v 1.1 0.3 1.2
v 1.1 1.3 1.2
v 1.2 0.3 1.2
v 1.2 1.3 1.2
v -1.5 0 1.1
v -1.5 0.2 1.1
v 1 0 1.1
v 1 0.2 1.1
v 1 1.6 1.1
v 1 2 1.1
v 1.1 1.8 1.1
v 1.1 1.9 1.1
v 1.2 1.8 1.1
v 1.2 1.9 1.1
v 1.3 1.6 1.1
v 1.3 2 1.1
v 0.3 2.2 -1.2
v 0.3 2.3 -1.2
v 0.5 2.2 -1.2
v 0.5 2.3 -1.2
v -1.4 0.2 -1.3
v -1.4 0.3 -1.3
v -1.2 0.3 -1.3
v -1.2 1.3 -1.3
v 0.2 2.2 -1.3
v 0.2 2.3 -1.3
v 0.3 1.9 -1.3
v 0.3 2.1 -1.3
v 0.3 2.2 -1.3
v 0.3 2.3 -1.3
v 0.4 1.9 -1.3
v 0.4 2 -1.3
v 0.5 2 -1.3
v 0.5 2.1 -1.3
v 0.5 2.2 -1.3
v 0.5 2.3 -1.3
v 0.6 2.2 -1.3
v 0.6 2.3 -1.3
v 1 0.2 -1.3
v 1 0.3 -1.3
v 1 1.3 -1.3
v 1.1 0.3 -1.3
v 1.1 1.3 -1.3
v 1.2 0.3 -1.3
v 1.2 1.3 -1.3
v -1.5 0 -1.4
v -1.5 0.2 -1.4
v 0.1 2.2 -1.4
v 0.1 2.3 -1.4
v 0.2 1.9 -1.4
v 0.2 2.1 -1.4
v 0.2 2.2 -1.4
v 0.2 2.3 -1.4
v 0.3 1.9 -1.4
v 0.3 2.1 -1.4
v 0.3 2.2 -1.4
v 0.5 2 -1.4
v 0.5 2.1 -1.4
v 0.5 2.2 -1.4
v 0.6 2 -1.4
v 0.6 2.1 -1.4
v 0.6 2.2 -1.4
v 0.6 2.4 -1.4
v 0.7 2.2 -1.4
v 0.7 2.3 -1.4
v 0.7 2.4 -1.4
v 1 0 -1.4
v 1 0.2 -1.4
v 1 1.6 -1.4
v 1 2 -1.4
v 1.1 1.8 -1.4
v 1.1 1.9 -1.4
v 1.2 1.8 -1.4
v 1.2 1.9 -1.4
v 1.3 1.6 -1.4
v 1.3 2 -1.4
v 0.4 2.5 -1.5
v 0.4 2.6 -1.5
v 0.5 2.4 -1.5
v 0.5 2.5 -1.5
v 0.5 2.6 -1.5
v 0.5 2.8 -1.5
v 0.5 2.9 -1.5
v 0.8 2.4 -1.5
v 0.8 2.5 -1.5
v 0.8 2.6 -1.5
v 0.8 2.8 -1.5
v 0.8 2.9 -1.5
v 0.9 2.5 -1.5
v 0.9 2.6 -1.5
v 0.9 2.8 -1.5
v 0 1.7 -1.6
v 0 1.8 -1.6
v 0.1 1.6 -1.6
v 0.1 1.7 -1.6
v 0.1 1.8 -1.6
v 0.2 1.6 -1.6
v 0.2 1.7 -1.6
v 0.4 1.9 -1.6
v 0.4 2 -1.6
v 0.5 1.9 -1.6
v 0.5 2 -1.6
v 0.5 2.5 -1.6
v 0.5 2.6 -1.6
v 0.5 2.7 -1.6
v 0.5 2.8 -1.6
v 0.6 1.6 -1.6
v 0.6 1.7 -1.6
v 0.7 1.6 -1.6
v 0.7 1.7 -1.6
v 0.7 1.8 -1.6
v 0.8 1.7 -1.6
v 0.8 1.8 -1.6
v 0.8 2.5 -1.6
v 0.8 2.6 -1.6
v 0.8 2.8 -1.6
v 0 1.8 -1.7
v 0 2.1 -1.7
v 0 2.2 -1.7
v 0 2.3 -1.7
v 0.1 1.7 -1.7
v 0.1 1.8 -1.7
v 0.1 2.1 -1.7
v 0.1 2.2 -1.7
v 0.1 2.3 -1.7
v 0.2 1.6 -1.7
v 0.2 1.7 -1.7
v 0.2 1.8 -1.7
v 0.2 2.1 -1.7
v 0.2 2.2 -1.7
v 0.2 2.3 -1.7
v 0.2 2.5 -1.7
v 0.3 1.6 -1.7
v 0.3 1.7 -1.7
v 0.3 2.3 -1.7
v 0.3 2.5 -1.7
v 0.5 1.6 -1.7
v 0.5 1.7 -1.7
v 0.6 1.6 -1.7
v 0.6 1.7 -1.7
v 0.6 1.8 -1.7
v 0.6 2.1 -1.7
v 0.6 2.2 -1.7
v 0.7 1.7 -1.7
v 0.7 1.8 -1.7
v 0.7 2.1 -1.7
v 0.7 2.2 -1.7
v 0.7 2.3 -1.7
v 0.8 1.8 -1.7
v 0.8 2.1 -1.7
v 0.8 2.2 -1.7
v 0.8 2.3 -1.7
v 0 2.6 -1.8
v 0 2.7 -1.8
v 0 2.9 -1.8
v 0.1 1.8 -1.8
v 0.1 2.1 -1.8
v 0.1 2.2 -1.8
v 0.1 2.3 -1.8
v 0.1 2.5 -1.8
v 0.1 2.6 -1.8
v 0.1 2.7 -1.8
v 0.1 2.9 -1.8
v 0.1 3 -1.8
v 0.2 1.7 -1.8
v 0.2 1.8 -1.8
v 0.2 2.1 -1.8
v 0.2 2.2 -1.8
v 0.2 2.3 -1.8
v 0.3 1.6 -1.8
v 0.3 1.7 -1.8
v 0.3 1.8 -1.8
v 0.4 2.5 -1.8
v 0.4 2.6 -1.8
v 0.4 2.7 -1.8
v 0.4 2.9 -1.8
v 0.4 3 -1.8
v 0.5 1.6 -1.8
v 0.5 1.7 -1.8
v 0.5 1.8 -1.8
v 0.5 2.6 -1.8
v 0.5 2.7 -1.8
v 0.5 2.9 -1.8
v 0.6 1.7 -1.8
v 0.6 1.8 -1.8
v 0.6 2.1 -1.8
v 0.6 2.2 -1.8
v 0.6 2.3 -1.8
v 0.7 1.8 -1.8
v 0.7 2.1 -1.8
v 0.7 2.2 -1.8
v 0.7 2.3 -1.8
v 0.1 2.6 -1.9
v 0.1 2.7 -1.9
v 0.1 2.9 -1.9
v 0.2 1.8 -1.9
v 0.2 2.1 -1.9
v 0.2 2.2 -1.9
v 0.2 2.3 -1.9
v 0.3 1.7 -1.9
v 0.3 1.8 -1.9
v 0.4 2.6 -1.9
v 0.4 2.7 -1.9
v 0.4 2.9 -1.9
v 0.5 1.7 -1.9
v 0.5 1.8 -1.9
v 0.6 1.8 -1.9
v 0.6 2.1 -1.9
v 0.6 2.2 -1.9
v 0.6 2.3 -1.9
v -0.5 1.6 -3.5
v -0.5 1.8 -3.5
v -0.4 1.6 -3.5
v -0.4 1.8 -3.5
v -0.4 2 -3.5
v -0.3 1.8 -3.5
v -0.3 2 -3.5
v -0.3 2.1 -3.5
v -0.2 2 -3.5
v -0.2 2.1 -3.5
v -1.2 0.3 -3.7
v -1.2 1.3 -3.7
v -0.5 2.3 -3.7
v -0.5 2.6 -3.7
v -0.4 2.2 -3.7
v -0.4 2.3 -3.7
v -0.4 2.5 -3.7
v -0.4 2.6 -3.7
v -0.3 2.1 -3.7
v -0.3 2.2 -3.7
v -0.3 2.4 -3.7
v -0.3 2.5 -3.7
v -0.2 2 -3.7
v -0.2 2.1 -3.7
v -0.2 2.3 -3.7
v -0.2 2.4 -3.7
v -0.1 1.9 -3.7
v -0.1 2 -3.7
v -0.1 2.2 -3.7
v -0.1 2.3 -3.7
v 0 2.1 -3.7
v 0 2.2 -3.7
v 0.1 1.7 -3.7
v 0.1 1.8 -3.7
v 0.1 2 -3.7
v 0.1 2.1 -3.7
v 0.2 1.6 -3.7
v 0.2 1.7 -3.7
v 0.2 1.9 -3.7
v 0.2 2 -3.7
v 0.4 1.7 -3.7
v 0.4 1.8 -3.7
v 0.5 1.6 -3.7
v 0.5 1.7 -3.7
v 1.1 0.3 -3.7
v 1.1 1.3 -3.7
v -1.3 0.3 -3.8
v -1.3 1.4 -3.8
v -1.2 0.3 -3.8
v -1.2 1.3 -3.8
v -1 1.8 -3.8
v -1 1.9 -3.8
v 1 1.8 -3.8
v 1 1.9 -3.8
v 1.1 0.3 -3.8
v 1.1 1.3 -3.8
v 1.2 0.3 -3.8
v 1.2 1.4 -3.8
v -1.5 1.4 -3.9
v -1.5 1.5 -3.9
v -1.4 0.2 -3.9
v -1.4 0.3 -3.9
v -1.3 1.6 -3.9
v -1.3 2 -3.9
v -1 1.6 -3.9
v -1 2 -3.9
v 1 1.6 -3.9
v 1 2 -3.9
v 1.3 0.2 -3.9
v 1.3 0.3 -3.9
v 1.3 1.4 -3.9
v 1.3 1.5 -3.9
v 1.3 1.6 -3.9
v 1.3 2 -3.9
v -1.5 0 -4
v -1.5 0.2 -4
v -1.5 1.5 -4
v -1.5 1.6 -4
v 1.5 0 -4
v 1.5 0.2 -4
v 1.5 1.5 -4
v 1.5 1.6 -4
v -1.5 0 4
v 1.5 0 4
v -1.5 0 3.5
v 1 0 3.5
v -1.5 0 1.4
v 1 0 1.4
v -1.5 0 1.1
v 1 0 1.1
v -1.5 0 -1.1
v 1 0 -1.1
v -1.5 0 -1.4
v 1 0 -1.4
v -1.5 0 -3.5
v 1 0 -3.5
v -1.5 0 -4
v 1.5 0 -4
v -1.2 1.3 3.8
v 1.1 1.3 3.8
v -1.2 1.3 3.7
v 1.1 1.3 3.7
v -1.2 1.3 3.6
v 0.9 1.3 3.6
v 1.1 1.3 3.6
v 1.2 1.3 3.6
v -1.3 1.3 3.5
v -1.2 1.3 3.5
v 0.9 1.3 3.5
v 1 1.3 3.5
v -1.2 1.3 1.3
v 1 1.3 1.3
v 1.1 1.3 1.3
v 1.2 1.3 1.3
v -1.2 1.3 1.2
v 1 1.3 1.2
v 1.1 1.3 1.2
v 1.2 1.3 1.2
v -1.2 1.3 -1.2
v 1 1.3 -1.2
v 1.1 1.3 -1.2
v 1.2 1.3 -1.2
v -1.2 1.3 -1.3
v 1 1.3 -1.3
v 1.1 1.3 -1.3
v 1.2 1.3 -1.3
v -1.3 1.3 -3.5
v -1.2 1.3 -3.5
v 0.9 1.3 -3.5
v 1 1.3 -3.5
v -1.2 1.3 -3.6
v 0.9 1.3 -3.6
v 1.1 1.3 -3.6
v 1.2 1.3 -3.6
v -1.2 1.3 -3.7
v 1.1 1.3 -3.7
v -1.2 1.3 -3.8
v 1.1 1.3 -3.8
v -1.5 1.4 3.9
v 1.3 1.4 3.9
v -1.3 1.4 3.8
v 1.2 1.4 3.8
v -1.3 1.4 -3.8
v 1.2 1.4 -3.8
v -1.5 1.4 -3.9
v 1.3 1.4 -3.9
v -1.5 1.5 4
v 1.5 1.5 4
v -1.5 1.5 3.9
v 1.3 1.5 3.9
v -1.5 1.5 -3.9
v 1.3 1.5 -3.9
v -1.5 1.5 -4
v 1.5 1.5 -4
v -0.3 1.7 2.3
v 0.2 1.7 2.3
v -0.4 1.7 2.2
v -0.3 1.7 2.2
v 0.2 1.7 2.2
v 0.3 1.7 2.2
v -0.4 1.7 1.8
v -0.3 1.7 1.8
v 0.2 1.7 1.8
v 0.3 1.7 1.8
v -0.3 1.7 1.7
v 0.2 1.7 1.7
v 0.3 1.7 -1.1
v 0.5 1.7 -1.1
v 0.2 1.7 -1.2
v 0.3 1.7 -1.2
v 0.5 1.7 -1.2
v 0.6 1.7 -1.2
v 0.1 1.7 -1.3
v 0.2 1.7 -1.3
v 0.3 1.7 -1.3
v 0.5 1.7 -1.3
v 0.6 1.7 -1.3
v 0.7 1.7 -1.3
v 0 1.7 -1.4
v 0.1 1.7 -1.4
v 0.2 1.7 -1.4
v 0.6 1.7 -1.4
v 0.7 1.7 -1.4
v 0.8 1.7 -1.4
v 0 1.7 -1.6
v 0.1 1.7 -1.6
v 0.2 1.7 -1.6
v 0.6 1.7 -1.6
v 0.7 1.7 -1.6
v 0.8 1.7 -1.6
v 0.1 1.7 -1.7
v 0.2 1.7 -1.7
v 0.3 1.7 -1.7
v 0.5 1.7 -1.7
v 0.6 1.7 -1.7
v 0.7 1.7 -1.7
v 0.2 1.7 -1.8
v 0.3 1.7 -1.8
v 0.5 1.7 -1.8
v 0.6 1.7 -1.8
v 0.3 1.7 -1.9
v 0.5 1.7 -1.9
v 0.1 1.7 -2.7
v 0.2 1.7 -2.7
v 0.1 1.7 -2.8
v 0.2 1.7 -2.8
v 0.1 1.7 -3.6
v 0.2 1.7 -3.6
v 0.1 1.7 -3.7
v 0.2 1.7 -3.7
v -1 1.8 3.8
v 1 1.8 3.8
v -1 1.8 3.7
v 1 1.8 3.7
v 1.1 1.8 3.6
v 1.2 1.8 3.6
v -0.3 1.8 2.4
v 0.2 1.8 2.4
v -0.3 1.8 2.3
v 0.2 1.8 2.3
v -0.5 1.8 2.2
v -0.4 1.8 2.2
v 0.3 1.8 2.2
v 0.4 1.8 2.2
v -0.5 1.8 1.8
v -0.4 1.8 1.8
v 0.3 1.8 1.8
v 0.4 1.8 1.8
v -0.3 1.8 1.7
v 0.2 1.8 1.7
v -0.3 1.8 1.6
v 0.2 1.8 1.6
v -0.3 1.8 1.5
v 0.2 1.8 1.5
v 1.1 1.8 1.4
v 1.2 1.8 1.4
v 1.1 1.8 1.1
v 1.2 1.8 1.1
v 0.2 1.8 -1.1
v 0.3 1.8 -1.1
v 0.5 1.8 -1.1
v 0.6 1.8 -1.1
v 1.1 1.8 -1.1
v 1.2 1.8 -1.1
v 0.1 1.8 -1.2
v 0.2 1.8 -1.2
v 0.3 1.8 -1.2
v 0.5 1.8 -1.2
v 0.6 1.8 -1.2
v 0.7 1.8 -1.2
v 0 1.8 -1.3
v 0.1 1.8 -1.3
v 0.2 1.8 -1.3
v 0.6 1.8 -1.3
v 0.7 1.8 -1.3
v 0.8 1.8 -1.3
v 0 1.8 -1.4
v 0.1 1.8 -1.4
v 0.7 1.8 -1.4
v 0.8 1.8 -1.4
v 1.1 1.8 -1.4
v 1.2 1.8 -1.4
v 0 1.8 -1.6
v 0.1 1.8 -1.6
v 0.7 1.8 -1.6
v 0.8 1.8 -1.6
v 0 1.8 -1.7
v 0.1 1.8 -1.7
v 0.2 1.8 -1.7
v 0.6 1.8 -1.7
v 0.7 1.8 -1.7
v 0.8 1.8 -1.7
v 0.1 1.8 -1.8
v 0.2 1.8 -1.8
v 0.3 1.8 -1.8
v 0.5 1.8 -1.8
v 0.6 1.8 -1.8
v 0.7 1.8 -1.8
v 0.2 1.8 -1.9
v 0.3 1.8 -1.9
v 0.5 1.8 -1.9
v 0.6 1.8 -1.9
v 0 1.8 -2.7
v 0.1 1.8 -2.7
v 0 1.8 -2.8
v 0.1 1.8 -2.8
v -0.4 1.8 -2.9
v -0.3 1.8 -2.9
v -0.4 1.8 -3.5
v -0.3 1.8 -3.5
v 0 1.8 -3.6
v 0.1 1.8 -3.6
v 1.1 1.8 -3.6
v 1.2 1.8 -3.6
v -1 1.8 -3.7
v 0 1.8 -3.7
v 0.1 1.8 -3.7
v 0.4 1.8 -3.7
v 1 1.8 -3.7
v -1 1.8 -3.8
v 1 1.8 -3.8
v -0.3 1.9 2.6
v 0.2 1.9 2.6
v -0.3 1.9 2.4
v 0.2 1.9 2.4
v -0.4 1.9 1.6
v -0.3 1.9 1.6
v 0.2 1.9 1.6
v 0.3 1.9 1.6
v -0.4 1.9 1.5
v -0.3 1.9 1.5
v 0.2 1.9 1.5
v 0.3 1.9 1.5
v -0.1 1.9 -2.7
v 0 1.9 -2.7
v -0.1 1.9 -2.8
v 0 1.9 -2.8
v -0.1 1.9 -3.6
v 0 1.9 -3.6
v -0.1 1.9 -3.7
v 0 1.9 -3.7
v -0.2 2 2.7
v 0.1 2 2.7
v -0.4 2 2.6
v -0.3 2 2.6
v -0.2 2 2.6
v 0.1 2 2.6
v 0.2 2 2.6
v 0.3 2 2.6
v -0.4 2 2.4
v -0.3 2 2.4
v 0.2 2 2.4
v 0.3 2 2.4
v -0.2 2 -2.7
v -0.1 2 -2.7
v -0.2 2 -2.8
v -0.1 2 -2.8
v -0.3 2 -2.9
v -0.2 2 -2.9
v -0.3 2 -3.5
v -0.2 2 -3.5
v -0.2 2 -3.6
v -0.1 2 -3.6
v -0.2 2 -3.7
v -0.1 2 -3.7
v -0.3 2.1 -2.7
v -0.2 2.1 -2.7
v -0.3 2.1 -2.8
v -0.2 2.1 -2.8
v -0.3 2.1 -2.9
v -0.2 2.1 -2.9
v -0.3 2.1 -3.5
v -0.2 2.1 -3.5
v -0.3 2.1 -3.6
v -0.2 2.1 -3.6
v -0.3 2.1 -3.7
v -0.2 2.1 -3.7
v 0.2 2.2 -1.1
v 0.6 2.2 -1.1
v 0.1 2.2 -1.2
v 0.2 2.2 -1.2
v 0.6 2.2 -1.2
v 0.7 2.2 -1.2
v 0 2.2 -1.3
v 0.1 2.2 -1.3
v 0.2 2.2 -1.3
v 0.6 2.2 -1.3
v 0.7 2.2 -1.3
v 0.8 2.2 -1.3
v 0 2.2 -1.7
v 0.1 2.2 -1.7
v 0.2 2.2 -1.7
v 0.6 2.2 -1.7
v 0.7 2.2 -1.7
v 0.8 2.2 -1.7
v 0.1 2.2 -1.8
v 0.2 2.2 -1.8
v 0.6 2.2 -1.8
v 0.7 2.2 -1.8
v 0.2 2.2 -1.9
v 0.6 2.2 -1.9
v -0.4 2.2 -2.7
v -0.3 2.2 -2.7
v -0.4 2.2 -2.8
v -0.3 2.2 -2.8
v -0.4 2.2 -3.6
v -0.3 2.2 -3.6
v -0.4 2.2 -3.7
v -0.3 2.2 -3.7
v -0.5 2.3 -2.7
v -0.4 2.3 -2.7
v -0.4 2.3 -2.8
v -0.4 2.3 -3.6
v -0.5 2.3 -3.7
v -0.4 2.3 -3.7
v 0.5 2.4 -1.2
v 0.8 2.4 -1.2
v 0.6 2.4 -1.3
v 0.7 2.4 -1.3
v 0.6 2.4 -1.4
v 0.7 2.4 -1.4
v 0.5 2.4 -1.5
v 0.8 2.4 -1.5
v 0.5 2.5 -1.1
v 0.8 2.5 -1.1
v 0.4 2.5 -1.2
v 0.5 2.5 -1.2
v 0.8 2.5 -1.2
v 0.9 2.5 -1.2
v 0.1 2.5 -1.5
v 0.4 2.5 -1.5
v 0.5 2.5 -1.5
v 0.8 2.5 -1.5
v 0.9 2.5 -1.5
v 0.2 2.5 -1.6
v 0.3 2.5 -1.6
v 0.5 2.5 -1.6
v 0.8 2.5 -1.6
v 0.2 2.5 -1.7
v 0.3 2.5 -1.7
v 0.1 2.5 -1.8
v 0.4 2.5 -1.8
v 0.1 2.6 -1.4
v 0.4 2.6 -1.4
v 0 2.6 -1.5
v 0.1 2.6 -1.5
v 0.4 2.6 -1.5
v 0.5 2.6 -1.5
v 0.5 2.6 -1.6
v 0 2.6 -1.8
v 0.1 2.6 -1.8
v 0.4 2.6 -1.8
v 0.5 2.6 -1.8
v 0.1 2.6 -1.9
v 0.4 2.6 -1.9
v -1.5 0.2 4
v 1.5 0.2 4
v -1.4 0.2 3.9
v 1.3 0.2 3.9
v -1.5 0.2 3.5
v -1.4 0.2 3.5
v -1.5 0.2 1.4
v 1 0.2 1.4
v -1.4 0.2 1.3
v 1 0.2 1.3
v -1.4 0.2 1.2
v 1 0.2 1.2
v -1.5 0.2 1.1
v 1 0.2 1.1
v -1.5 0.2 -1.1
v 1 0.2 -1.1
v -1.4 0.2 -1.2
v 1 0.2 -1.2
v -1.4 0.2 -1.3
v 1 0.2 -1.3
v -1.5 0.2 -1.4
v 1 0.2 -1.4
v -1.5 0.2 -3.5
v -1.4 0.2 -3.5
v -1.4 0.2 -3.9
v 1.3 0.2 -3.9
v -1.5 0.2 -4
v 1.5 0.2 -4
v -1.4 0.3 3.9
v 1.3 0.3 3.9
v -1.3 0.3 3.8
v -1.2 0.3 3.8
v 1.1 0.3 3.8
v 1.2 0.3 3.8
v -1.2 0.3 3.7
v 1.1 0.3 3.7
v -1.2 0.3 3.6
v 0.9 0.3 3.6
v 1.1 0.3 3.6
v 1.2 0.3 3.6
v -1.4 0.3 3.5
v -1.3 0.3 3.5
v -1.2 0.3 3.5
v 0.9 0.3 3.5
v -1.4 0.3 1.3
v -1.2 0.3 1.3
v 1.1 0.3 1.3
v 1.2 0.3 1.3
v -1.4 0.3 1.2
v -1.2 0.3 1.2
v 1.1 0.3 1.2
v 1.2 0.3 1.2
v -1.4 0.3 -1.2
v -1.2 0.3 -1.2
v 1.1 0.3 -1.2
v 1.2 0.3 -1.2
v -1.4 0.3 -1.3
v -1.2 0.3 -1.3
v 1.1 0.3 -1.3
v 1.2 0.3 -1.3
v -1.4 0.3 -3.5
v -1.3 0.3 -3.5
v -1.2 0.3 -3.5
v 0.9 0.3 -3.5
v -1.2 0.3 -3.6
v 0.9 0.3 -3.6
v 1.1 0.3 -3.6
v 1.2 0.3 -3.6
v -1.2 0.3 -3.7
v 1.1 0.3 -3.7
v -1.3 0.3 -3.8
v -1.2 0.3 -3.8
v 1.1 0.3 -3.8
v 1.2 0.3 -3.8
v -1.4 0.3 -3.9
v 1.3 0.3 -3.9
v -1.5 1.6 4
v 1.5 1.6 4
v -1.3 1.6 3.9
v -1 1.6 3.9
v 1 1.6 3.9
v 1.3 1.6 3.9
v -1.3 1.6 3.6
v -1 1.6 3.6
v 1 1.6 3.6
v 1.3 1.6 3.6
v -0.5 1.6 2.4
v -0.3 1.6 2.4
v 0.2 1.6 2.4
v 0.4 1.6 2.4
v -0.5 1.6 2.2
v -0.3 1.6 2.2
v 0.2 1.6 2.2
v 0.4 1.6 2.2
v -0.5 1.6 1.8
v -0.3 1.6 1.8
v 0.2 1.6 1.8
v 0.4 1.6 1.8
v -0.5 1.6 1.6
v -0.3 1.6 1.6
v 0.2 1.6 1.6
v 0.4 1.6 1.6
v 1 1.6 1.4
v 1.3 1.6 1.4
v 1 1.6 1.1
v 1.3 1.6 1.1
v 1 1.6 -1.1
v 1.3 1.6 -1.1
v 0.3 1.6 -1.2
v 0.5 1.6 -1.2
v 0.2 1.6 -1.3
v 0.3 1.6 -1.3
v 0.5 1.6 -1.3
v 0.6 1.6 -1.3
v 0.1 1.6 -1.4
v 0.2 1.6 -1.4
v 0.6 1.6 -1.4
v 0.7 1.6 -1.4
v 1 1.6 -1.4
v 1.3 1.6 -1.4
v 0.1 1.6 -1.6
v 0.2 1.6 -1.6
v 0.6 1.6 -1.6
v 0.7 1.6 -1.6
v 0.2 1.6 -1.7
v 0.3 1.6 -1.7
v 0.5 1.6 -1.7
v 0.6 1.6 -1.7
v 0.3 1.6 -1.8
v 0.5 1.6 -1.8
v 0.2 1.6 -2.7
v 0.5 1.6 -2.7
v -0.5 1.6 -2.9
v -0.4 1.6 -2.9
v -0.5 1.6 -3.5
v -0.4 1.6 -3.5
v -1.3 1.6 -3.6
v -1 1.6 -3.6
v 1 1.6 -3.6
v 1.3 1.6 -3.6
v 0.2 1.6 -3.7
v 0.5 1.6 -3.7
v -1.3 1.6 -3.9
v -1 1.6 -3.9
v 1 1.6 -3.9
v 1.3 1.6 -3.9
v -1.5 1.6 -4
v 1.5 1.6 -4
v 0.4 1.7 -2.7
v 0.5 1.7 -2.7
v 0.4 1.7 -2.8
v 0.4 1.7 -2.9
v 0.4 1.7 -3.2
v 0.4 1.7 -3.6
v 0.4 1.7 -3.7
v 0.5 1.7 -3.7
v 0.3 1.8 -2.7
v 0.4 1.8 -2.7
v 0.3 1.8 -2.8
v 0.4 1.8 -2.8
v -0.5 1.8 -2.9
v -0.4 1.8 -2.9
v 0.3 1.8 -2.9
v 0.4 1.8 -2.9
v 0.3 1.8 -3.2
v 0.4 1.8 -3.2
v -0.5 1.8 -3.5
v -0.4 1.8 -3.5
v 0.3 1.8 -3.6
v 0.4 1.8 -3.6
v 0.3 1.8 -3.7
v 0.4 1.8 -3.7
v -1 1.9 3.8
v 1 1.9 3.8
v -1 1.9 3.7
v 1 1.9 3.7
v 1.1 1.9 3.6
v 1.2 1.9 3.6
v 1.1 1.9 1.4
v 1.2 1.9 1.4
v 1.1 1.9 1.1
v 1.2 1.9 1.1
v 1.1 1.9 -1.1
v 1.2 1.9 -1.1
v 0.3 1.9 -1.3
v 0.4 1.9 -1.3
v 0.2 1.9 -1.4
v 0.3 1.9 -1.4
v 1.1 1.9 -1.4
v 1.2 1.9 -1.4
v 0.2 1.9 -1.6
v 0.3 1.9 -1.6
v 0.4 1.9 -1.6
v 0.5 1.9 -1.6
v 0.3 1.9 -1.7
v 0.5 1.9 -1.7
v 0.2 1.9 -2.7
v 0.3 1.9 -2.7
v 0.2 1.9 -2.8
v 0.3 1.9 -2.8
v 0.2 1.9 -3
v 0.2 1.9 -3.4
v 0.2 1.9 -3.6
v 0.3 1.9 -3.6
v 1.1 1.9 -3.6
v 1.2 1.9 -3.6
v -1 1.9 -3.7
v -0.1 1.9 -3.7
v 0.2 1.9 -3.7
v 0.3 1.9 -3.7
v 1 1.9 -3.7
v -1 1.9 -3.8
v 1 1.9 -3.8
v -1.3 2 3.9
v -1 2 3.9
v 1 2 3.9
v 1.3 2 3.9
v -1.3 2 3.6
v -1 2 3.6
v 1 2 3.6
v 1.3 2 3.6
v 1 2 1.4
v 1.3 2 1.4
v 1 2 1.1
v 1.3 2 1.1
v 1 2 -1.1
v 1.3 2 -1.1
v 0.4 2 -1.3
v 0.5 2 -1.3
v 0.5 2 -1.4
v 0.6 2 -1.4
v 1 2 -1.4
v 1.3 2 -1.4
v 0.4 2 -1.6
v 0.5 2 -1.6
v 0.6 2 -1.6
v 0.1 2 -2.7
v 0.2 2 -2.7
v 0.1 2 -2.8
v 0.2 2 -2.8
v -0.4 2 -2.9
v -0.3 2 -2.9
v 0.1 2 -3
v 0.2 2 -3
v 0.1 2 -3.4
v 0.2 2 -3.4
v -0.4 2 -3.5
v -0.3 2 -3.5
v -1.3 2 -3.6
v -1 2 -3.6
v 0.1 2 -3.6
v 0.2 2 -3.6
v 1 2 -3.6
v 1.3 2 -3.6
v 0.1 2 -3.7
v 0.2 2 -3.7
v -1.3 2 -3.9
v -1 2 -3.9
v 1 2 -3.9
v 1.3 2 -3.9
v -0.5 2.1 2.4
v -0.4 2.1 2.4
v 0.3 2.1 2.4
v 0.4 2.1 2.4
v -0.5 2.1 2.3
v -0.4 2.1 2.3
v 0.3 2.1 2.3
v 0.4 2.1 2.3
v -0.5 2.1 1.7
v -0.4 2.1 1.7
v 0.3 2.1 1.7
v 0.4 2.1 1.7
v -0.5 2.1 1.6
v -0.4 2.1 1.6
v -0.3 2.1 1.6
v 0.2 2.1 1.6
v 0.3 2.1 1.6
v 0.4 2.1 1.6
v -0.4 2.1 1.5
v -0.3 2.1 1.5
v 0.2 2.1 1.5
v 0.3 2.1 1.5
v 0.2 2.1 -1.1
v 0.6 2.1 -1.1
v 0.1 2.1 -1.2
v 0.2 2.1 -1.2
v 0.6 2.1 -1.2
v 0.7 2.1 -1.2
v 0 2.1 -1.3
v 0.1 2.1 -1.3
v 0.2 2.1 -1.3
v 0.6 2.1 -1.3
v 0.7 2.1 -1.3
v 0.8 2.1 -1.3
v 0 2.1 -1.7
v 0.1 2.1 -1.7
v 0.2 2.1 -1.7
v 0.6 2.1 -1.7
v 0.7 2.1 -1.7
v 0.8 2.1 -1.7
v 0.1 2.1 -1.8
v 0.2 2.1 -1.8
v 0.6 2.1 -1.8
v 0.7 2.1 -1.8
v 0.2 2.1 -1.9
v 0.6 2.1 -1.9
v 0 2.1 -2.7
v 0.1 2.1 -2.7
v 0 2.1 -2.8
v 0.1 2.1 -2.8
v 0 2.1 -2.9
v 0 2.1 -3.2
v 0 2.1 -3.3
v 0 2.1 -3.5
v 0 2.1 -3.6
v 0.1 2.1 -3.6
v 0 2.1 -3.7
v 0.1 2.1 -3.7
v -0.2 2.2 2.7
v 0.1 2.2 2.7
v -0.2 2.2 2.6
v 0.1 2.2 2.6
v -0.5 2.2 2.3
v -0.4 2.2 2.3
v 0.3 2.2 2.3
v 0.4 2.2 2.3
v -0.1 2.2 2.1
v 0 2.2 2.1
v -0.1 2.2 1.8
v 0 2.2 1.8
v -0.5 2.2 1.7
v -0.4 2.2 1.7
v 0.3 2.2 1.7
v 0.4 2.2 1.7
v -0.3 2.2 1.6
v -0.1 2.2 1.6
v 0 2.2 1.6
v 0.2 2.2 1.6
v -0.3 2.2 1.5
v -0.1 2.2 1.5
v 0 2.2 1.5
v 0.2 2.2 1.5
v 0.3 2.2 -1.2
v 0.5 2.2 -1.2
v 0.2 2.2 -1.3
v 0.3 2.2 -1.3
v 0.5 2.2 -1.3
v 0.6 2.2 -1.3
v 0.1 2.2 -1.4
v 0.2 2.2 -1.4
v 0.3 2.2 -1.4
v 0.5 2.2 -1.4
v 0.6 2.2 -1.4
v 0.7 2.2 -1.4
v 0.1 2.2 -1.6
v 0.2 2.2 -1.6
v 0.5 2.2 -1.6
v 0.6 2.2 -1.6
v 0.7 2.2 -1.6
v 0.3 2.2 -1.7
v 0.5 2.2 -1.7
v 0.6 2.2 -1.7
v 0.3 2.2 -1.8
v 0.5 2.2 -1.8
v -0.1 2.2 -2.7
v 0 2.2 -2.7
v -0.1 2.2 -2.8
v 0 2.2 -2.8
v -0.1 2.2 -2.9
v 0 2.2 -2.9
v -0.1 2.2 -3.2
v 0 2.2 -3.2
v -0.1 2.2 -3.3
v 0 2.2 -3.3
v -0.1 2.2 -3.5
v 0 2.2 -3.5
v -0.1 2.2 -3.6
v 0 2.2 -3.6
v -0.1 2.2 -3.7
v 0 2.2 -3.7
v -0.4 2.3 2.2
v -0.3 2.3 2.2
v 0.2 2.3 2.2
v 0.3 2.3 2.2
v -0.3 2.3 1.7
v 0.2 2.3 1.7
v -0.4 2.3 1.6
v -0.1 2.3 1.6
v 0 2.3 1.6
v 0.3 2.3 1.6
v 0.2 2.3 -1.1
v 0.6 2.3 -1.1
v 0.1 2.3 -1.2
v 0.2 2.3 -1.2
v 0.3 2.3 -1.2
v 0.5 2.3 -1.2
v 0.6 2.3 -1.2
v 0.7 2.3 -1.2
v 0 2.3 -1.3
v 0.1 2.3 -1.3
v 0.2 2.3 -1.3
v 0.3 2.3 -1.3
v 0.5 2.3 -1.3
v 0.6 2.3 -1.3
v 0.7 2.3 -1.3
v 0.8 2.3 -1.3
v 0.1 2.3 -1.4
v 0.2 2.3 -1.4
v 0.7 2.3 -1.4
v 0.1 2.3 -1.6
v 0.2 2.3 -1.6
v 0.6 2.3 -1.6
v 0.7 2.3 -1.6
v 0 2.3 -1.7
v 0.1 2.3 -1.7
v 0.2 2.3 -1.7
v 0.3 2.3 -1.7
v 0.5 2.3 -1.7
v 0.6 2.3 -1.7
v 0.7 2.3 -1.7
v 0.8 2.3 -1.7
v 0.1 2.3 -1.8
v 0.2 2.3 -1.8
v 0.3 2.3 -1.8
v 0.5 2.3 -1.8
v 0.6 2.3 -1.8
v 0.7 2.3 -1.8
v 0.2 2.3 -1.9
v 0.6 2.3 -1.9
v -0.2 2.3 -2.7
v -0.1 2.3 -2.7
v -0.2 2.3 -2.8
v -0.1 2.3 -2.8
v -0.2 2.3 -2.9
v -0.2 2.3 -3.4
v -0.2 2.3 -3.6
v -0.1 2.3 -3.6
v -0.2 2.3 -3.7
v -0.1 2.3 -3.7
v -0.4 2.4 2.6
v 0.3 2.4 2.6
v -0.4 2.4 2.5
v 0.3 2.4 2.5
v -0.3 2.4 2.2
v 0.2 2.4 2.2
v -0.1 2.4 2.1
v 0 2.4 2.1
v -0.1 2.4 1.8
v 0 2.4 1.8
v -0.3 2.4 1.7
v 0.2 2.4 1.7
v -0.1 2.4 1.6
v 0 2.4 1.6
v -0.1 2.4 1.5
v 0 2.4 1.5
v -0.3 2.4 -2.7
v -0.2 2.4 -2.7
v -0.3 2.4 -2.8
v -0.2 2.4 -2.8
v -0.3 2.4 -2.9
v -0.2 2.4 -2.9
v -0.3 2.4 -3.4
v -0.2 2.4 -3.4
v -0.3 2.4 -3.6
v -0.2 2.4 -3.6
v -0.3 2.4 -3.7
v -0.2 2.4 -3.7
v -0.4 2.5 2.5
v 0.3 2.5 2.5
v -0.4 2.5 2.4
v -0.2 2.5 2.4
v 0.1 2.5 2.4
v 0.3 2.5 2.4
v -0.2 2.5 2.3
v 0.1 2.5 2.3
v -0.2 2.5 2.2
v 0.1 2.5 2.2
v -0.4 2.5 -2.7
v -0.3 2.5 -2.7
v -0.4 2.5 -2.8
v -0.3 2.5 -2.8
v -0.4 2.5 -3.6
v -0.3 2.5 -3.6
v -0.4 2.5 -3.7
v -0.3 2.5 -3.7
v -0.4 2.6 2.4
v -0.2 2.6 2.4
v 0.1 2.6 2.4
v 0.3 2.6 2.4
v -0.4 2.6 2.3
v -0.2 2.6 2.3
v 0.1 2.6 2.3
v 0.3 2.6 2.3
v -0.4 2.6 2.2
v -0.2 2.6 2.2
v 0.1 2.6 2.2
v 0.3 2.6 2.2
v -0.5 2.6 -2.7
v -0.4 2.6 -2.7
v -0.5 2.6 -3.7
v -0.4 2.6 -3.7
v 0.5 2.8 -1.1
v 0.8 2.8 -1.1
v 0.4 2.8 -1.2
v 0.5 2.8 -1.2
v 0.8 2.8 -1.2
v 0.9 2.8 -1.2
v 0.4 2.8 -1.4
v 0.4 2.8 -1.5
v 0.5 2.8 -1.5
v 0.8 2.8 -1.5
v 0.9 2.8 -1.5
v 0.5 2.8 -1.6
v 0.8 2.8 -1.6
v 0.5 2.9 -1.2
v 0.8 2.9 -1.2
v 0.1 2.9 -1.4
v 0.4 2.9 -1.4
v 0 2.9 -1.5
v 0.1 2.9 -1.5
v 0.4 2.9 -1.5
v 0.5 2.9 -1.5
v 0.8 2.9 -1.5
v 0 2.9 -1.8
v 0.1 2.9 -1.8
v 0.4 2.9 -1.8
v 0.5 2.9 -1.8
v 0.1 2.9 -1.9
v 0.4 2.9 -1.9
v 0.1 3 -1.5
v 0.4 3 -1.5
v 0.1 3 -1.8
v 0.4 3 -1.8

# faces
f 9/9/1 2/9/1 1/9/1
f 10/9/1 2/9/1 9/9/1
f 11/9/1 4/9/1 3/9/1
f 12/9/1 4/9/1 11/9/1
f 13/9/1 6/9/1 5/9/1
f 14/9/1 6/9/1 13/9/1
f 15/9/1 8/9/1 7/9/1
f 16/9/1 8/9/1 15/9/1
f 20/10/1 18/10/1 17/10/1
f 21/10/1 18/10/1 20/10/1
f 23/9/1 20/9/1 19/9/1
f 23/9/1 22/9/1 21/9/1
f 23/9/1 21/9/1 20/9/1
f 24/9/1 22/9/1 23/9/1
f 33/10/1 26/10/1 25/10/1
f 34/10/1 26/10/1 33/10/1
f 35/10/1 28/10/1 27/10/1
f 36/10/1 28/10/1 35/10/1
f 37/10/1 30/10/1 29/10/1
f 38/10/1 30/10/1 37/10/1
f 39/10/1 32/10/1 31/10/1
f 40/10/1 32/10/1 39/10/1
f 45/11/1 42/11/1 41/11/1
f 46/11/1 44/11/1 43/11/1
f 47/11/1 45/11/1 41/11/1
f 47/11/1 46/11/1 45/11/1
f 48/11/1 44/11/1 46/11/1
f 48/11/1 46/11/1 47/11/1
f 53/3/1 50/3/1 49/3/1
f 54/3/1 50/3/1 53/3/1
f 55/3/1 52/3/1 51/3/1
f 56/3/1 52/3/1 55/3/1
f 61/11/1 58/11/1 57/11/1
f 62/11/1 58/11/1 61/11/1
f 63/11/1 60/11/1 59/11/1
f 64/11/1 60/11/1 63/11/1
f 71/12/1 66/12/1 65/12/1
f 72/12/1 66/12/1 71/12/1
f 73/12/1 68/12/1 67/12/1
f 74/12/1 68/12/1 73/12/1
f 75/8/1 72/8/1 71/8/1
f 76/8/1 74/8/1 73/8/1
f 77/9/1 70/9/1 69/9/1
f 78/9/1 70/9/1 77/9/1
f 79/8/1 76/8/1 75/8/1
f 79/8/1 75/8/1 71/8/1
f 80/8/1 76/8/1 79/8/1
f 81/8/1 74/8/1 76/8/1
f 81/8/1 76/8/1 80/8/1
f 82/8/1 74/8/1 81/8/1
f 83/8/1 81/8/1 80/8/1
f 84/8/1 81/8/1 83/8/1
f 87/9/1 86/9/1 85/9/1
f 88/9/1 86/9/1 87/9/1
f 91/8/1 90/8/1 89/8/1
f 92/8/1 90/8/1 91/8/1
f 99/2/1 94/2/1 93/2/1
f 100/2/1 94/2/1 99/2/1
f 101/8/1 98/8/1 97/8/1
f 104/8/1 96/8/1 95/8/1
f 105/8/1 96/8/1 104/8/1
f 106/8/1 102/8/1 101/8/1
f 107/8/1 104/8/1 103/8/1
f 112/8/1 107/8/1 106/8/1
f 113/8/1 104/8/1 107/8/1
f 113/8/1 107/8/1 112/8/1
f 114/9/1 109/9/1 108/9/1
f 115/2/1 110/2/1 109/2/1
f 115/9/1 109/9/1 114/9/1
f 116/9/1 111/9/1 110/9/1
f 116/2/1 110/2/1 115/2/1
f 117/9/1 111/9/1 116/9/1
f 118/8/1 101/8/1 97/8/1
f 118/8/1 112/8/1 106/8/1
f 118/8/1 106/8/1 101/8/1
f 119/8/1 112/8/1 118/8/1
f 120/8/1 112/8/1 119/8/1
f 121/8/1 112/8/1 120/8/1
f 122/8/1 112/8/1 121/8/1
f 123/7/1 122/7/1 121/7/1
f 124/8/1 112/8/1 122/8/1
f 124/7/1 122/7/1 123/7/1
f 125/8/1 112/8/1 124/8/1
f 130/8/1 127/8/1 126/8/1
f 131/8/1 127/8/1 130/8/1
f 132/8/1 129/8/1 128/8/1
f 133/8/1 129/8/1 132/8/1
f 140/2/1 135/2/1 134/2/1
f 141/2/1 135/2/1 140/2/1
f 144/8/1 137/8/1 136/8/1
f 145/8/1 137/8/1 144/8/1
f 146/9/1 139/9/1 138/9/1
f 147/2/1 140/2/1 139/2/1
f 147/9/1 139/9/1 146/9/1
f 147/2/1 141/2/1 140/2/1
f 147/2/1 142/2/1 141/2/1
f 148/9/1 143/9/1 142/9/1
f 148/2/1 142/2/1 147/2/1
f 149/9/1 143/9/1 148/9/1
f 152/8/1 151/8/1 150/8/1
f 153/8/1 151/8/1 152/8/1
f 162/9/1 157/9/1 156/9/1
f 163/2/1 158/2/1 157/2/1
f 163/9/1 157/9/1 162/9/1
f 164/2/1 158/2/1 163/2/1
f 165/2/1 160/2/1 159/2/1
f 166/9/1 161/9/1 160/9/1
f 166/2/1 160/2/1 165/2/1
f 167/9/1 161/9/1 166/9/1
f 168/7/1 155/7/1 154/7/1
f 169/7/1 155/7/1 168/7/1
f 174/9/1 171/9/1 170/9/1
f 175/2/1 172/2/1 171/2/1
f 175/9/1 171/9/1 174/9/1
f 176/9/1 173/9/1 172/9/1
f 176/2/1 172/2/1 175/2/1
f 177/9/1 173/9/1 176/9/1
f 180/7/1 179/7/1 178/7/1
f 181/7/1 179/7/1 180/7/1
f 182/7/1 179/7/1 181/7/1
f 186/14/1 184/14/1 183/14/1
f 187/14/1 184/14/1 186/14/1
f 193/9/1 190/9/1 189/9/1
f 194/2/1 191/2/1 190/2/1
f 194/9/1 190/9/1 193/9/1
f 195/9/1 192/9/1 191/9/1
f 195/2/1 191/2/1 194/2/1
f 196/9/1 192/9/1 195/9/1
f 197/14/1 186/14/1 185/14/1
f 197/14/1 187/14/1 186/14/1
f 197/14/1 188/14/1 187/14/1
f 198/14/1 188/14/1 197/14/1
f 203/14/1 202/14/1 201/14/1
f 204/14/1 202/14/1 203/14/1
f 205/8/1 200/8/1 199/8/1
f 206/8/1 200/8/1 205/8/1
f 209/15/1 208/15/1 207/15/1
f 210/15/1 208/15/1 209/15/1
f 211/16/1 210/16/1 209/16/1
f 212/16/1 210/16/1 211/16/1
f 216/13/1 214/13/1 213/13/1
f 217/13/1 214/13/1 216/13/1
f 224/14/1 216/14/1 215/14/1
f 225/14/1 216/14/1 224/14/1
f 226/14/1 218/14/1 217/14/1
f 227/14/1 218/14/1 226/14/1
f 229/9/1 220/9/1 219/9/1
f 230/2/1 221/2/1 220/2/1
f 230/9/1 220/9/1 229/9/1
f 231/9/1 222/9/1 221/9/1
f 231/2/1 221/2/1 230/2/1
f 232/9/1 222/9/1 231/9/1
f 233/14/1 224/14/1 223/14/1
f 234/14/1 224/14/1 233/14/1
f 235/14/1 228/14/1 227/14/1
f 236/14/1 228/14/1 235/14/1
f 238/13/1 235/13/1 234/13/1
f 239/13/1 235/13/1 238/13/1
f 241/14/1 238/14/1 237/14/1
f 242/14/1 238/14/1 241/14/1
f 243/14/1 240/14/1 239/14/1
f 244/14/1 240/14/1 243/14/1
f 250/7/1 246/7/1 245/7/1
f 251/8/1 247/8/1 246/8/1
f 251/7/1 246/7/1 250/7/1
f 252/8/1 247/8/1 251/8/1
f 254/15/1 249/15/1 248/15/1
f 255/15/1 249/15/1 254/15/1
f 257/15/1 254/15/1 253/15/1
f 258/15/1 254/15/1 257/15/1
f 259/15/1 256/15/1 255/15/1
f 260/15/1 256/15/1 259/15/1
f 261/16/1 258/16/1 257/16/1
f 262/16/1 258/16/1 261/16/1
f 263/16/1 260/16/1 259/16/1
f 264/16/1 260/16/1 263/16/1
f 265/16/1 263/16/1 262/16/1
f 266/16/1 263/16/1 265/16/1
f 277/12/1 268/12/1 267/12/1
f 278/12/1 268/12/1 277/12/1
f 279/12/1 268/12/1 278/12/1
f 280/12/1 270/12/1 269/12/1
f 281/12/1 270/12/1 280/12/1
f 282/12/1 270/12/1 281/12/1
f 284/13/1 272/13/1 271/13/1
f 285/13/1 272/13/1 284/13/1
f 286/13/1 274/13/1 273/13/1
f 287/13/1 274/13/1 286/13/1
f 289/9/1 276/9/1 275/9/1
f 290/9/1 276/9/1 289/9/1
f 291/9/1 276/9/1 290/9/1
f 292/9/1 276/9/1 291/9/1
f 293/8/1 278/8/1 277/8/1
f 294/8/1 278/8/1 293/8/1
f 295/8/1 282/8/1 281/8/1
f 296/8/1 282/8/1 295/8/1
f 298/14/1 284/14/1 283/14/1
f 299/14/1 284/14/1 298/14/1
f 300/14/1 288/14/1 287/14/1
f 301/14/1 288/14/1 300/14/1
f 303/14/1 298/14/1 297/14/1
f 304/14/1 298/14/1 303/14/1
f 307/14/1 302/14/1 301/14/1
f 308/14/1 302/14/1 307/14/1
f 310/13/1 305/13/1 304/13/1
f 311/13/1 305/13/1 310/13/1
f 312/13/1 307/13/1 306/13/1
f 313/13/1 307/13/1 312/13/1
f 315/14/1 310/14/1 309/14/1
f 316/14/1 310/14/1 315/14/1
f 319/14/1 314/14/1 313/14/1
f 320/14/1 314/14/1 319/14/1
f 321/17/1 318/17/1 317/17/1
f 322/17/1 318/17/1 321/17/1
f 328/13/1 324/13/1 323/13/1
f 329/13/1 324/13/1 328/13/1
f 330/13/1 326/13/1 325/13/1
f 331/13/1 326/13/1 330/13/1
f 333/14/1 328/14/1 327/14/1
f 334/14/1 328/14/1 333/14/1
f 335/14/1 332/14/1 331/14/1
f 336/14/1 332/14/1 335/14/1
f 339/14/1 338/14/1 337/14/1
f 340/14/1 338/14/1 339/14/1
f 343/15/1 342/15/1 341/15/1
f 344/15/1 342/15/1 343/15/1
f 345/15/1 342/15/1 344/15/1
f 346/16/1 344/16/1 343/16/1
f 347/16/1 346/16/1 343/16/1
f 348/16/1 346/16/1 347/16/1
f 353/14/1 350/14/1 349/14/1
f 354/14/1 352/14/1 351/14/1
f 355/14/1 352/14/1 354/14/1
f 356/14/1 350/14/1 353/14/1
f 357/14/1 350/14/1 356/14/1
f 359/13/1 355/13/1 354/13/1
f 360/13/1 355/13/1 359/13/1
f 361/13/1 357/13/1 356/13/1
f 362/13/1 357/13/1 361/13/1
f 364/14/1 359/14/1 358/14/1
f 365/14/1 359/14/1 364/14/1
f 366/14/1 363/14/1 362/14/1
f 367/14/1 363/14/1 366/14/1
f 371/15/1 369/15/1 368/15/1
f 372/15/1 369/15/1 371/15/1
f 374/15/1 371/15/1 370/15/1
f 375/15/1 371/15/1 374/15/1
f 376/15/1 373/15/1 372/15/1
f 377/15/1 373/15/1 376/15/1
f 378/16/1 375/16/1 374/16/1
f 379/16/1 375/16/1 378/16/1
f 381/16/1 380/16/1 379/16/1
f 382/16/1 380/16/1 381/16/1
f 385/14/1 384/14/1 383/14/1
f 386/14/1 384/14/1 385/14/1
f 388/13/1 386/13/1 385/13/1
f 389/13/1 386/13/1 388/13/1
f 391/17/1 388/17/1 387/17/1
f 392/14/1 390/14/1 389/14/1
f 393/14/1 390/14/1 392/14/1
f 394/17/1 388/17/1 391/17/1
f 395/17/1 388/17/1 394/17/1
f 398/14/1 397/14/1 396/14/1
f 399/14/1 397/14/1 398/14/1
f 404/11/1 401/11/1 400/11/1
f 405/11/1 401/11/1 404/11/1
f 406/11/1 403/11/1 402/11/1
f 407/11/1 403/11/1 406/11/1
f 414/9/1 409/9/1 408/9/1
f 415/9/1 409/9/1 414/9/1
f 418/9/1 411/9/1 410/9/1
f 419/9/1 411/9/1 418/9/1
f 422/9/1 413/9/1 412/9/1
f 423/9/1 413/9/1 422/9/1
f 424/10/1 416/10/1 415/10/1
f 424/10/1 415/10/1 414/10/1
f 425/10/1 416/10/1 424/10/1
f 426/10/1 420/10/1 419/10/1
f 426/10/1 418/10/1 417/10/1
f 426/10/1 419/10/1 418/10/1
f 427/10/1 420/10/1 426/10/1
f 428/10/1 423/10/1 422/10/1
f 428/10/1 422/10/1 421/10/1
f 429/10/1 423/10/1 428/10/1
f 430/18/1 425/18/1 424/18/1
f 431/18/1 425/18/1 430/18/1
f 432/18/1 427/18/1 426/18/1
f 433/18/1 427/18/1 432/18/1
f 434/18/1 429/18/1 428/18/1
f 435/18/1 429/18/1 434/18/1
f 444/3/1 437/3/1 436/3/1
f 445/3/1 437/3/1 444/3/1
f 446/3/1 443/3/1 442/3/1
f 447/3/1 443/3/1 446/3/1
f 448/3/1 444/3/1 436/3/1
f 449/3/1 437/3/1 445/3/1
f 450/3/1 446/3/1 442/3/1
f 451/3/1 443/3/1 447/3/1
f 452/3/1 448/3/1 436/3/1
f 452/3/1 449/3/1 448/3/1
f 453/3/1 437/3/1 449/3/1
f 453/3/1 449/3/1 452/3/1
f 454/3/1 439/3/1 438/3/1
f 455/3/1 439/3/1 454/3/1
f 456/3/1 441/3/1 440/3/1
f 457/3/1 441/3/1 456/3/1
f 458/3/1 451/3/1 450/3/1
f 458/3/1 450/3/1 442/3/1
f 459/3/1 443/3/1 451/3/1
f 459/3/1 451/3/1 458/3/1
f 464/11/1 461/11/1 460/11/1
f 465/11/1 461/11/1 464/11/1
f 466/11/1 463/11/1 462/11/1
f 467/11/1 463/11/1 466/11/1
f 474/4/1 469/4/1 468/4/1
f 475/4/1 469/4/1 474/4/1
f 476/4/1 471/4/1 470/4/1
f 477/4/1 471/4/1 476/4/1
f 478/4/1 473/4/1 472/4/1
f 479/4/1 473/4/1 478/4/1
f 480/11/2 481/11/2 488/11/2
f 488/11/2 481/11/2 489/11/2
f 482/11/2 483/11/2 490/11/2
f 490/11/2 483/11/2 491/11/2
f 484/11/2 485/11/2 492/11/2
f 492/11/2 485/11/2 493/11/2
f 486/11/2 487/11/2 494/11/2
f 494/11/2 487/11/2 495/11/2
f 496/3/2 497/3/2 500/3/2
f 500/3/2 497/3/2 501/3/2
f 498/3/2 499/3/2 502/3/2
f 502/3/2 499/3/2 503/3/2
f 496/3/2 500/3/2 504/3/2
f 501/3/2 497/3/2 505/3/2
f 498/3/2 502/3/2 506/3/2
f 503/3/2 499/3/2 507/3/2
f 496/3/2 504/3/2 508/3/2
f 504/3/2 505/3/2 508/3/2
f 505/3/2 497/3/2 509/3/2
f 508/3/2 505/3/2 509/3/2
f 506/3/2 507/3/2 510/3/2
f 498/3/2 506/3/2 510/3/2
f 507/3/2 499/3/2 511/3/2
f 510/3/2 507/3/2 511/3/2
f 512/9/2 513/9/2 514/9/2
f 514/9/2 513/9/2 515/9/2
f 516/9/2 517/9/2 520/9/2
f 518/9/2 519/9/2 520/9/2
f 517/9/2 518/9/2 520/9/2
f 520/9/2 519/9/2 521/9/2
f 522/12/2 523/12/2 526/12/2
f 526/12/2 523/12/2 527/12/2
f 527/12/2 523/12/2 528/12/2
f 524/12/2 525/12/2 529/12/2
f 529/12/2 525/12/2 530/12/2
f 530/12/2 525/12/2 531/12/2
f 526/8/2 527/8/2 532/8/2
f 532/8/2 527/8/2 533/8/2
f 530/8/2 531/8/2 534/8/2
f 534/8/2 531/8/2 535/8/2
f 536/2/2 537/2/2 538/2/2
f 538/2/2 537/2/2 539/2/2
f 540/9/2 541/9/2 546/9/2
f 542/2/2 543/2/2 547/2/2
f 546/9/2 541/9/2 547/9/2
f 541/2/2 542/2/2 547/2/2
f 543/2/2 544/2/2 547/2/2
f 544/9/2 545/9/2 548/9/2
f 547/2/2 544/2/2 548/2/2
f 548/9/2 545/9/2 549/9/2
f 550/9/2 551/9/2 556/9/2
f 551/2/2 552/2/2 557/2/2
f 556/9/2 551/9/2 557/9/2
f 552/6/2 553/6/2 558/6/2
f 557/2/2 552/2/2 558/2/2
f 553/2/2 554/2/2 559/2/2
f 558/6/2 553/6/2 559/6/2
f 554/9/2 555/9/2 560/9/2
f 559/2/2 554/2/2 560/2/2
f 560/9/2 555/9/2 561/9/2
f 562/7/2 563/7/2 565/7/2
f 563/8/2 564/8/2 566/8/2
f 565/7/2 563/7/2 566/7/2
f 566/8/2 564/8/2 567/8/2
f 570/9/2 571/9/2 578/9/2
f 571/2/2 572/2/2 579/2/2
f 578/9/2 571/9/2 579/9/2
f 572/2/2 573/2/2 579/2/2
f 575/2/2 576/2/2 579/2/2
f 574/2/2 575/2/2 579/2/2
f 573/2/2 574/2/2 579/2/2
f 576/9/2 577/9/2 580/9/2
f 579/2/2 576/2/2 580/2/2
f 580/9/2 577/9/2 581/9/2
f 568/8/2 569/8/2 582/8/2
f 582/8/2 569/8/2 583/8/2
f 584/9/2 585/9/2 594/9/2
f 585/2/2 586/2/2 595/2/2
f 594/9/2 585/9/2 595/9/2
f 586/6/2 587/6/2 596/6/2
f 595/2/2 586/2/2 596/2/2
f 587/2/2 588/2/2 597/2/2
f 596/6/2 587/6/2 597/6/2
f 588/6/2 589/6/2 598/6/2
f 597/2/2 588/2/2 598/2/2
f 589/2/2 590/2/2 599/2/2
f 598/6/2 589/6/2 599/6/2
f 590/9/2 591/9/2 600/9/2
f 599/2/2 590/2/2 600/2/2
f 600/9/2 591/9/2 601/9/2
f 592/7/2 593/7/2 602/7/2
f 602/7/2 593/7/2 603/7/2
f 603/7/2 593/7/2 604/7/2
f 607/9/2 608/9/2 613/9/2
f 608/2/2 609/2/2 614/2/2
f 613/9/2 608/9/2 614/9/2
f 609/2/2 610/2/2 614/2/2
f 610/2/2 611/2/2 614/2/2
f 611/9/2 612/9/2 615/9/2
f 614/2/2 611/2/2 615/2/2
f 615/9/2 612/9/2 616/9/2
f 605/7/2 606/7/2 617/7/2
f 617/7/2 606/7/2 618/7/2
f 619/14/2 620/14/2 621/14/2
f 621/14/2 620/14/2 622/14/2
f 623/8/2 624/8/2 627/8/2
f 627/8/2 624/8/2 628/8/2
f 625/8/2 626/8/2 637/8/2
f 637/8/2 626/8/2 638/8/2
f 631/9/2 632/9/2 639/9/2
f 632/2/2 633/2/2 640/2/2
f 639/9/2 632/9/2 640/9/2
f 633/6/2 634/6/2 641/6/2
f 640/2/2 633/2/2 641/2/2
f 634/2/2 635/2/2 642/2/2
f 641/6/2 634/6/2 642/6/2
f 635/9/2 636/9/2 643/9/2
f 642/2/2 635/2/2 643/2/2
f 643/9/2 636/9/2 644/9/2
f 629/14/2 630/14/2 647/14/2
f 647/14/2 630/14/2 648/14/2
f 645/8/2 646/8/2 649/8/2
f 649/8/2 646/8/2 650/8/2
f 647/13/2 648/13/2 652/13/2
f 652/13/2 648/13/2 653/13/2
f 651/14/2 652/14/2 656/14/2
f 656/14/2 652/14/2 657/14/2
f 654/8/2 655/8/2 658/8/2
f 658/8/2 655/8/2 659/8/2
f 660/8/2 661/8/2 662/8/2
f 662/8/2 661/8/2 663/8/2
f 664/9/2 665/9/2 676/9/2
f 665/2/2 666/2/2 677/2/2
f 676/9/2 665/9/2 677/9/2
f 666/2/2 667/2/2 677/2/2
f 667/2/2 668/2/2 677/2/2
f 668/9/2 669/9/2 678/9/2
f 677/2/2 668/2/2 678/2/2
f 678/9/2 669/9/2 679/9/2
f 680/8/2 681/8/2 682/8/2
f 670/8/2 671/8/2 685/8/2
f 685/8/2 671/8/2 686/8/2
f 672/14/2 673/14/2 687/14/2
f 687/14/2 673/14/2 688/14/2
f 674/14/2 675/14/2 689/14/2
f 689/14/2 675/14/2 690/14/2
f 682/8/2 683/8/2 691/8/2
f 684/8/2 685/8/2 692/8/2
f 687/13/2 688/13/2 694/13/2
f 694/13/2 688/13/2 695/13/2
f 689/13/2 690/13/2 696/13/2
f 696/13/2 690/13/2 697/13/2
f 691/8/2 692/8/2 699/8/2
f 692/8/2 685/8/2 700/8/2
f 699/8/2 692/8/2 700/8/2
f 693/14/2 694/14/2 701/14/2
f 701/14/2 694/14/2 702/14/2
f 697/14/2 698/14/2 703/14/2
f 696/17/2 697/17/2 703/17/2
f 703/14/2 698/14/2 704/14/2
f 680/8/2 682/8/2 705/8/2
f 682/8/2 691/8/2 705/8/2
f 691/8/2 699/8/2 705/8/2
f 705/8/2 699/8/2 706/8/2
f 706/8/2 699/8/2 707/8/2
f 707/8/2 699/8/2 708/8/2
f 708/8/2 699/8/2 709/8/2
f 696/17/2 703/17/2 710/17/2
f 710/17/2 703/17/2 711/17/2
f 708/7/2 709/7/2 712/7/2
f 709/8/2 699/8/2 713/8/2
f 712/7/2 709/7/2 713/7/2
f 713/8/2 699/8/2 714/8/2
f 715/12/2 716/12/2 719/12/2
f 719/12/2 716/12/2 720/12/2
f 717/12/2 718/12/2 721/12/2
f 721/12/2 718/12/2 722/12/2
f 719/8/2 720/8/2 729/8/2
f 721/8/2 722/8/2 730/8/2
f 723/9/2 724/9/2 731/9/2
f 724/2/2 725/2/2 732/2/2
f 731/9/2 724/9/2 732/9/2
f 725/6/2 726/6/2 733/6/2
f 732/2/2 725/2/2 733/2/2
f 726/2/2 727/2/2 734/2/2
f 733/6/2 726/6/2 734/6/2
f 727/9/2 728/9/2 735/9/2
f 734/2/2 727/2/2 735/2/2
f 735/9/2 728/9/2 736/9/2
f 719/8/2 729/8/2 737/8/2
f 729/8/2 730/8/2 737/8/2
f 737/8/2 730/8/2 738/8/2
f 730/8/2 722/8/2 739/8/2
f 738/8/2 730/8/2 739/8/2
f 739/8/2 722/8/2 740/8/2
f 738/8/2 739/8/2 741/8/2
f 741/8/2 739/8/2 742/8/2
f 743/15/2 744/15/2 745/15/2
f 745/15/2 744/15/2 746/15/2
f 746/15/2 747/15/2 748/15/2
f 748/15/2 747/15/2 749/15/2
f 750/16/2 751/16/2 752/16/2
f 752/16/2 751/16/2 753/16/2
f 748/16/2 749/16/2 754/16/2
f 754/16/2 749/16/2 755/16/2
f 753/16/2 754/16/2 756/16/2
f 756/16/2 754/16/2 757/16/2
f 758/13/2 759/13/2 765/13/2
f 765/13/2 759/13/2 766/13/2
f 760/13/2 761/13/2 767/13/2
f 767/13/2 761/13/2 768/13/2
f 762/9/2 763/9/2 770/9/2
f 770/9/2 763/9/2 771/9/2
f 764/14/2 765/14/2 772/14/2
f 772/14/2 765/14/2 773/14/2
f 768/14/2 769/14/2 774/14/2
f 774/14/2 769/14/2 775/14/2
f 776/15/2 777/15/2 778/15/2
f 778/15/2 777/15/2 779/15/2
f 778/16/2 779/16/2 781/16/2
f 780/16/2 781/16/2 782/16/2
f 781/16/2 779/16/2 783/16/2
f 782/16/2 781/16/2 783/16/2
f 784/13/2 785/13/2 789/13/2
f 789/13/2 785/13/2 790/13/2
f 786/13/2 787/13/2 791/13/2
f 791/13/2 787/13/2 792/13/2
f 788/14/2 789/14/2 795/14/2
f 795/14/2 789/14/2 796/14/2
f 792/14/2 793/14/2 797/14/2
f 797/14/2 793/14/2 798/14/2
f 794/14/2 795/14/2 800/14/2
f 800/14/2 795/14/2 801/14/2
f 798/14/2 799/14/2 804/14/2
f 804/14/2 799/14/2 805/14/2
f 801/13/2 802/13/2 807/13/2
f 807/13/2 802/13/2 808/13/2
f 803/13/2 804/13/2 809/13/2
f 809/13/2 804/13/2 810/13/2
f 806/14/2 807/14/2 812/14/2
f 812/14/2 807/14/2 813/14/2
f 810/14/2 811/14/2 814/14/2
f 814/14/2 811/14/2 815/14/2
f 816/13/2 817/13/2 819/13/2
f 819/13/2 817/13/2 820/13/2
f 818/14/2 819/14/2 823/14/2
f 823/14/2 819/14/2 824/14/2
f 820/14/2 821/14/2 825/14/2
f 825/14/2 821/14/2 826/14/2
f 822/14/2 823/14/2 828/14/2
f 828/14/2 823/14/2 829/14/2
f 826/14/2 827/14/2 830/14/2
f 830/14/2 827/14/2 831/14/2
f 829/13/2 830/13/2 833/13/2
f 833/13/2 830/13/2 834/13/2
f 832/14/2 833/14/2 836/14/2
f 836/14/2 833/14/2 837/14/2
f 834/14/2 835/14/2 839/14/2
f 839/14/2 835/14/2 840/14/2
f 837/17/2 838/17/2 841/17/2
f 841/17/2 838/17/2 842/17/2
f 843/14/2 844/14/2 846/14/2
f 846/14/2 844/14/2 847/14/2
f 845/14/2 846/14/2 849/14/2
f 847/14/2 848/14/2 849/14/2
f 846/14/2 847/14/2 849/14/2
f 849/14/2 848/14/2 850/14/2
f 851/14/2 852/14/2 853/14/2
f 853/14/2 852/14/2 854/14/2
f 855/15/2 856/15/2 858/15/2
f 858/15/2 856/15/2 859/15/2
f 857/15/2 858/15/2 861/15/2
f 861/15/2 858/15/2 862/15/2
f 859/15/2 860/15/2 863/15/2
f 863/15/2 860/15/2 864/15/2
f 861/16/2 862/16/2 865/16/2
f 865/16/2 862/16/2 866/16/2
f 863/16/2 864/16/2 867/16/2
f 867/16/2 864/16/2 868/16/2
f 866/16/2 867/16/2 869/16/2
f 869/16/2 867/16/2 870/16/2
f 871/15/2 872/15/2 873/15/2
f 873/15/2 872/15/2 874/15/2
f 873/16/2 874/16/2 875/16/2
f 875/16/2 874/16/2 876/16/2
f 877/18/2 878/18/2 883/18/2
f 883/18/2 878/18/2 884/18/2
f 879/18/2 880/18/2 885/18/2
f 885/18/2 880/18/2 886/18/2
f 881/18/2 882/18/2 887/18/2
f 887/18/2 882/18/2 888/18/2
f 889/11/2 890/11/2 897/11/2
f 891/11/2 892/11/2 898/11/2
f 898/11/2 892/11/2 899/11/2
f 893/11/2 894/11/2 900/11/2
f 900/11/2 894/11/2 901/11/2
f 895/11/2 896/11/2 902/11/2
f 900/11/2 901/11/2 903/11/2
f 901/11/2 902/11/2 903/11/2
f 889/11/2 897/11/2 903/11/2
f 898/11/2 899/11/2 903/11/2
f 899/11/2 900/11/2 903/11/2
f 897/11/2 898/11/2 903/11/2
f 902/11/2 896/11/2 904/11/2
f 903/11/2 902/11/2 904/11/2
f 905/4/2 906/4/2 911/4/2
f 911/4/2 906/4/2 912/4/2
f 907/4/2 908/4/2 913/4/2
f 913/4/2 908/4/2 914/4/2
f 909/4/2 910/4/2 915/4/2
f 915/4/2 910/4/2 916/4/2
f 917/10/2 918/10/2 919/10/2
f 919/10/2 918/10/2 920/10/2
f 921/10/2 922/10/2 923/10/2
f 923/10/2 922/10/2 924/10/2
f 925/3/2 926/3/2 933/3/2
f 933/3/2 926/3/2 934/3/2
f 927/3/2 928/3/2 935/3/2
f 935/3/2 928/3/2 936/3/2
f 929/3/2 930/3/2 937/3/2
f 937/3/2 930/3/2 938/3/2
f 931/3/2 932/3/2 939/3/2
f 939/3/2 932/3/2 940/3/2
f 941/9/2 942/9/2 943/9/2
f 943/9/2 942/9/2 944/9/2
f 945/9/2 946/9/2 947/9/2
f 947/9/2 946/9/2 948/9/2
f 953/9/3 950/9/3 949/9/3
f 954/9/3 950/9/3 953/9/3
f 955/9/3 952/9/3 951/9/3
f 956/9/3 952/9/3 955/9/3
f 963/3/3 962/3/3 961/3/3
f 964/3/3 962/3/3 963/3/3
f 967/10/3 960/10/3 959/10/3
f 968/10/3 960/10/3 967/10/3
f 969/10/3 958/10/3 957/10/3
f 970/10/3 958/10/3 969/10/3
f 971/3/3 966/3/3 965/3/3
f 972/3/3 966/3/3 971/3/3
f 975/11/3 974/11/3 973/11/3
f 976/11/3 974/11/3 975/11/3
f 979/4/3 978/4/3 977/4/3
f 980/4/3 978/4/3 979/4/3
f 982/11/3 974/11/3 976/11/3
f 983/11/3 982/11/3 981/11/3
f 984/11/3 974/11/3 982/11/3
f 984/11/3 982/11/3 983/11/3
f 987/18/3 986/18/3 985/18/3
f 988/18/3 986/18/3 987/18/3
f 991/7/3 990/7/3 989/7/3
f 992/7/3 990/7/3 991/7/3
f 996/8/3 994/8/3 993/8/3
f 997/8/3 994/8/3 996/8/3
f 997/8/3 996/8/3 995/8/3
f 998/8/3 994/8/3 997/8/3
f 999/8/3 997/8/3 995/8/3
f 1000/8/3 994/8/3 998/8/3
f 1001/8/3 999/8/3 995/8/3
f 1001/8/3 1000/8/3 999/8/3
f 1002/8/3 1000/8/3 1001/8/3
f 1003/8/3 1000/8/3 1002/8/3
f 1004/8/3 994/8/3 1000/8/3
f 1004/8/3 1000/8/3 1003/8/3
f 1007/8/3 1006/8/3 1005/8/3
f 1008/8/3 1006/8/3 1007/8/3
f 1012/8/3 1011/8/3 1010/8/3
f 1013/8/3 1011/8/3 1012/8/3
f 1016/12/3 1010/12/3 1009/12/3
f 1017/8/3 1012/8/3 1010/8/3
f 1017/12/3 1010/12/3 1016/12/3
f 1018/8/3 1012/8/3 1017/8/3
f 1019/8/3 1012/8/3 1018/8/3
f 1020/8/3 1012/8/3 1019/8/3
f 1021/7/3 1015/7/3 1014/7/3
f 1022/7/3 1015/7/3 1021/7/3
f 1027/8/3 1019/8/3 1018/8/3
f 1028/8/3 1019/8/3 1027/8/3
f 1030/8/3 1027/8/3 1026/8/3
f 1030/8/3 1029/8/3 1028/8/3
f 1030/8/3 1028/8/3 1027/8/3
f 1032/7/3 1024/7/3 1023/7/3
f 1033/7/3 1024/7/3 1032/7/3
f 1034/12/3 1026/12/3 1025/12/3
f 1035/8/3 1031/8/3 1030/8/3
f 1035/12/3 1026/12/3 1034/12/3
f 1035/8/3 1030/8/3 1026/8/3
f 1036/8/3 1031/8/3 1035/8/3
f 1039/8/3 1038/8/3 1037/8/3
f 1040/8/3 1038/8/3 1039/8/3
f 1043/8/3 1042/8/3 1041/8/3
f 1044/8/3 1042/8/3 1043/8/3
f 1047/8/3 1046/8/3 1045/8/3
f 1048/8/3 1046/8/3 1047/8/3
f 1052/12/3 1050/12/3 1049/12/3
f 1052/8/3 1051/8/3 1050/8/3
f 1053/8/3 1051/8/3 1052/8/3
f 1054/12/3 1052/12/3 1049/12/3
f 1055/12/3 1052/12/3 1054/12/3
f 1058/8/3 1057/8/3 1056/8/3
f 1059/8/3 1057/8/3 1058/8/3
f 1062/12/3 1061/12/3 1060/12/3
f 1064/12/3 1062/12/3 1060/12/3
f 1065/8/3 1063/8/3 1062/8/3
f 1065/12/3 1062/12/3 1064/12/3
f 1066/8/3 1063/8/3 1065/8/3
f 1069/7/3 1068/7/3 1067/7/3
f 1070/7/3 1068/7/3 1069/7/3
f 1073/9/3 1072/9/3 1071/9/3
f 1074/9/3 1072/9/3 1073/9/3
f 1077/3/3 1076/3/3 1075/3/3
f 1078/3/3 1076/3/3 1077/3/3
f 1079/3/3 1077/3/3 1075/3/3
f 1080/3/3 1076/3/3 1078/3/3
f 1081/3/3 1079/3/3 1075/3/3
f 1081/3/3 1080/3/3 1079/3/3
f 1082/3/3 1076/3/3 1080/3/3
f 1082/3/3 1080/3/3 1081/3/3
f 1085/10/3 1084/10/3 1083/10/3
f 1087/10/3 1085/10/3 1083/10/3
f 1088/11/3 1086/11/3 1085/11/3
f 1088/10/3 1085/10/3 1087/10/3
f 1089/11/3 1086/11/3 1088/11/3
f 1092/11/3 1091/11/3 1090/11/3
f 1093/11/3 1091/11/3 1092/11/3
f 1101/14/3 1097/14/3 1096/14/3
f 1102/14/3 1101/14/3 1100/14/3
f 1103/14/3 1097/14/3 1101/14/3
f 1103/14/3 1101/14/3 1102/14/3
f 1107/14/3 1097/14/3 1103/14/3
f 1108/14/3 1097/14/3 1107/14/3
f 1109/14/3 1099/14/3 1098/14/3
f 1110/14/3 1099/14/3 1109/14/3
f 1111/15/3 1105/15/3 1104/15/3
f 1112/16/3 1106/16/3 1105/16/3
f 1112/15/3 1105/15/3 1111/15/3
f 1113/16/3 1106/16/3 1112/16/3
f 1114/9/3 1095/9/3 1094/9/3
f 1115/9/3 1095/9/3 1114/9/3
f 1118/3/3 1117/3/3 1116/3/3
f 1119/3/3 1117/3/3 1118/3/3
f 1120/3/3 1118/3/3 1116/3/3
f 1121/3/3 1117/3/3 1119/3/3
f 1122/3/3 1120/3/3 1116/3/3
f 1122/3/3 1121/3/3 1120/3/3
f 1123/3/3 1117/3/3 1121/3/3
f 1123/3/3 1121/3/3 1122/3/3
f 1126/10/3 1125/10/3 1124/10/3
f 1133/14/3 1129/14/3 1128/14/3
f 1134/14/3 1129/14/3 1133/14/3
f 1135/14/3 1131/14/3 1130/14/3
f 1136/14/3 1131/14/3 1135/14/3
f 1138/14/3 1133/14/3 1132/14/3
f 1139/14/3 1133/14/3 1138/14/3
f 1143/13/3 1138/13/3 1137/13/3
f 1144/13/3 1138/13/3 1143/13/3
f 1147/15/3 1141/15/3 1140/15/3
f 1148/16/3 1142/16/3 1141/16/3
f 1148/15/3 1141/15/3 1147/15/3
f 1149/16/3 1142/16/3 1148/16/3
f 1151/14/3 1145/14/3 1144/14/3
f 1152/14/3 1145/14/3 1151/14/3
f 1153/13/3 1135/13/3 1134/13/3
f 1154/13/3 1135/13/3 1153/13/3
f 1156/14/3 1153/14/3 1152/14/3
f 1157/14/3 1153/14/3 1156/14/3
f 1158/14/3 1155/14/3 1154/14/3
f 1159/14/3 1155/14/3 1158/14/3
f 1160/15/3 1147/15/3 1146/15/3
f 1161/15/3 1147/15/3 1160/15/3
f 1163/16/3 1150/16/3 1149/16/3
f 1164/16/3 1150/16/3 1163/16/3
f 1165/15/3 1162/15/3 1161/15/3
f 1166/16/3 1163/16/3 1162/16/3
f 1166/15/3 1162/15/3 1165/15/3
f 1167/16/3 1163/16/3 1166/16/3
f 1168/10/3 1126/10/3 1124/10/3
f 1169/11/3 1127/11/3 1126/11/3
f 1169/10/3 1126/10/3 1168/10/3
f 1170/11/3 1127/11/3 1169/11/3
f 1173/11/3 1172/11/3 1171/11/3
f 1174/11/3 1172/11/3 1173/11/3
f 1180/14/3 1176/14/3 1175/14/3
f 1181/14/3 1176/14/3 1180/14/3
f 1182/14/3 1178/14/3 1177/14/3
f 1183/14/3 1178/14/3 1182/14/3
f 1185/14/3 1180/14/3 1179/14/3
f 1186/14/3 1180/14/3 1185/14/3
f 1187/13/3 1182/13/3 1181/13/3
f 1188/13/3 1182/13/3 1187/13/3
f 1189/13/3 1185/13/3 1184/13/3
f 1190/13/3 1185/13/3 1189/13/3
f 1193/13/3 1192/13/3 1191/13/3
f 1194/13/3 1192/13/3 1193/13/3
f 1200/14/3 1195/14/3 1194/14/3
f 1201/14/3 1195/14/3 1200/14/3
f 1202/13/3 1197/13/3 1196/13/3
f 1203/13/3 1197/13/3 1202/13/3
f 1204/17/3 1199/17/3 1198/17/3
f 1205/17/3 1199/17/3 1204/17/3
f 1206/14/3 1202/14/3 1201/14/3
f 1207/14/3 1202/14/3 1206/14/3
f 1208/14/3 1204/14/3 1203/14/3
f 1209/14/3 1204/14/3 1208/14/3
f 1213/14/3 1211/14/3 1210/14/3
f 1214/14/3 1211/14/3 1213/14/3
f 1218/13/3 1213/13/3 1212/13/3
f 1219/13/3 1213/13/3 1218/13/3
f 1220/15/3 1216/15/3 1215/15/3
f 1221/16/3 1217/16/3 1216/16/3
f 1221/15/3 1216/15/3 1220/15/3
f 1222/16/3 1217/16/3 1221/16/3
f 1223/16/3 1217/16/3 1222/16/3
f 1226/13/3 1225/13/3 1224/13/3
f 1227/13/3 1225/13/3 1226/13/3
f 1229/14/3 1228/14/3 1227/14/3
f 1230/14/3 1228/14/3 1229/14/3
f 1235/15/3 1232/15/3 1231/15/3
f 1236/16/3 1233/16/3 1232/16/3
f 1236/15/3 1232/15/3 1235/15/3
f 1237/16/3 1233/16/3 1236/16/3
f 1239/15/3 1235/15/3 1234/15/3
f 1240/15/3 1235/15/3 1239/15/3
f 1242/16/3 1238/16/3 1237/16/3
f 1243/16/3 1238/16/3 1242/16/3
f 1244/16/3 1242/16/3 1241/16/3
f 1245/16/3 1242/16/3 1244/16/3
f 1250/14/3 1247/14/3 1246/14/3
f 1251/14/3 1247/14/3 1250/14/3
f 1253/14/3 1249/14/3 1248/14/3
f 1254/13/3 1250/13/3 1249/13/3
f 1254/14/3 1249/14/3 1253/14/3
f 1255/17/3 1252/17/3 1251/17/3
f 1255/13/3 1250/13/3 1254/13/3
f 1255/17/3 1251/17/3 1250/17/3
f 1256/17/3 1252/17/3 1255/17/3
f 1260/14/3 1258/14/3 1257/14/3
f 1261/13/3 1259/13/3 1258/13/3
f 1261/14/3 1258/14/3 1260/14/3
f 1262/13/3 1259/13/3 1261/13/3
f 1264/14/3 1263/14/3 1262/14/3
f 1265/14/3 1263/14/3 1264/14/3
f 1269/14/3 1267/14/3 1266/14/3
f 1270/13/3 1268/13/3 1267/13/3
f 1270/14/3 1267/14/3 1269/14/3
f 1271/13/3 1268/13/3 1270/13/3
f 1273/14/3 1272/14/3 1271/14/3
f 1274/14/3 1272/14/3 1273/14/3
f 1277/14/3 1276/14/3 1275/14/3
f 1278/14/3 1276/14/3 1277/14/3
f 1282/9/3 1280/9/3 1279/9/3
f 1283/9/3 1280/9/3 1282/9/3
f 1284/9/3 1280/9/3 1283/9/3
f 1286/9/3 1282/9/3 1281/9/3
f 1286/9/3 1283/9/3 1282/9/3
f 1287/9/3 1283/9/3 1286/9/3
f 1288/9/3 1283/9/3 1287/9/3
f 1290/9/3 1286/9/3 1285/9/3
f 1290/9/3 1287/9/3 1286/9/3
f 1291/9/3 1287/9/3 1290/9/3
f 1292/9/3 1287/9/3 1291/9/3
f 1294/9/3 1290/9/3 1289/9/3
f 1294/9/3 1291/9/3 1290/9/3
f 1295/9/3 1291/9/3 1294/9/3
f 1296/9/3 1291/9/3 1295/9/3
f 1298/9/3 1294/9/3 1293/9/3
f 1298/9/3 1295/9/3 1294/9/3
f 1299/9/3 1295/9/3 1298/9/3
f 1300/9/3 1295/9/3 1299/9/3
f 1302/9/3 1298/9/3 1297/9/3
f 1302/9/3 1299/9/3 1298/9/3
f 1303/9/3 1299/9/3 1302/9/3
f 1304/9/3 1299/9/3 1303/9/3
f 1306/9/3 1302/9/3 1301/9/3
f 1306/9/3 1303/9/3 1302/9/3
f 1307/9/3 1303/9/3 1306/9/3
f 1308/9/3 1303/9/3 1307/9/3
f 1309/9/3 1306/9/3 1305/9/3
f 1309/9/3 1307/9/3 1306/9/3
f 1310/9/3 1307/9/3 1309/9/3
f 1311/9/3 1309/9/3 1305/9/3
f 1312/9/3 1309/9/3 1311/9/3
f 1313/9/3 1311/9/3 1305/9/3
f 1314/9/3 1311/9/3 1313/9/3
f 1317/9/3 1316/9/3 1315/9/3
f 1318/9/3 1316/9/3 1317/9/3
f 1320/2/3 1319/2/3 1318/2/3
f 1321/2/3 1319/2/3 1320/2/3
f 1323/2/3 1322/2/3 1321/2/3
f 1324/2/3 1322/2/3 1323/2/3
f 1327/9/3 1326/9/3 1325/9/3
f 1329/10/3 1328/10/3 1327/10/3
f 1331/10/3 1329/10/3 1327/10/3
f 1331/11/3 1330/11/3 1329/11/3
f 1332/11/3 1330/11/3 1331/11/3
f 1333/10/3 1331/10/3 1327/10/3
f 1335/9/3 1327/9/3 1325/9/3
f 1336/10/3 1333/10/3 1327/10/3
f 1336/9/3 1327/9/3 1335/9/3
f 1337/11/3 1334/11/3 1333/11/3
f 1337/10/3 1333/10/3 1336/10/3
f 1338/11/3 1334/11/3 1337/11/3
f 1343/3/3 1340/3/3 1339/3/3
f 1344/3/3 1340/3/3 1343/3/3
f 1345/18/3 1342/18/3 1341/18/3
f 1346/18/3 1342/18/3 1345/18/3
f 1351/3/3 1348/3/3 1347/3/3
f 1352/3/3 1348/3/3 1351/3/3
f 1353/11/3 1350/11/3 1349/11/3
f 1354/11/3 1350/11/3 1353/11/3
f 1355/3/3 1351/3/3 1347/3/3
f 1356/3/3 1348/3/3 1352/3/3
f 1357/3/3 1355/3/3 1347/3/3
f 1357/3/3 1356/3/3 1355/3/3
f 1358/3/3 1348/3/3 1356/3/3
f 1358/3/3 1356/3/3 1357/3/3
f 1361/4/3 1360/4/3 1359/4/3
f 1362/4/3 1361/4/3 1359/4/3
f 1363/4/3 1361/4/3 1362/4/3
f 1366/4/3 1365/4/3 1364/4/3
f 1367/4/3 1365/4/3 1366/4/3
f 1368/4/3 1365/4/3 1367/4/3
f 1369/4/4 1370/4/4 1371/4/4
f 1371/4/4 1370/4/4 1372/4/4
f 1373/3/4 1374/3/4 1377/3/4
f 1377/3/4 1374/3/4 1378/3/4
f 1375/18/4 1376/18/4 1379/18/4
f 1379/18/4 1376/18/4 1380/18/4
f 1381/3/4 1382/3/4 1385/3/4
f 1385/3/4 1382/3/4 1386/3/4
f 1383/11/4 1384/11/4 1387/11/4
f 1387/11/4 1384/11/4 1388/11/4
f 1381/3/4 1385/3/4 1389/3/4
f 1386/3/4 1382/3/4 1390/3/4
f 1381/3/4 1389/3/4 1391/3/4
f 1389/3/4 1390/3/4 1391/3/4
f 1390/3/4 1382/3/4 1392/3/4
f 1391/3/4 1390/3/4 1392/3/4
f 1393/9/4 1394/9/4 1395/9/4
f 1395/10/4 1396/10/4 1397/10/4
f 1395/10/4 1397/10/4 1399/10/4
f 1397/11/4 1398/11/4 1399/11/4
f 1399/11/4 1398/11/4 1400/11/4
f 1395/10/4 1399/10/4 1401/10/4
f 1393/9/4 1395/9/4 1403/9/4
f 1395/10/4 1401/10/4 1404/10/4
f 1403/9/4 1395/9/4 1404/9/4
f 1401/11/4 1402/11/4 1405/11/4
f 1404/10/4 1401/10/4 1405/10/4
f 1405/11/4 1402/11/4 1406/11/4
f 1407/12/4 1408/12/4 1410/12/4
f 1408/8/4 1409/8/4 1410/8/4
f 1410/8/4 1409/8/4 1411/8/4
f 1407/12/4 1410/12/4 1414/12/4
f 1414/12/4 1410/12/4 1415/12/4
f 1412/8/4 1413/8/4 1416/8/4
f 1416/8/4 1413/8/4 1417/8/4
f 1417/8/4 1413/8/4 1418/8/4
f 1418/8/4 1413/8/4 1419/8/4
f 1417/8/4 1418/8/4 1420/8/4
f 1417/8/4 1420/8/4 1425/8/4
f 1420/8/4 1421/8/4 1425/8/4
f 1422/12/4 1423/12/4 1426/12/4
f 1424/8/4 1425/8/4 1428/8/4
f 1425/8/4 1421/8/4 1429/8/4
f 1428/8/4 1425/8/4 1429/8/4
f 1422/12/4 1426/12/4 1430/12/4
f 1426/8/4 1427/8/4 1431/8/4
f 1430/12/4 1426/12/4 1431/12/4
f 1431/8/4 1427/8/4 1432/8/4
f 1433/8/4 1434/8/4 1435/8/4
f 1435/8/4 1434/8/4 1436/8/4
f 1437/8/4 1438/8/4 1439/8/4
f 1439/8/4 1438/8/4 1440/8/4
f 1441/8/4 1442/8/4 1445/8/4
f 1445/8/4 1442/8/4 1446/8/4
f 1443/8/4 1444/8/4 1447/8/4
f 1447/8/4 1444/8/4 1448/8/4
f 1449/8/4 1450/8/4 1451/8/4
f 1451/8/4 1450/8/4 1452/8/4
f 1454/8/4 1455/8/4 1456/8/4
f 1456/8/4 1455/8/4 1457/8/4
f 1453/12/4 1454/12/4 1459/12/4
f 1454/8/4 1456/8/4 1460/8/4
f 1459/12/4 1454/12/4 1460/12/4
f 1460/8/4 1456/8/4 1461/8/4
f 1461/8/4 1456/8/4 1462/8/4
f 1457/8/4 1458/8/4 1463/8/4
f 1463/8/4 1458/8/4 1464/8/4
f 1464/8/4 1458/8/4 1465/8/4
f 1465/8/4 1458/8/4 1466/8/4
f 1467/8/4 1468/8/4 1474/8/4
f 1471/8/4 1472/8/4 1475/8/4
f 1470/8/4 1471/8/4 1475/8/4
f 1473/8/4 1474/8/4 1476/8/4
f 1474/8/4 1468/8/4 1477/8/4
f 1476/8/4 1474/8/4 1477/8/4
f 1469/12/4 1470/12/4 1478/12/4
f 1470/8/4 1475/8/4 1479/8/4
f 1478/12/4 1470/12/4 1479/12/4
f 1475/8/4 1476/8/4 1479/8/4
f 1479/8/4 1476/8/4 1480/8/4
f 1481/8/4 1482/8/4 1484/8/4
f 1484/8/4 1482/8/4 1485/8/4
f 1483/8/4 1484/8/4 1487/8/4
f 1485/8/4 1486/8/4 1487/8/4
f 1484/8/4 1485/8/4 1487/8/4
f 1483/8/4 1487/8/4 1489/8/4
f 1487/7/4 1488/7/4 1489/7/4
f 1489/7/4 1488/7/4 1490/7/4
f 1483/8/4 1489/8/4 1491/8/4
f 1491/8/4 1489/8/4 1492/8/4
f 1492/8/4 1489/8/4 1493/8/4
f 1493/8/4 1489/8/4 1494/8/4
f 1492/8/4 1493/8/4 1495/8/4
f 1495/8/4 1493/8/4 1496/8/4
f 1497/10/4 1498/10/4 1499/10/4
f 1497/10/4 1499/10/4 1501/10/4
f 1499/11/4 1500/11/4 1502/11/4
f 1501/10/4 1499/10/4 1502/10/4
f 1502/11/4 1500/11/4 1503/11/4
f 1504/11/4 1505/11/4 1506/11/4
f 1506/11/4 1505/11/4 1507/11/4
f 1508/9/4 1509/9/4 1510/9/4
f 1510/9/4 1509/9/4 1511/9/4
f 1512/3/4 1513/3/4 1514/3/4
f 1514/3/4 1513/3/4 1515/3/4
f 1512/3/4 1514/3/4 1516/3/4
f 1515/3/4 1513/3/4 1517/3/4
f 1512/3/4 1516/3/4 1518/3/4
f 1516/3/4 1517/3/4 1518/3/4
f 1517/3/4 1513/3/4 1519/3/4
f 1518/3/4 1517/3/4 1519/3/4
f 1520/14/4 1521/14/4 1522/14/4
f 1522/14/4 1521/14/4 1523/14/4
f 1524/10/4 1525/10/4 1526/10/4
f 1528/14/4 1529/14/4 1532/14/4
f 1532/14/4 1529/14/4 1533/14/4
f 1530/14/4 1531/14/4 1534/14/4
f 1534/14/4 1531/14/4 1535/14/4
f 1535/14/4 1531/14/4 1536/14/4
f 1531/13/4 1532/13/4 1537/13/4
f 1536/14/4 1531/14/4 1537/14/4
f 1537/13/4 1532/13/4 1538/13/4
f 1538/14/4 1539/14/4 1540/14/4
f 1540/14/4 1539/14/4 1541/14/4
f 1524/10/4 1526/10/4 1542/10/4
f 1526/11/4 1527/11/4 1543/11/4
f 1542/10/4 1526/10/4 1543/10/4
f 1543/11/4 1527/11/4 1544/11/4
f 1545/11/4 1546/11/4 1547/11/4
f 1547/11/4 1546/11/4 1548/11/4
f 1551/14/4 1552/14/4 1555/14/4
f 1555/14/4 1552/14/4 1556/14/4
f 1553/14/4 1554/14/4 1557/14/4
f 1554/13/4 1555/13/4 1558/13/4
f 1557/14/4 1554/14/4 1558/14/4
f 1558/13/4 1555/13/4 1559/13/4
f 1560/14/4 1561/14/4 1563/14/4
f 1561/13/4 1562/13/4 1564/13/4
f 1563/14/4 1561/14/4 1564/14/4
f 1564/13/4 1562/13/4 1565/13/4
f 1565/17/4 1566/17/4 1567/17/4
f 1567/17/4 1566/17/4 1568/17/4
f 1568/17/4 1566/17/4 1569/17/4
f 1549/9/4 1550/9/4 1570/9/4
f 1570/9/4 1550/9/4 1571/9/4
f 1572/3/4 1573/3/4 1574/3/4
f 1574/3/4 1573/3/4 1575/3/4
f 1572/3/4 1574/3/4 1576/3/4
f 1575/3/4 1573/3/4 1577/3/4
f 1572/3/4 1576/3/4 1578/3/4
f 1576/3/4 1577/3/4 1578/3/4
f 1577/3/4 1573/3/4 1579/3/4
f 1578/3/4 1577/3/4 1579/3/4
f 1580/15/4 1581/15/4 1583/15/4
f 1583/15/4 1581/15/4 1584/15/4
f 1582/15/4 1583/15/4 1587/15/4
f 1587/15/4 1583/15/4 1588/15/4
f 1585/16/4 1586/16/4 1590/16/4
f 1590/16/4 1586/16/4 1591/16/4
f 1588/15/4 1589/15/4 1592/15/4
f 1589/16/4 1590/16/4 1593/16/4
f 1592/15/4 1589/15/4 1593/15/4
f 1593/16/4 1590/16/4 1594/16/4
f 1595/14/4 1596/14/4 1598/14/4
f 1598/14/4 1596/14/4 1599/14/4
f 1597/13/4 1598/13/4 1600/13/4
f 1600/13/4 1598/13/4 1601/13/4
f 1602/14/4 1603/14/4 1604/14/4
f 1604/14/4 1603/14/4 1605/14/4
f 1610/13/4 1611/13/4 1612/13/4
f 1612/13/4 1611/13/4 1613/13/4
f 1613/14/4 1614/14/4 1615/14/4
f 1615/14/4 1614/14/4 1616/14/4
f 1606/15/4 1607/15/4 1617/15/4
f 1608/16/4 1609/16/4 1618/16/4
f 1617/15/4 1607/15/4 1618/15/4
f 1607/16/4 1608/16/4 1618/16/4
f 1618/16/4 1609/16/4 1619/16/4
f 1620/14/4 1621/14/4 1625/14/4
f 1625/14/4 1621/14/4 1626/14/4
f 1622/14/4 1623/14/4 1627/14/4
f 1627/14/4 1623/14/4 1628/14/4
f 1624/14/4 1625/14/4 1630/14/4
f 1630/14/4 1625/14/4 1631/14/4
f 1626/13/4 1627/13/4 1632/13/4
f 1632/13/4 1627/13/4 1633/13/4
f 1629/13/4 1630/13/4 1636/13/4
f 1636/13/4 1630/13/4 1637/13/4
f 1634/17/4 1635/17/4 1638/17/4
f 1638/17/4 1635/17/4 1639/17/4
f 1640/13/4 1641/13/4 1642/13/4
f 1642/13/4 1641/13/4 1643/13/4
f 1643/14/4 1644/14/4 1647/14/4
f 1647/14/4 1644/14/4 1648/14/4
f 1645/13/4 1646/13/4 1649/13/4
f 1649/13/4 1646/13/4 1650/13/4
f 1648/14/4 1649/14/4 1652/14/4
f 1652/14/4 1649/14/4 1653/14/4
f 1650/14/4 1651/14/4 1654/14/4
f 1654/14/4 1651/14/4 1655/14/4
f 1656/15/4 1657/15/4 1664/15/4
f 1657/16/4 1658/16/4 1665/16/4
f 1664/15/4 1657/15/4 1665/15/4
f 1665/16/4 1658/16/4 1666/16/4
f 1659/14/4 1660/14/4 1669/14/4
f 1669/14/4 1660/14/4 1670/14/4
f 1661/14/4 1662/14/4 1671/14/4
f 1671/14/4 1662/14/4 1672/14/4
f 1668/14/4 1669/14/4 1674/14/4
f 1674/14/4 1669/14/4 1675/14/4
f 1663/15/4 1664/15/4 1676/15/4
f 1676/15/4 1664/15/4 1677/15/4
f 1666/16/4 1667/16/4 1679/16/4
f 1679/16/4 1667/16/4 1680/16/4
f 1673/13/4 1674/13/4 1681/13/4
f 1681/13/4 1674/13/4 1682/13/4
f 1677/15/4 1678/15/4 1684/15/4
f 1678/16/4 1679/16/4 1685/16/4
f 1684/15/4 1678/15/4 1685/15/4
f 1685/16/4 1679/16/4 1686/16/4
f 1682/14/4 1683/14/4 1687/14/4
f 1687/14/4 1683/14/4 1688/14/4
f 1670/13/4 1671/13/4 1689/13/4
f 1689/13/4 1671/13/4 1690/13/4
f 1688/14/4 1689/14/4 1692/14/4
f 1692/14/4 1689/14/4 1693/14/4
f 1690/14/4 1691/14/4 1694/14/4
f 1694/14/4 1691/14/4 1695/14/4
f 1699/14/4 1700/14/4 1704/14/4
f 1696/15/4 1697/15/4 1705/15/4
f 1697/16/4 1698/16/4 1706/16/4
f 1705/15/4 1697/15/4 1706/15/4
f 1706/16/4 1698/16/4 1707/16/4
f 1703/14/4 1704/14/4 1708/14/4
f 1704/14/4 1700/14/4 1709/14/4
f 1708/14/4 1704/14/4 1709/14/4
f 1709/14/4 1700/14/4 1710/14/4
f 1710/14/4 1700/14/4 1711/14/4
f 1701/14/4 1702/14/4 1712/14/4
f 1712/14/4 1702/14/4 1713/14/4
f 1714/9/4 1715/9/4 1716/9/4
f 1716/9/4 1715/9/4 1717/9/4
f 1717/2/4 1718/2/4 1719/2/4
f 1719/2/4 1718/2/4 1720/2/4
f 1720/2/4 1721/2/4 1722/2/4
f 1722/2/4 1721/2/4 1723/2/4
f 1726/9/4 1727/9/4 1729/9/4
f 1729/9/4 1727/9/4 1730/9/4
f 1730/9/4 1727/9/4 1731/9/4
f 1728/9/4 1729/9/4 1733/9/4
f 1729/9/4 1730/9/4 1733/9/4
f 1733/9/4 1730/9/4 1734/9/4
f 1734/9/4 1730/9/4 1735/9/4
f 1732/9/4 1733/9/4 1737/9/4
f 1733/9/4 1734/9/4 1737/9/4
f 1737/9/4 1734/9/4 1738/9/4
f 1738/9/4 1734/9/4 1739/9/4
f 1736/9/4 1737/9/4 1741/9/4
f 1737/9/4 1738/9/4 1741/9/4
f 1741/9/4 1738/9/4 1742/9/4
f 1742/9/4 1738/9/4 1743/9/4
f 1740/9/4 1741/9/4 1744/9/4
f 1741/9/4 1742/9/4 1744/9/4
f 1744/9/4 1742/9/4 1745/9/4
f 1740/9/4 1744/9/4 1748/9/4
f 1748/9/4 1744/9/4 1749/9/4
f 1746/9/4 1747/9/4 1751/9/4
f 1740/9/4 1748/9/4 1752/9/4
f 1752/9/4 1748/9/4 1753/9/4
f 1750/9/4 1751/9/4 1754/9/4
f 1751/9/4 1747/9/4 1754/9/4
f 1754/9/4 1747/9/4 1755/9/4
f 1750/9/4 1754/9/4 1756/9/4
f 1756/9/4 1754/9/4 1757/9/4
f 1724/18/4 1725/18/4 1758/18/4
f 1758/18/4 1725/18/4 1759/18/4
f 1760/11/4 1761/11/4 1762/11/4
f 1762/11/4 1761/11/4 1763/11/4
f 1764/4/4 1765/4/4 1766/4/4
f 1766/4/4 1765/4/4 1767/4/4
f 1763/11/4 1761/11/4 1769/11/4
f 1768/11/4 1769/11/4 1770/11/4
f 1769/11/4 1761/11/4 1771/11/4
f 1770/11/4 1769/11/4 1771/11/4
f 1776/3/4 1777/3/4 1778/3/4
f 1778/3/4 1777/3/4 1779/3/4
f 1774/10/4 1775/10/4 1782/10/4
f 1782/10/4 1775/10/4 1783/10/4
f 1772/10/4 1773/10/4 1784/10/4
f 1784/10/4 1773/10/4 1785/10/4
f 1780/3/4 1781/3/4 1786/3/4
f 1786/3/4 1781/3/4 1787/3/4
f 1788/9/4 1789/9/4 1792/9/4
f 1792/9/4 1789/9/4 1793/9/4
f 1790/9/4 1791/9/4 1794/9/4
f 1794/9/4 1791/9/4 1795/9/4
f 1798/9/5 1797/9/5 1796/9/5
f 1799/9/5 1797/9/5 1798/9/5
f 1801/9/5 1797/9/5 1799/9/5
f 1802/9/5 1801/9/5 1800/9/5
f 1803/9/5 1797/9/5 1801/9/5
f 1803/9/5 1801/9/5 1802/9/5
f 1805/9/5 1797/9/5 1803/9/5
f 1806/9/5 1805/9/5 1804/9/5
f 1807/9/5 1797/9/5 1805/9/5
f 1807/9/5 1805/9/5 1806/9/5
f 1809/9/5 1797/9/5 1807/9/5
f 1810/9/5 1809/9/5 1808/9/5
f 1811/9/5 1797/9/5 1809/9/5
f 1811/9/5 1809/9/5 1810/9/5
f 1814/11/5 1813/11/5 1812/11/5
f 1815/11/5 1813/11/5 1814/11/5
f 1821/11/5 1817/11/5 1816/11/5
f 1822/11/5 1817/11/5 1821/11/5
f 1824/11/5 1821/11/5 1820/11/5
f 1824/11/5 1823/11/5 1822/11/5
f 1824/11/5 1822/11/5 1821/11/5
f 1825/11/5 1823/11/5 1824/11/5
f 1826/11/5 1819/11/5 1818/11/5
f 1827/11/5 1819/11/5 1826/11/5
f 1828/11/5 1824/11/5 1820/11/5
f 1832/11/5 1828/11/5 1820/11/5
f 1832/11/5 1829/11/5 1828/11/5
f 1833/11/5 1829/11/5 1832/11/5
f 1834/11/5 1831/11/5 1830/11/5
f 1835/11/5 1831/11/5 1834/11/5
f 1836/11/5 1832/11/5 1820/11/5
f 1840/11/5 1836/11/5 1820/11/5
f 1840/11/5 1837/11/5 1836/11/5
f 1841/11/5 1837/11/5 1840/11/5
f 1842/11/5 1837/11/5 1841/11/5
f 1843/11/5 1837/11/5 1842/11/5
f 1844/11/5 1842/11/5 1841/11/5
f 1845/11/5 1842/11/5 1844/11/5
f 1846/11/5 1839/11/5 1838/11/5
f 1847/11/5 1839/11/5 1846/11/5
f 1850/11/5 1849/11/5 1848/11/5
f 1851/11/5 1849/11/5 1850/11/5
f 1854/10/5 1853/10/5 1852/10/5
f 1855/10/5 1853/10/5 1854/10/5
f 1856/10/5 1854/10/5 1852/10/5
f 1857/10/5 1853/10/5 1855/10/5
f 1858/10/5 1856/10/5 1852/10/5
f 1858/10/5 1857/10/5 1856/10/5
f 1859/10/5 1853/10/5 1857/10/5
f 1859/10/5 1857/10/5 1858/10/5
f 1862/9/5 1861/9/5 1860/9/5
f 1863/9/5 1861/9/5 1862/9/5
f 1865/9/5 1861/9/5 1863/9/5
f 1866/9/5 1865/9/5 1864/9/5
f 1867/9/5 1861/9/5 1865/9/5
f 1867/9/5 1865/9/5 1866/9/5
f 1871/8/5 1869/8/5 1868/8/5
f 1872/8/5 1869/8/5 1871/8/5
f 1874/8/5 1871/8/5 1870/8/5
f 1874/8/5 1873/8/5 1872/8/5
f 1874/8/5 1872/8/5 1871/8/5
f 1875/8/5 1873/8/5 1874/8/5
f 1876/8/5 1873/8/5 1875/8/5
f 1877/8/5 1873/8/5 1876/8/5
f 1878/8/5 1876/8/5 1875/8/5
f 1879/8/5 1876/8/5 1878/8/5
f 1883/14/5 1881/14/5 1880/14/5
f 1884/14/5 1881/14/5 1883/14/5
f 1887/14/5 1883/14/5 1882/14/5
f 1888/14/5 1883/14/5 1887/14/5
f 1889/14/5 1885/14/5 1884/14/5
f 1890/14/5 1885/14/5 1889/14/5
f 1893/14/5 1887/14/5 1886/14/5
f 1894/14/5 1887/14/5 1893/14/5
f 1895/14/5 1891/14/5 1890/14/5
f 1896/14/5 1891/14/5 1895/14/5
f 1898/14/5 1893/14/5 1892/14/5
f 1899/14/5 1893/14/5 1898/14/5
f 1902/14/5 1897/14/5 1896/14/5
f 1903/14/5 1897/14/5 1902/14/5
f 1904/14/5 1900/14/5 1899/14/5
f 1905/14/5 1900/14/5 1904/14/5
f 1908/14/5 1902/14/5 1901/14/5
f 1909/14/5 1902/14/5 1908/14/5
f 1910/14/5 1906/14/5 1905/14/5
f 1911/14/5 1906/14/5 1910/14/5
f 1912/14/5 1908/14/5 1907/14/5
f 1913/14/5 1908/14/5 1912/14/5
f 1914/14/5 1912/14/5 1911/14/5
f 1915/14/5 1912/14/5 1914/14/5
f 1918/9/5 1917/9/5 1916/9/5
f 1919/9/5 1917/9/5 1918/9/5
f 1920/2/5 1919/2/5 1918/2/5
f 1921/2/5 1919/2/5 1920/2/5
f 1922/9/5 1921/9/5 1920/9/5
f 1923/9/5 1921/9/5 1922/9/5
f 1926/4/5 1925/4/5 1924/4/5
f 1927/4/5 1925/4/5 1926/4/5
f 1932/8/5 1931/8/5 1930/8/5
f 1933/8/5 1931/8/5 1932/8/5
f 1938/8/5 1935/8/5 1934/8/5
f 1939/8/5 1935/8/5 1938/8/5
f 1940/8/5 1937/8/5 1936/8/5
f 1941/8/5 1937/8/5 1940/8/5
f 1944/8/5 1943/8/5 1942/8/5
f 1945/8/5 1943/8/5 1944/8/5
f 1946/8/5 1945/8/5 1944/8/5
f 1947/8/5 1945/8/5 1946/8/5
f 1948/4/5 1929/4/5 1928/4/5
f 1949/4/5 1929/4/5 1948/4/5
f 1956/4/5 1951/4/5 1950/4/5
f 1957/4/5 1951/4/5 1956/4/5
f 1959/14/5 1953/14/5 1952/14/5
f 1960/14/5 1953/14/5 1959/14/5
f 1961/14/5 1955/14/5 1954/14/5
f 1962/14/5 1955/14/5 1961/14/5
f 1965/14/5 1959/14/5 1958/14/5
f 1966/14/5 1959/14/5 1965/14/5
f 1967/14/5 1963/14/5 1962/14/5
f 1968/14/5 1963/14/5 1967/14/5
f 1970/14/5 1965/14/5 1964/14/5
f 1971/14/5 1965/14/5 1970/14/5
f 1972/14/5 1969/14/5 1968/14/5
f 1973/14/5 1969/14/5 1972/14/5
f 1980/14/5 1977/14/5 1976/14/5
f 1981/14/5 1977/14/5 1980/14/5
f 1984/14/5 1979/14/5 1978/14/5
f 1985/14/5 1979/14/5 1984/14/5
f 1986/14/5 1982/14/5 1981/14/5
f 1987/14/5 1982/14/5 1986/14/5
f 1990/14/5 1984/14/5 1983/14/5
f 1991/14/5 1984/14/5 1990/14/5
f 1992/14/5 1988/14/5 1987/14/5
f 1993/14/5 1988/14/5 1992/14/5
f 1994/14/5 1990/14/5 1989/14/5
f 1995/14/5 1990/14/5 1994/14/5
f 1998/9/5 1997/9/5 1996/9/5
f 1999/9/5 1997/9/5 1998/9/5
f 2002/2/5 2001/2/5 2000/2/5
f 2003/2/5 2001/2/5 2002/2/5
f 2004/2/5 1999/2/5 1998/2/5
f 2005/2/5 1999/2/5 2004/2/5
f 2006/4/5 1975/4/5 1974/4/5
f 2007/4/5 1975/4/5 2006/4/5
f 2009/9/5 2005/9/5 2004/9/5
f 2010/9/5 2005/9/5 2009/9/5
f 2013/4/5 2009/4/5 2008/4/5
f 2013/4/5 2012/4/5 2011/4/5
f 2013/4/5 2011/4/5 2010/4/5
f 2013/4/5 2010/4/5 2009/4/5
f 2014/4/5 2012/4/5 2013/4/5
f 2017/8/5 2016/8/5 2015/8/5
f 2018/8/5 2016/8/5 2017/8/5
f 2023/8/5 2020/8/5 2019/8/5
f 2024/8/5 2020/8/5 2023/8/5
f 2025/8/5 2022/8/5 2021/8/5
f 2026/8/5 2022/8/5 2025/8/5
f 2029/9/5 2028/9/5 2027/9/5
f 2030/9/5 2028/9/5 2029/9/5
f 2031/2/5 2030/2/5 2029/2/5
f 2032/2/5 2030/2/5 2031/2/5
f 2033/9/5 2032/9/5 2031/9/5
f 2034/9/5 2032/9/5 2033/9/5
f 2039/7/5 2036/7/5 2035/7/5
f 2040/7/5 2036/7/5 2039/7/5
f 2043/8/5 2038/8/5 2037/8/5
f 2044/8/5 2038/8/5 2043/8/5
f 2045/8/5 2042/8/5 2041/8/5
f 2046/8/5 2042/8/5 2045/8/5
f 2049/9/5 2048/9/5 2047/9/5
f 2050/9/5 2048/9/5 2049/9/5
f 2052/2/5 2050/2/5 2049/2/5
f 2053/2/5 2052/2/5 2051/2/5
f 2054/2/5 2050/2/5 2052/2/5
f 2054/2/5 2052/2/5 2053/2/5
f 2055/2/5 2050/2/5 2054/2/5
f 2056/2/5 2050/2/5 2055/2/5
f 2057/9/5 2056/9/5 2055/9/5
f 2058/9/5 2056/9/5 2057/9/5
f 2061/9/5 2060/9/5 2059/9/5
f 2062/9/5 2060/9/5 2061/9/5
f 2063/2/5 2062/2/5 2061/2/5
f 2064/2/5 2062/2/5 2063/2/5
f 2067/2/5 2066/2/5 2065/2/5
f 2068/2/5 2066/2/5 2067/2/5
f 2069/9/5 2068/9/5 2067/9/5
f 2070/9/5 2068/9/5 2069/9/5
f 2074/14/5 2072/14/5 2071/14/5
f 2075/14/5 2072/14/5 2074/14/5
f 2078/14/5 2074/14/5 2073/14/5
f 2079/14/5 2074/14/5 2078/14/5
f 2080/14/5 2076/14/5 2075/14/5
f 2081/14/5 2076/14/5 2080/14/5
f 2083/14/5 2078/14/5 2077/14/5
f 2084/14/5 2078/14/5 2083/14/5
f 2087/14/5 2082/14/5 2081/14/5
f 2088/14/5 2082/14/5 2087/14/5
f 2089/14/5 2085/14/5 2084/14/5
f 2090/14/5 2085/14/5 2089/14/5
f 2091/14/5 2087/14/5 2086/14/5
f 2092/14/5 2087/14/5 2091/14/5
f 2093/14/5 2091/14/5 2090/14/5
f 2094/14/5 2091/14/5 2093/14/5
f 2097/9/5 2096/9/5 2095/9/5
f 2098/9/5 2096/9/5 2097/9/5
f 2099/2/5 2098/2/5 2097/2/5
f 2100/2/5 2098/2/5 2099/2/5
f 2101/9/5 2100/9/5 2099/9/5
f 2102/9/5 2100/9/5 2101/9/5
f 2105/9/5 2104/9/5 2103/9/5
f 2106/9/5 2105/9/5 2103/9/5
f 2107/9/5 2106/9/5 2103/9/5
f 2108/9/5 2106/9/5 2107/9/5
f 2111/15/5 2110/15/5 2109/15/5
f 2112/15/5 2110/15/5 2111/15/5
f 2113/15/5 2111/15/5 2109/15/5
f 2114/15/5 2110/15/5 2112/15/5
f 2115/15/5 2113/15/5 2109/15/5
f 2115/15/5 2114/15/5 2113/15/5
f 2116/15/5 2110/15/5 2114/15/5
f 2116/15/5 2114/15/5 2115/15/5
f 2120/15/5 2118/15/5 2117/15/5
f 2121/15/5 2118/15/5 2120/15/5
f 2124/15/5 2120/15/5 2119/15/5
f 2125/15/5 2120/15/5 2124/15/5
f 2126/15/5 2122/15/5 2121/15/5
f 2127/15/5 2122/15/5 2126/15/5
f 2128/15/5 2124/15/5 2123/15/5
f 2129/15/5 2124/15/5 2128/15/5
f 2130/15/5 2126/15/5 2125/15/5
f 2131/15/5 2126/15/5 2130/15/5
f 2132/15/5 2128/15/5 2123/15/5
f 2133/15/5 2124/15/5 2129/15/5
f 2134/15/5 2132/15/5 2123/15/5
f 2134/15/5 2133/15/5 2132/15/5
f 2135/15/5 2124/15/5 2133/15/5
f 2135/15/5 2133/15/5 2134/15/5
f 2139/15/5 2137/15/5 2136/15/5
f 2140/15/5 2137/15/5 2139/15/5
f 2142/15/5 2141/15/5 2140/15/5
f 2143/15/5 2139/15/5 2138/15/5
f 2144/15/5 2139/15/5 2143/15/5
f 2145/15/5 2142/15/5 2140/15/5
f 2146/15/5 2142/15/5 2145/15/5
f 2147/15/5 2145/15/5 2144/15/5
f 2148/15/5 2145/15/5 2147/15/5
f 2149/9/6 2150/9/6 2151/9/6
f 2151/9/6 2150/9/6 2152/9/6
f 2149/9/6 2151/9/6 2153/9/6
f 2153/9/6 2151/9/6 2154/9/6
f 2155/9/6 2156/9/6 2157/9/6
f 2157/9/6 2156/9/6 2158/9/6
f 2155/9/6 2157/9/6 2159/9/6
f 2155/9/6 2159/9/6 2161/9/6
f 2159/9/6 2160/9/6 2161/9/6
f 2161/9/6 2160/9/6 2162/9/6
f 2163/9/6 2164/9/6 2165/9/6
f 2165/9/6 2164/9/6 2166/9/6
f 2163/9/6 2165/9/6 2167/9/6
f 2163/9/6 2167/9/6 2169/9/6
f 2167/9/6 2168/9/6 2169/9/6
f 2169/9/6 2168/9/6 2170/9/6
f 2171/9/6 2172/9/6 2173/9/6
f 2152/9/6 2150/9/6 2174/9/6
f 2171/9/6 2173/9/6 2175/9/6
f 2173/9/6 2174/9/6 2175/9/6
f 2174/9/6 2150/9/6 2176/9/6
f 2175/9/6 2174/9/6 2176/9/6
f 2177/10/6 2178/10/6 2179/10/6
f 2179/10/6 2178/10/6 2180/10/6
f 2180/10/6 2178/10/6 2181/10/6
f 2181/10/6 2178/10/6 2182/10/6
f 2180/10/6 2181/10/6 2183/10/6
f 2183/10/6 2181/10/6 2184/10/6
f 2182/10/6 2178/10/6 2188/10/6
f 2177/10/6 2179/10/6 2189/10/6
f 2189/10/6 2179/10/6 2190/10/6
f 2185/10/6 2186/10/6 2191/10/6
f 2191/10/6 2186/10/6 2192/10/6
f 2187/10/6 2188/10/6 2195/10/6
f 2188/10/6 2178/10/6 2196/10/6
f 2195/10/6 2188/10/6 2196/10/6
f 2193/10/6 2194/10/6 2197/10/6
f 2197/10/6 2194/10/6 2198/10/6
f 2196/10/6 2178/10/6 2200/10/6
f 2199/10/6 2200/10/6 2203/10/6
f 2200/10/6 2178/10/6 2204/10/6
f 2203/10/6 2200/10/6 2204/10/6
f 2201/10/6 2202/10/6 2205/10/6
f 2205/10/6 2202/10/6 2206/10/6
f 2204/10/6 2178/10/6 2208/10/6
f 2211/10/6 2212/10/6 2213/10/6
f 2213/10/6 2212/10/6 2214/10/6
f 2207/10/6 2208/10/6 2215/10/6
f 2208/10/6 2178/10/6 2216/10/6
f 2215/10/6 2208/10/6 2216/10/6
f 2209/10/6 2210/10/6 2219/10/6
f 2217/10/6 2218/10/6 2220/10/6
f 2220/10/6 2218/10/6 2221/10/6
f 2216/10/6 2178/10/6 2222/10/6
f 2220/10/6 2221/10/6 2223/10/6
f 2221/10/6 2222/10/6 2223/10/6
f 2209/10/6 2219/10/6 2223/10/6
f 2219/10/6 2220/10/6 2223/10/6
f 2222/10/6 2178/10/6 2224/10/6
f 2223/10/6 2222/10/6 2224/10/6
f 2225/9/6 2226/9/6 2227/9/6
f 2227/9/6 2226/9/6 2228/9/6
f 2228/9/6 2226/9/6 2229/9/6
f 2229/9/6 2226/9/6 2230/9/6
f 2225/9/6 2227/9/6 2231/9/6
f 2228/9/6 2229/9/6 2232/9/6
f 2232/9/6 2229/9/6 2233/9/6
f 2230/9/6 2226/9/6 2234/9/6
f 2232/9/6 2233/9/6 2235/9/6
f 2233/9/6 2234/9/6 2235/9/6
f 2231/9/6 2232/9/6 2235/9/6
f 2235/9/6 2234/9/6 2236/9/6
f 2236/9/6 2234/9/6 2237/9/6
f 2237/9/6 2234/9/6 2238/9/6
f 2231/9/6 2235/9/6 2239/9/6
f 2236/9/6 2237/9/6 2240/9/6
f 2240/9/6 2237/9/6 2241/9/6
f 2238/9/6 2234/9/6 2242/9/6
f 2240/9/6 2241/9/6 2243/9/6
f 2241/9/6 2242/9/6 2243/9/6
f 2231/9/6 2239/9/6 2243/9/6
f 2239/9/6 2240/9/6 2243/9/6
f 2243/9/6 2242/9/6 2244/9/6
f 2244/9/6 2242/9/6 2245/9/6
f 2242/9/6 2234/9/6 2246/9/6
f 2245/9/6 2242/9/6 2246/9/6
f 2231/9/6 2243/9/6 2247/9/6
f 2244/9/6 2245/9/6 2248/9/6
f 2248/9/6 2245/9/6 2249/9/6
f 2246/9/6 2234/9/6 2250/9/6
f 2248/9/6 2249/9/6 2251/9/6
f 2249/9/6 2250/9/6 2251/9/6
f 2250/9/6 2234/9/6 2251/9/6
f 2247/9/6 2248/9/6 2251/9/6
f 2234/9/6 2226/9/6 2252/9/6
f 2251/9/6 2234/9/6 2252/9/6
f 2247/9/6 2251/9/6 2253/9/6
f 2252/9/6 2226/9/6 2254/9/6
f 2247/9/6 2253/9/6 2255/9/6
f 2253/9/6 2254/9/6 2255/9/6
f 2254/9/6 2226/9/6 2256/9/6
f 2255/9/6 2254/9/6 2256/9/6
f 2247/9/6 2255/9/6 2257/9/6
f 2257/9/6 2255/9/6 2258/9/6
f 2247/9/6 2257/9/6 2259/9/6
f 2259/9/6 2257/9/6 2260/9/6
f 2258/9/6 2255/9/6 2261/9/6
f 2261/9/6 2255/9/6 2262/9/6
f 2247/9/6 2259/9/6 2263/9/6
f 2263/9/6 2259/9/6 2264/9/6
f 2262/9/6 2255/9/6 2265/9/6
f 2265/9/6 2255/9/6 2266/9/6
f 2266/9/6 2255/9/6 2267/9/6
f 2256/9/6 2226/9/6 2268/9/6
f 2247/9/6 2263/9/6 2269/9/6
f 2266/9/6 2267/9/6 2272/9/6
f 2267/9/6 2268/9/6 2272/9/6
f 2269/9/6 2270/9/6 2273/9/6
f 2271/9/6 2272/9/6 2276/9/6
f 2273/9/6 2274/9/6 2277/9/6
f 2275/9/6 2276/9/6 2278/9/6
f 2273/9/6 2277/9/6 2279/9/6
f 2277/9/6 2278/9/6 2279/9/6
f 2269/9/6 2273/9/6 2279/9/6
f 2278/9/6 2276/9/6 2280/9/6
f 2279/9/6 2278/9/6 2280/9/6
f 2269/9/6 2279/9/6 2281/9/6
f 2231/9/6 2247/9/6 2281/9/6
f 2247/9/6 2269/9/6 2281/9/6
f 2281/9/6 2279/9/6 2282/9/6
f 2231/9/6 2281/9/6 2283/9/6
f 2282/9/6 2279/9/6 2284/9/6
f 2225/9/6 2231/9/6 2285/9/6
f 2283/9/6 2284/9/6 2285/9/6
f 2231/9/6 2283/9/6 2285/9/6
f 2285/9/6 2284/9/6 2286/9/6
f 2280/9/6 2276/9/6 2287/9/6
f 2276/9/6 2272/9/6 2287/9/6
f 2272/9/6 2268/9/6 2287/9/6
f 2268/9/6 2226/9/6 2288/9/6
f 2287/9/6 2268/9/6 2288/9/6
f 2286/9/6 2284/9/6 2289/9/6
f 2284/9/6 2279/9/6 2289/9/6
f 2280/9/6 2287/9/6 2290/9/6
f 2225/9/6 2285/9/6 2291/9/6
f 2286/9/6 2289/9/6 2292/9/6
f 2289/9/6 2290/9/6 2292/9/6
f 2290/9/6 2287/9/6 2293/9/6
f 2292/9/6 2290/9/6 2293/9/6
f 2288/9/6 2226/9/6 2294/9/6
f 2292/9/6 2293/9/6 2295/9/6
f 2293/9/6 2294/9/6 2295/9/6
f 2225/9/6 2291/9/6 2295/9/6
f 2291/9/6 2292/9/6 2295/9/6
f 2294/9/6 2226/9/6 2296/9/6
f 2295/9/6 2294/9/6 2296/9/6
f 2297/9/6 2298/9/6 2299/9/6
f 2299/9/6 2298/9/6 2300/9/6
f 2300/9/6 2298/9/6 2301/9/6
f 2301/9/6 2298/9/6 2302/9/6
f 2302/9/6 2298/9/6 2303/9/6
f 2303/9/6 2298/9/6 2304/9/6
f 2305/9/6 2306/9/6 2307/9/6
f 2307/9/6 2306/9/6 2308/9/6
f 2307/2/6 2308/2/6 2311/2/6
f 2311/2/6 2308/2/6 2312/2/6
f 2311/6/6 2312/6/6 2313/6/6
f 2313/6/6 2312/6/6 2314/6/6
f 2309/9/6 2310/9/6 2315/9/6
f 2315/9/6 2310/9/6 2316/9/6
f 2313/2/6 2314/2/6 2317/2/6
f 2317/2/6 2314/2/6 2318/2/6
f 2317/9/6 2318/9/6 2319/9/6
f 2319/9/6 2318/9/6 2320/9/6
f 2321/4/6 2322/4/6 2323/4/6
f 2323/4/6 2322/4/6 2324/4/6
f 2325/4/6 2326/4/6 2327/4/6
f 2327/4/6 2326/4/6 2328/4/6
f 2329/4/6 2330/4/6 2331/4/6
f 2331/4/6 2330/4/6 2332/4/6
f 2333/14/6 2334/14/6 2336/14/6
f 2335/14/6 2336/14/6 2339/14/6
f 2336/14/6 2334/14/6 2340/14/6
f 2339/14/6 2336/14/6 2340/14/6
f 2340/14/6 2334/14/6 2341/14/6
f 2341/14/6 2342/14/6 2343/14/6
f 2340/14/6 2341/14/6 2343/14/6
f 2343/14/6 2342/14/6 2344/14/6
f 2345/9/6 2346/9/6 2347/9/6
f 2347/9/6 2346/9/6 2348/9/6
f 2347/2/6 2348/2/6 2349/2/6
f 2349/2/6 2348/2/6 2350/2/6
f 2350/2/6 2348/2/6 2351/2/6
f 2351/2/6 2348/2/6 2352/2/6
f 2337/4/6 2338/4/6 2353/4/6
f 2353/4/6 2338/4/6 2354/4/6
f 2351/9/6 2352/9/6 2357/9/6
f 2357/9/6 2352/9/6 2358/9/6
f 2355/4/6 2356/4/6 2360/4/6
f 2358/4/6 2359/4/6 2360/4/6
f 2357/4/6 2358/4/6 2360/4/6
f 2356/4/6 2357/4/6 2360/4/6
f 2360/4/6 2359/4/6 2361/4/6
f 2362/3/6 2363/3/6 2366/3/6
f 2366/3/6 2363/3/6 2367/3/6
f 2364/3/6 2365/3/6 2368/3/6
f 2368/3/6 2365/3/6 2369/3/6
f 2370/3/6 2371/3/6 2372/3/6
f 2372/3/6 2371/3/6 2373/3/6
f 2376/14/6 2377/14/6 2378/14/6
f 2374/3/6 2375/3/6 2380/3/6
f 2380/3/6 2375/3/6 2381/3/6
f 2378/14/6 2379/14/6 2382/14/6
f 2376/14/6 2378/14/6 2382/14/6
f 2382/14/6 2379/14/6 2383/14/6
f 2383/14/6 2379/14/6 2384/14/6
f 2385/9/6 2386/9/6 2387/9/6
f 2387/9/6 2386/9/6 2388/9/6
f 2387/2/6 2388/2/6 2391/2/6
f 2391/2/6 2388/2/6 2392/2/6
f 2391/6/6 2392/6/6 2393/6/6
f 2393/6/6 2392/6/6 2394/6/6
f 2389/2/6 2390/2/6 2395/2/6
f 2395/2/6 2390/2/6 2396/2/6
f 2393/2/6 2394/2/6 2399/2/6
f 2399/2/6 2394/2/6 2400/2/6
f 2399/9/6 2400/9/6 2403/9/6
f 2403/9/6 2400/9/6 2404/9/6
f 2397/3/6 2398/3/6 2405/3/6
f 2405/3/6 2398/3/6 2406/3/6
f 2401/3/6 2402/3/6 2407/3/6
f 2407/3/6 2402/3/6 2408/3/6
f 2409/8/6 2410/8/6 2413/8/6
f 2413/8/6 2410/8/6 2414/8/6
f 2411/8/6 2412/8/6 2415/8/6
f 2415/8/6 2412/8/6 2416/8/6
f 2417/8/6 2418/8/6 2421/8/6
f 2421/8/6 2418/8/6 2422/8/6
f 2419/8/6 2420/8/6 2425/8/6
f 2425/8/6 2420/8/6 2426/8/6
f 2422/8/6 2423/8/6 2427/8/6
f 2427/8/6 2423/8/6 2428/8/6
f 2424/8/6 2425/8/6 2429/8/6
f 2429/8/6 2425/8/6 2430/8/6
f 2431/14/6 2432/14/6 2434/14/6
f 2434/14/6 2432/14/6 2435/14/6
f 2433/14/6 2434/14/6 2438/14/6
f 2438/14/6 2434/14/6 2439/14/6
f 2435/14/6 2436/14/6 2440/14/6
f 2440/14/6 2436/14/6 2441/14/6
f 2437/14/6 2438/14/6 2443/14/6
f 2443/14/6 2438/14/6 2444/14/6
f 2441/14/6 2442/14/6 2447/14/6
f 2447/14/6 2442/14/6 2448/14/6
f 2444/14/6 2445/14/6 2449/14/6
f 2449/14/6 2445/14/6 2450/14/6
f 2446/14/6 2447/14/6 2451/14/6
f 2451/14/6 2447/14/6 2452/14/6
f 2450/14/6 2451/14/6 2453/14/6
f 2453/14/6 2451/14/6 2454/14/6
f 2455/9/6 2456/9/6 2457/9/6
f 2457/9/6 2456/9/6 2458/9/6
f 2457/2/6 2458/2/6 2459/2/6
f 2459/2/6 2458/2/6 2460/2/6
f 2460/2/6 2458/2/6 2461/2/6
f 2461/2/6 2458/2/6 2462/2/6
f 2462/2/6 2458/2/6 2463/2/6
f 2463/2/6 2458/2/6 2464/2/6
f 2463/9/6 2464/9/6 2465/9/6
f 2465/9/6 2464/9/6 2466/9/6
f 2467/7/6 2468/7/6 2469/7/6
f 2469/7/6 2468/7/6 2470/7/6
f 2475/7/6 2476/7/6 2477/7/6
f 2477/7/6 2476/7/6 2478/7/6
f 2471/8/6 2472/8/6 2479/8/6
f 2479/8/6 2472/8/6 2480/8/6
f 2473/8/6 2474/8/6 2481/8/6
f 2481/8/6 2474/8/6 2482/8/6
f 2483/8/6 2484/8/6 2487/8/6
f 2487/8/6 2484/8/6 2488/8/6
f 2485/8/6 2486/8/6 2489/8/6
f 2489/8/6 2486/8/6 2490/8/6
f 2491/13/6 2492/13/6 2494/13/6
f 2494/13/6 2492/13/6 2495/13/6
f 2493/13/6 2494/13/6 2498/13/6
f 2498/13/6 2494/13/6 2499/13/6
f 2495/13/6 2496/13/6 2500/13/6
f 2500/13/6 2496/13/6 2501/13/6
f 2497/13/6 2498/13/6 2503/13/6
f 2503/13/6 2498/13/6 2504/13/6
f 2501/13/6 2502/13/6 2506/13/6
f 2506/13/6 2502/13/6 2507/13/6
f 2505/13/6 2506/13/6 2509/13/6
f 2509/13/6 2506/13/6 2510/13/6
f 2508/13/6 2509/13/6 2511/13/6
f 2511/13/6 2509/13/6 2512/13/6
f 2513/9/6 2514/9/6 2515/9/6
f 2515/9/6 2514/9/6 2516/9/6
f 2515/2/6 2516/2/6 2517/2/6
f 2517/2/6 2516/2/6 2518/2/6
f 2517/6/6 2518/6/6 2519/6/6
f 2519/6/6 2518/6/6 2520/6/6
f 2519/2/6 2520/2/6 2521/2/6
f 2521/2/6 2520/2/6 2522/2/6
f 2521/6/6 2522/6/6 2523/6/6
f 2523/6/6 2522/6/6 2524/6/6
f 2523/2/6 2524/2/6 2525/2/6
f 2525/2/6 2524/2/6 2526/2/6
f 2525/9/6 2526/9/6 2527/9/6
f 2527/9/6 2526/9/6 2528/9/6
f 2529/8/6 2530/8/6 2533/8/6
f 2531/8/6 2532/8/6 2534/8/6
f 2529/8/6 2533/8/6 2535/8/6
f 2533/8/6 2534/8/6 2535/8/6
f 2535/8/6 2534/8/6 2536/8/6
f 2536/8/6 2534/8/6 2537/8/6
f 2534/8/6 2532/8/6 2538/8/6
f 2537/8/6 2534/8/6 2538/8/6
f 2539/14/6 2540/14/6 2542/14/6
f 2542/14/6 2540/14/6 2543/14/6
f 2543/14/6 2540/14/6 2544/14/6
f 2544/14/6 2540/14/6 2545/14/6
f 2541/14/6 2542/14/6 2548/14/6
f 2542/14/6 2543/14/6 2548/14/6
f 2548/14/6 2543/14/6 2549/14/6
f 2549/14/6 2543/14/6 2550/14/6
f 2544/14/6 2545/14/6 2551/14/6
f 2545/14/6 2546/14/6 2551/14/6
f 2551/14/6 2546/14/6 2552/14/6
f 2552/14/6 2546/14/6 2553/14/6
f 2548/14/6 2549/14/6 2555/14/6
f 2547/14/6 2548/14/6 2555/14/6
f 2555/14/6 2549/14/6 2556/14/6
f 2553/14/6 2554/14/6 2557/14/6
f 2547/14/6 2555/14/6 2558/14/6
f 2557/14/6 2554/14/6 2561/14/6
f 2558/14/6 2559/14/6 2562/14/6
f 2547/14/6 2558/14/6 2562/14/6
f 2562/14/6 2559/14/6 2563/14/6
f 2563/14/6 2559/14/6 2564/14/6
f 2560/14/6 2561/14/6 2567/14/6
f 2561/14/6 2554/14/6 2568/14/6
f 2567/14/6 2561/14/6 2568/14/6
f 2568/14/6 2554/14/6 2569/14/6
f 2564/14/6 2565/14/6 2570/14/6
f 2563/14/6 2564/14/6 2570/14/6
f 2570/14/6 2565/14/6 2571/14/6
f 2571/14/6 2565/14/6 2572/14/6
f 2566/14/6 2567/14/6 2573/14/6
f 2567/14/6 2568/14/6 2573/14/6
f 2573/14/6 2568/14/6 2574/14/6
f 2574/14/6 2568/14/6 2575/14/6
f 2571/14/6 2572/14/6 2576/14/6
f 2573/14/6 2574/14/6 2576/14/6
f 2572/14/6 2573/14/6 2576/14/6
f 2576/14/6 2574/14/6 2577/14/6
f 2578/9/6 2579/9/6 2580/9/6
f 2580/9/6 2579/9/6 2581/9/6
f 2580/2/6 2581/2/6 2582/2/6
f 2582/2/6 2581/2/6 2583/2/6
f 2583/2/6 2581/2/6 2584/2/6
f 2584/2/6 2581/2/6 2585/2/6
f 2584/9/6 2585/9/6 2586/9/6
f 2586/9/6 2585/9/6 2587/9/6
f 2588/8/6 2589/8/6 2590/8/6
f 2590/8/6 2589/8/6 2591/8/6
f 2592/8/6 2593/8/6 2594/8/6
f 2594/8/6 2593/8/6 2595/8/6
f 2592/8/6 2594/8/6 2596/8/6
f 2595/8/6 2593/8/6 2597/8/6
f 2592/8/6 2596/8/6 2598/8/6
f 2596/8/6 2597/8/6 2598/8/6
f 2597/8/6 2593/8/6 2599/8/6
f 2598/8/6 2597/8/6 2599/8/6
f 2600/7/6 2601/7/6 2602/7/6
f 2602/7/6 2601/7/6 2603/7/6
f 2604/9/6 2605/9/6 2606/9/6
f 2606/9/6 2605/9/6 2607/9/6
f 2606/2/6 2607/2/6 2608/2/6
f 2608/2/6 2607/2/6 2609/2/6
f 2608/6/6 2609/6/6 2610/6/6
f 2610/6/6 2609/6/6 2611/6/6
f 2610/2/6 2611/2/6 2612/2/6
f 2612/2/6 2611/2/6 2613/2/6
f 2612/9/6 2613/9/6 2614/9/6
f 2614/9/6 2613/9/6 2615/9/6
f 2616/8/6 2617/8/6 2618/8/6
f 2618/8/6 2617/8/6 2619/8/6
f 2619/8/6 2617/8/6 2620/8/6
f 2620/8/6 2617/8/6 2621/8/6
f 2619/8/6 2620/8/6 2622/8/6
f 2622/8/6 2620/8/6 2623/8/6
f 2622/8/6 2623/8/6 2624/8/6
f 2624/8/6 2623/8/6 2625/8/6
f 2626/9/6 2627/9/6 2628/9/6
f 2628/9/6 2627/9/6 2629/9/6
f 2628/2/6 2629/2/6 2630/2/6
f 2630/2/6 2629/2/6 2631/2/6
f 2630/9/6 2631/9/6 2632/9/6
f 2632/9/6 2631/9/6 2633/9/6
f 2634/7/6 2635/7/6 2638/7/6
f 2638/7/6 2635/7/6 2639/7/6
f 2636/7/6 2637/7/6 2640/7/6
f 2640/7/6 2637/7/6 2641/7/6
f 2638/8/6 2639/8/6 2642/8/6
f 2642/8/6 2639/8/6 2643/8/6
f 2640/8/6 2641/8/6 2644/8/6
f 2644/8/6 2641/8/6 2645/8/6
f 2646/9/6 2647/9/6 2648/9/6
f 2648/9/6 2647/9/6 2649/9/6
f 2650/16/6 2651/16/6 2653/16/6
f 2653/16/6 2651/16/6 2654/16/6
f 2652/16/6 2653/16/6 2656/16/6
f 2656/16/6 2653/16/6 2657/16/6
f 2657/16/6 2653/16/6 2658/16/6
f 2654/16/6 2655/16/6 2659/16/6
f 2659/16/6 2655/16/6 2660/16/6
f 2658/16/6 2659/16/6 2661/16/6
f 2661/16/6 2659/16/6 2662/16/6
f 2665/16/6 2666/16/6 2668/16/6
f 2668/16/6 2666/16/6 2669/16/6
f 2663/16/6 2664/16/6 2670/16/6
f 2670/16/6 2664/16/6 2671/16/6
f 2667/16/6 2668/16/6 2672/16/6
f 2672/16/6 2668/16/6 2673/16/6
f 2669/16/6 2670/16/6 2674/16/6
f 2674/16/6 2670/16/6 2675/16/6
f 2673/16/6 2674/16/6 2676/16/6
f 2676/16/6 2674/16/6 2677/16/6
f 2678/16/6 2679/16/6 2680/16/6
f 2680/16/6 2679/16/6 2681/16/6
