# MagicaVoxel @ Ephtracy

# group
o cupboard-6

# material
mtllib ludum dare_tile 01-18-cupboard-6.mtl
usemtl palette

# normals
vn -1 0 0
vn 1 0 0
vn 0 0 1
vn 0 0 -1
vn 0 -1 0
vn 0 1 0

# texcoords
vt 0.134766 0.5
vt 0.380859 0.5
vt 0.384766 0.5
vt 0.388672 0.5
vt 0.392578 0.5
vt 0.396484 0.5
vt 0.412109 0.5
vt 0.416016 0.5

# verts
v -2 0 6
v -2 0 -6
v -2 0.5 6
v -2 0.5 -6
v -2 3.7 6
v -2 3.7 -6
v -2 4 6
v -2 4 -6
v -1.8 0.5 6
v -1.8 0.5 -6
v -1.8 0.6 5.8
v -1.8 0.6 -5.8
v -1.8 1.2 2.9
v -1.8 1.2 2
v -1.8 1.2 0.2
v -1.8 1.2 -0.2
v -1.8 1.2 -2
v -1.8 1.2 -2.9
v -1.8 1.4 2.9
v -1.8 1.4 2
v -1.8 1.4 0.2
v -1.8 1.4 -0.2
v -1.8 1.4 -2
v -1.8 1.4 -2.9
v -1.8 2.1 2.9
v -1.8 2.1 2
v -1.8 2.1 0.2
v -1.8 2.1 -0.2
v -1.8 2.1 -2
v -1.8 2.1 -2.9
v -1.8 2.3 2.9
v -1.8 2.3 2
v -1.8 2.3 0.2
v -1.8 2.3 -0.2
v -1.8 2.3 -2
v -1.8 2.3 -2.9
v -1.8 3.1 2.9
v -1.8 3.1 2
v -1.8 3.1 0.2
v -1.8 3.1 -0.2
v -1.8 3.1 -2
v -1.8 3.1 -2.9
v -1.8 3.3 2.9
v -1.8 3.3 2
v -1.8 3.3 0.2
v -1.8 3.3 -0.2
v -1.8 3.3 -2
v -1.8 3.3 -2.9
v -1.8 3.6 5.8
v -1.8 3.6 -5.8
v -1.8 3.7 6
v -1.8 3.7 -6
v -1.7 0.6 3.8
v -1.7 0.6 3.6
v -1.7 0.6 1.3
v -1.7 0.6 1.1
v -1.7 0.6 -1.1
v -1.7 0.6 -1.3
v -1.7 0.6 -3.6
v -1.7 0.6 -3.8
v -1.7 0.8 4.3
v -1.7 0.8 4.1
v -1.7 0.8 -4.1
v -1.7 0.8 -4.3
v -1.7 3.4 4.3
v -1.7 3.4 4.1
v -1.7 3.4 -4.1
v -1.7 3.4 -4.3
v -1.7 3.6 3.8
v -1.7 3.6 3.6
v -1.7 3.6 1.3
v -1.7 3.6 1.1
v -1.7 3.6 -1.1
v -1.7 3.6 -1.3
v -1.7 3.6 -3.6
v -1.7 3.6 -3.8
v -1.6 0.7 5.7
v -1.6 0.7 3.9
v -1.6 0.7 3.5
v -1.6 0.7 1.4
v -1.6 0.7 1
v -1.6 0.7 -1
v -1.6 0.7 -1.4
v -1.6 0.7 -3.5
v -1.6 0.7 -3.9
v -1.6 0.7 -5.7
v -1.6 0.8 4.3
v -1.6 0.8 4.1
v -1.6 0.8 -4.1
v -1.6 0.8 -4.3
v -1.6 1.2 2.9
v -1.6 1.2 2.8
v -1.6 1.2 2.1
v -1.6 1.2 2
v -1.6 1.2 0.2
v -1.6 1.2 0.0999999
v -1.6 1.2 -0.1
v -1.6 1.2 -0.2
v -1.6 1.2 -2
v -1.6 1.2 -2.1
v -1.6 1.2 -2.8
v -1.6 1.2 -2.9
v -1.6 1.4 2.9
v -1.6 1.4 2.8
v -1.6 1.4 2.1
v -1.6 1.4 2
v -1.6 1.4 0.2
v -1.6 1.4 0.0999999
v -1.6 1.4 -0.1
v -1.6 1.4 -0.2
v -1.6 1.4 -2
v -1.6 1.4 -2.1
v -1.6 1.4 -2.8
v -1.6 1.4 -2.9
v -1.6 1.6 3.5
v -1.6 1.6 1.4
v -1.6 1.6 1
v -1.6 1.6 -1
v -1.6 1.6 -1.4
v -1.6 1.6 -3.5
v -1.6 1.7 3.5
v -1.6 1.7 1.4
v -1.6 1.7 1
v -1.6 1.7 -1
v -1.6 1.7 -1.4
v -1.6 1.7 -3.5
v -1.6 2.1 2.9
v -1.6 2.1 2.8
v -1.6 2.1 2.1
v -1.6 2.1 2
v -1.6 2.1 0.2
v -1.6 2.1 0.0999999
v -1.6 2.1 -0.1
v -1.6 2.1 -0.2
v -1.6 2.1 -2
v -1.6 2.1 -2.1
v -1.6 2.1 -2.8
v -1.6 2.1 -2.9
v -1.6 2.3 2.9
v -1.6 2.3 2.8
v -1.6 2.3 2.1
v -1.6 2.3 2
v -1.6 2.3 0.2
v -1.6 2.3 0.0999999
v -1.6 2.3 -0.1
v -1.6 2.3 -0.2
v -1.6 2.3 -2
v -1.6 2.3 -2.1
v -1.6 2.3 -2.8
v -1.6 2.3 -2.9
v -1.6 2.5 3.5
v -1.6 2.5 1.4
v -1.6 2.5 1
v -1.6 2.5 -1
v -1.6 2.5 -1.4
v -1.6 2.5 -3.5
v -1.6 2.6 3.5
v -1.6 2.6 1.4
v -1.6 2.6 1
v -1.6 2.6 -1
v -1.6 2.6 -1.4
v -1.6 2.6 -3.5
v -1.6 3.1 2.9
v -1.6 3.1 2.8
v -1.6 3.1 2.1
v -1.6 3.1 2
v -1.6 3.1 0.2
v -1.6 3.1 0.0999999
v -1.6 3.1 -0.1
v -1.6 3.1 -0.2
v -1.6 3.1 -2
v -1.6 3.1 -2.1
v -1.6 3.1 -2.8
v -1.6 3.1 -2.9
v -1.6 3.3 2.9
v -1.6 3.3 2.8
v -1.6 3.3 2.1
v -1.6 3.3 2
v -1.6 3.3 0.2
v -1.6 3.3 0.0999999
v -1.6 3.3 -0.1
v -1.6 3.3 -0.2
v -1.6 3.3 -2
v -1.6 3.3 -2.1
v -1.6 3.3 -2.8
v -1.6 3.3 -2.9
v -1.6 3.4 4.3
v -1.6 3.4 4.1
v -1.6 3.4 -4.1
v -1.6 3.4 -4.3
v -1.6 3.5 5.7
v -1.6 3.5 3.9
v -1.6 3.5 3.5
v -1.6 3.5 1.4
v -1.6 3.5 1
v -1.6 3.5 -1
v -1.6 3.5 -1.4
v -1.6 3.5 -3.5
v -1.6 3.5 -3.9
v -1.6 3.5 -5.7
v -1.5 0.6 5.8
v -1.5 0.6 3.8
v -1.5 0.6 3.6
v -1.5 0.6 1.3
v -1.5 0.6 1.1
v -1.5 0.6 -1.1
v -1.5 0.6 -1.3
v -1.5 0.6 -3.6
v -1.5 0.6 -3.8
v -1.5 0.6 -5.8
v -1.5 0.7 5.7
v -1.5 0.7 3.9
v -1.5 0.7 3.8
v -1.5 0.7 3.5
v -1.5 0.7 1.4
v -1.5 0.7 1
v -1.5 0.7 -1
v -1.5 0.7 -1.4
v -1.5 0.7 -3.5
v -1.5 0.7 -3.8
v -1.5 0.7 -3.9
v -1.5 0.7 -5.7
v -1.5 1.6 3.5
v -1.5 1.6 1.4
v -1.5 1.6 1
v -1.5 1.6 -1
v -1.5 1.6 -1.4
v -1.5 1.6 -3.5
v -1.5 1.7 3.5
v -1.5 1.7 1.4
v -1.5 1.7 1
v -1.5 1.7 -1
v -1.5 1.7 -1.4
v -1.5 1.7 -3.5
v -1.5 2.5 3.5
v -1.5 2.5 1.4
v -1.5 2.5 1
v -1.5 2.5 -1
v -1.5 2.5 -1.4
v -1.5 2.5 -3.5
v -1.5 2.6 3.5
v -1.5 2.6 1.4
v -1.5 2.6 1
v -1.5 2.6 -1
v -1.5 2.6 -1.4
v -1.5 2.6 -3.5
v -1.5 3.5 5.7
v -1.5 3.5 3.9
v -1.5 3.5 3.8
v -1.5 3.5 3.5
v -1.5 3.5 1.4
v -1.5 3.5 1
v -1.5 3.5 -1
v -1.5 3.5 -1.4
v -1.5 3.5 -3.5
v -1.5 3.5 -3.8
v -1.5 3.5 -3.9
v -1.5 3.5 -5.7
v -1.5 3.6 5.8
v -1.5 3.6 3.8
v -1.5 3.6 3.6
v -1.5 3.6 1.3
v -1.5 3.6 1.1
v -1.5 3.6 -1.1
v -1.5 3.6 -1.3
v -1.5 3.6 -3.6
v -1.5 3.6 -3.8
v -1.5 3.6 -5.8
v -1.7 1.2 2.8
v -1.7 1.2 2.1
v -1.7 1.2 0.0999999
v -1.7 1.2 -0.1
v -1.7 1.2 -2.1
v -1.7 1.2 -2.8
v -1.7 1.4 2.8
v -1.7 1.4 2.1
v -1.7 1.4 0.0999999
v -1.7 1.4 -0.1
v -1.7 1.4 -2.1
v -1.7 1.4 -2.8
v -1.7 2.1 2.8
v -1.7 2.1 2.1
v -1.7 2.1 0.0999999
v -1.7 2.1 -0.1
v -1.7 2.1 -2.1
v -1.7 2.1 -2.8
v -1.7 2.3 2.8
v -1.7 2.3 2.1
v -1.7 2.3 0.0999999
v -1.7 2.3 -0.1
v -1.7 2.3 -2.1
v -1.7 2.3 -2.8
v -1.7 3.1 2.8
v -1.7 3.1 2.1
v -1.7 3.1 0.0999999
v -1.7 3.1 -0.1
v -1.7 3.1 -2.1
v -1.7 3.1 -2.8
v -1.7 3.3 2.8
v -1.7 3.3 2.1
v -1.7 3.3 0.0999999
v -1.7 3.3 -0.1
v -1.7 3.3 -2.1
v -1.7 3.3 -2.8
v 1.6 0.7 5.7
v 1.6 0.7 5.4
v 1.6 0.7 4.9
v 1.6 0.7 4.6
v 1.6 0.7 2.5
v 1.6 0.7 2
v 1.6 0.7 0.6
v 1.6 0.7 0.0999999
v 1.6 0.7 -0.1
v 1.6 0.7 -0.6
v 1.6 0.7 -2
v 1.6 0.7 -2.5
v 1.6 0.7 -4.6
v 1.6 0.7 -4.9
v 1.6 0.7 -5.4
v 1.6 0.7 -5.7
v 1.6 2.9 4.4
v 1.6 2.9 4.3
v 1.6 2.9 -4.3
v 1.6 2.9 -4.4
v 1.6 3 4.5
v 1.6 3 4.4
v 1.6 3 4.3
v 1.6 3 -4.3
v 1.6 3 -4.4
v 1.6 3 -4.5
v 1.6 3.1 4.5
v 1.6 3.1 4.4
v 1.6 3.1 -4.4
v 1.6 3.1 -4.5
v 1.6 3.2 4.1
v 1.6 3.2 4
v 1.6 3.2 -4
v 1.6 3.2 -4.1
v 1.6 3.3 4.1
v 1.6 3.3 4
v 1.6 3.3 -4
v 1.6 3.3 -4.1
v 1.6 3.5 5.7
v 1.6 3.5 4.9
v 1.6 3.5 4.6
v 1.6 3.5 -4.6
v 1.6 3.5 -4.9
v 1.6 3.5 -5.7
v 1.7 0.6 5.8
v 1.7 0.6 5.4
v 1.7 0.6 4.9
v 1.7 0.6 4.8
v 1.7 0.6 4.7
v 1.7 0.6 2.5
v 1.7 0.6 2
v 1.7 0.6 0.6
v 1.7 0.6 0.0999999
v 1.7 0.6 -0.1
v 1.7 0.6 -0.6
v 1.7 0.6 -2
v 1.7 0.6 -2.5
v 1.7 0.6 -4.7
v 1.7 0.6 -4.8
v 1.7 0.6 -4.9
v 1.7 0.6 -5.4
v 1.7 0.6 -5.8
v 1.7 0.7 5.7
v 1.7 0.7 5.4
v 1.7 0.7 4.9
v 1.7 0.7 4.6
v 1.7 0.7 2.5
v 1.7 0.7 2
v 1.7 0.7 0.6
v 1.7 0.7 0.0999999
v 1.7 0.7 -0.1
v 1.7 0.7 -0.6
v 1.7 0.7 -2
v 1.7 0.7 -2.5
v 1.7 0.7 -4.6
v 1.7 0.7 -4.9
v 1.7 0.7 -5.4
v 1.7 0.7 -5.7
v 1.7 3.5 5.7
v 1.7 3.5 4.9
v 1.7 3.5 4.6
v 1.7 3.5 -4.6
v 1.7 3.5 -4.9
v 1.7 3.5 -5.7
v 1.7 3.6 5.8
v 1.7 3.6 4.8
v 1.7 3.6 4.7
v 1.7 3.6 -4.7
v 1.7 3.6 -4.8
v 1.7 3.6 -5.8
v 1.8 0.5 6
v 1.8 0.5 -6
v 1.8 0.6 5.8
v 1.8 0.6 4.8
v 1.8 0.6 4.7
v 1.8 0.6 -4.7
v 1.8 0.6 -4.8
v 1.8 0.6 -5.8
v 1.8 3.6 5.8
v 1.8 3.6 4.8
v 1.8 3.6 4.7
v 1.8 3.6 -4.7
v 1.8 3.6 -4.8
v 1.8 3.6 -5.8
v 1.8 3.7 6
v 1.8 3.7 -6
v 2 0 6
v 2 0 -6
v 2 0.5 6
v 2 0.5 -6
v 2 3.7 6
v 2 3.7 -6
v 2 4 6
v 2 4 -6
v -2 0 6
v -2 0.5 6
v -2 3.7 6
v -2 4 6
v -1.9 3.8 6
v -1.9 4 6
v -1.8 0.5 6
v -1.8 3.7 6
v -1.8 3.8 6
v 1.5 0.7 6
v 1.5 3.5 6
v 1.6 0.6 6
v 1.6 0.7 6
v 1.6 3.5 6
v 1.6 3.6 6
v 1.7 0.6 6
v 1.7 0.7 6
v 1.7 3.5 6
v 1.7 3.6 6
v 1.8 0.5 6
v 1.8 3.7 6
v 1.8 4 6
v 2 0 6
v 2 0.5 6
v 2 3.7 6
v 2 4 6
v -1.6 0.7 5.7
v -1.6 3.5 5.7
v -1.5 0.7 5.7
v -1.5 3.5 5.7
v 1.6 0.7 4.9
v 1.6 3.5 4.9
v 1.7 0.7 4.9
v 1.7 3.5 4.9
v 1.7 0.6 4.8
v 1.7 3.6 4.8
v 1.8 0.6 4.8
v 1.8 3.6 4.8
v -1.7 0.8 4.3
v -1.7 3.4 4.3
v -1.6 0.8 4.3
v -1.6 3.4 4.3
v -1.7 0.6 3.8
v -1.7 3.6 3.8
v -1.6 0.7 3.8
v -1.6 3.5 3.8
v -1.5 0.6 3.8
v -1.5 0.7 3.8
v -1.5 3.5 3.8
v -1.5 3.6 3.8
v -1.6 0.7 3.5
v -1.6 1.6 3.5
v -1.6 1.7 3.5
v -1.6 2.5 3.5
v -1.6 2.6 3.5
v -1.6 3.5 3.5
v -1.5 0.7 3.5
v -1.5 1.6 3.5
v -1.5 1.7 3.5
v -1.5 2.5 3.5
v -1.5 2.6 3.5
v -1.5 3.5 3.5
v -1.8 1.2 2.9
v -1.8 1.4 2.9
v -1.8 2.1 2.9
v -1.8 2.3 2.9
v -1.8 3.1 2.9
v -1.8 3.3 2.9
v -1.6 1.2 2.9
v -1.6 1.4 2.9
v -1.6 2.1 2.9
v -1.6 2.3 2.9
v -1.6 3.1 2.9
v -1.6 3.3 2.9
v -1.7 1.2 2.1
v -1.7 1.4 2.1
v -1.7 2.1 2.1
v -1.7 2.3 2.1
v -1.7 3.1 2.1
v -1.7 3.3 2.1
v -1.6 1.2 2.1
v -1.6 1.4 2.1
v -1.6 2.1 2.1
v -1.6 2.3 2.1
v -1.6 3.1 2.1
v -1.6 3.3 2.1
v -1.7 0.6 1.3
v -1.7 3.6 1.3
v -1.5 0.6 1.3
v -1.5 3.6 1.3
v -1.6 0.7 1
v -1.6 1.6 1
v -1.6 1.7 1
v -1.6 2.5 1
v -1.6 2.6 1
v -1.6 3.5 1
v -1.5 0.7 1
v -1.5 1.6 1
v -1.5 1.7 1
v -1.5 2.5 1
v -1.5 2.6 1
v -1.5 3.5 1
v -1.8 1.2 0.2
v -1.8 1.4 0.2
v -1.8 2.1 0.2
v -1.8 2.3 0.2
v -1.8 3.1 0.2
v -1.8 3.3 0.2
v -1.6 1.2 0.2
v -1.6 1.4 0.2
v -1.6 2.1 0.2
v -1.6 2.3 0.2
v -1.6 3.1 0.2
v -1.6 3.3 0.2
v -1.7 1.2 -0.1
v -1.7 1.4 -0.1
v -1.7 2.1 -0.1
v -1.7 2.3 -0.1
v -1.7 3.1 -0.1
v -1.7 3.3 -0.1
v -1.6 1.2 -0.1
v -1.6 1.4 -0.1
v -1.6 2.1 -0.1
v -1.6 2.3 -0.1
v -1.6 3.1 -0.1
v -1.6 3.3 -0.1
v -1.7 0.6 -1.1
v -1.7 3.6 -1.1
v -1.5 0.6 -1.1
v -1.5 3.6 -1.1
v -1.6 0.7 -1.4
v -1.6 1.6 -1.4
v -1.6 1.7 -1.4
v -1.6 2.5 -1.4
v -1.6 2.6 -1.4
v -1.6 3.5 -1.4
v -1.5 0.7 -1.4
v -1.5 1.6 -1.4
v -1.5 1.7 -1.4
v -1.5 2.5 -1.4
v -1.5 2.6 -1.4
v -1.5 3.5 -1.4
v -1.8 1.2 -2
v -1.8 1.4 -2
v -1.8 2.1 -2
v -1.8 2.3 -2
v -1.8 3.1 -2
v -1.8 3.3 -2
v -1.6 1.2 -2
v -1.6 1.4 -2
v -1.6 2.1 -2
v -1.6 2.3 -2
v -1.6 3.1 -2
v -1.6 3.3 -2
v -1.7 1.2 -2.8
v -1.7 1.4 -2.8
v -1.7 2.1 -2.8
v -1.7 2.3 -2.8
v -1.7 3.1 -2.8
v -1.7 3.3 -2.8
v -1.6 1.2 -2.8
v -1.6 1.4 -2.8
v -1.6 2.1 -2.8
v -1.6 2.3 -2.8
v -1.6 3.1 -2.8
v -1.6 3.3 -2.8
v -1.7 0.6 -3.6
v -1.7 3.6 -3.6
v -1.5 0.6 -3.6
v -1.5 3.6 -3.6
v -1.6 0.7 -3.9
v -1.6 3.5 -3.9
v -1.5 0.7 -3.9
v -1.5 3.5 -3.9
v -1.7 0.8 -4.1
v -1.7 3.4 -4.1
v -1.6 0.8 -4.1
v -1.6 3.4 -4.1
v 1.6 0.7 -4.6
v 1.6 3.5 -4.6
v 1.7 0.7 -4.6
v 1.7 3.5 -4.6
v 1.7 0.6 -4.7
v 1.7 3.6 -4.7
v 1.8 0.6 -4.7
v 1.8 3.6 -4.7
v 1.6 0.7 -5.7
v 1.6 3.5 -5.7
v 1.7 0.7 -5.7
v 1.7 3.5 -5.7
v -1.8 0.6 -5.8
v -1.8 3.6 -5.8
v -1.5 0.6 -5.8
v -1.5 3.6 -5.8
v 1.7 0.6 -5.8
v 1.7 3.6 -5.8
v 1.8 0.6 -5.8
v 1.8 3.6 -5.8
v -1.8 0.6 5.8
v -1.8 3.6 5.8
v -1.5 0.6 5.8
v -1.5 3.6 5.8
v 1.7 0.6 5.8
v 1.7 3.6 5.8
v 1.8 0.6 5.8
v 1.8 3.6 5.8
v 1.6 0.7 5.7
v 1.6 3.5 5.7
v 1.7 0.7 5.7
v 1.7 3.5 5.7
v 1.7 0.6 4.7
v 1.7 3.6 4.7
v 1.8 0.6 4.7
v 1.8 3.6 4.7
v 1.6 0.7 4.6
v 1.6 3.5 4.6
v 1.7 0.7 4.6
v 1.7 3.5 4.6
v -1.7 0.8 4.1
v -1.7 3.4 4.1
v -1.6 0.8 4.1
v -1.6 3.4 4.1
v -1.6 0.7 3.9
v -1.6 3.5 3.9
v -1.5 0.7 3.9
v -1.5 3.5 3.9
v -1.7 0.6 3.6
v -1.7 3.6 3.6
v -1.5 0.6 3.6
v -1.5 3.6 3.6
v -1.7 1.2 2.8
v -1.7 1.4 2.8
v -1.7 2.1 2.8
v -1.7 2.3 2.8
v -1.7 3.1 2.8
v -1.7 3.3 2.8
v -1.6 1.2 2.8
v -1.6 1.4 2.8
v -1.6 2.1 2.8
v -1.6 2.3 2.8
v -1.6 3.1 2.8
v -1.6 3.3 2.8
v -1.8 1.2 2
v -1.8 1.4 2
v -1.8 2.1 2
v -1.8 2.3 2
v -1.8 3.1 2
v -1.8 3.3 2
v -1.6 1.2 2
v -1.6 1.4 2
v -1.6 2.1 2
v -1.6 2.3 2
v -1.6 3.1 2
v -1.6 3.3 2
v -1.6 0.7 1.4
v -1.6 1.6 1.4
v -1.6 1.7 1.4
v -1.6 2.5 1.4
v -1.6 2.6 1.4
v -1.6 3.5 1.4
v -1.5 0.7 1.4
v -1.5 1.6 1.4
v -1.5 1.7 1.4
v -1.5 2.5 1.4
v -1.5 2.6 1.4
v -1.5 3.5 1.4
v -1.7 0.6 1.1
v -1.7 3.6 1.1
v -1.5 0.6 1.1
v -1.5 3.6 1.1
v -1.7 1.2 0.0999999
v -1.7 1.4 0.0999999
v -1.7 2.1 0.0999999
v -1.7 2.3 0.0999999
v -1.7 3.1 0.0999999
v -1.7 3.3 0.0999999
v -1.6 1.2 0.0999999
v -1.6 1.4 0.0999999
v -1.6 2.1 0.0999999
v -1.6 2.3 0.0999999
v -1.6 3.1 0.0999999
v -1.6 3.3 0.0999999
v -1.8 1.2 -0.2
v -1.8 1.4 -0.2
v -1.8 2.1 -0.2
v -1.8 2.3 -0.2
v -1.8 3.1 -0.2
v -1.8 3.3 -0.2
v -1.6 1.2 -0.2
v -1.6 1.4 -0.2
v -1.6 2.1 -0.2
v -1.6 2.3 -0.2
v -1.6 3.1 -0.2
v -1.6 3.3 -0.2
v -1.6 0.7 -1
v -1.6 1.6 -1
v -1.6 1.7 -1
v -1.6 2.5 -1
v -1.6 2.6 -1
v -1.6 3.5 -1
v -1.5 0.7 -1
v -1.5 1.6 -1
v -1.5 1.7 -1
v -1.5 2.5 -1
v -1.5 2.6 -1
v -1.5 3.5 -1
v -1.7 0.6 -1.3
v -1.7 3.6 -1.3
v -1.5 0.6 -1.3
v -1.5 3.6 -1.3
v -1.7 1.2 -2.1
v -1.7 1.4 -2.1
v -1.7 2.1 -2.1
v -1.7 2.3 -2.1
v -1.7 3.1 -2.1
v -1.7 3.3 -2.1
v -1.6 1.2 -2.1
v -1.6 1.4 -2.1
v -1.6 2.1 -2.1
v -1.6 2.3 -2.1
v -1.6 3.1 -2.1
v -1.6 3.3 -2.1
v -1.8 1.2 -2.9
v -1.8 1.4 -2.9
v -1.8 2.1 -2.9
v -1.8 2.3 -2.9
v -1.8 3.1 -2.9
v -1.8 3.3 -2.9
v -1.6 1.2 -2.9
v -1.6 1.4 -2.9
v -1.6 2.1 -2.9
v -1.6 2.3 -2.9
v -1.6 3.1 -2.9
v -1.6 3.3 -2.9
v -1.6 0.7 -3.5
v -1.6 1.6 -3.5
v -1.6 1.7 -3.5
v -1.6 2.5 -3.5
v -1.6 2.6 -3.5
v -1.6 3.5 -3.5
v -1.5 0.7 -3.5
v -1.5 1.6 -3.5
v -1.5 1.7 -3.5
v -1.5 2.5 -3.5
v -1.5 2.6 -3.5
v -1.5 3.5 -3.5
v -1.7 0.6 -3.8
v -1.7 3.6 -3.8
v -1.6 0.7 -3.8
v -1.6 3.5 -3.8
v -1.5 0.6 -3.8
v -1.5 0.7 -3.8
v -1.5 3.5 -3.8
v -1.5 3.6 -3.8
v -1.7 0.8 -4.3
v -1.7 3.4 -4.3
v -1.6 0.8 -4.3
v -1.6 3.4 -4.3
v 1.7 0.6 -4.8
v 1.7 3.6 -4.8
v 1.8 0.6 -4.8
v 1.8 3.6 -4.8
v 1.6 0.7 -4.9
v 1.6 3.5 -4.9
v 1.7 0.7 -4.9
v 1.7 3.5 -4.9
v -1.6 0.7 -5.7
v -1.6 3.5 -5.7
v -1.5 0.7 -5.7
v -1.5 3.5 -5.7
v -2 0 -6
v -2 0.5 -6
v -2 3.7 -6
v -2 4 -6
v -1.9 3.8 -6
v -1.9 4 -6
v -1.8 0.5 -6
v -1.8 3.7 -6
v -1.8 3.8 -6
v 1.5 0.7 -6
v 1.5 3.5 -6
v 1.6 0.6 -6
v 1.6 0.7 -6
v 1.6 3.5 -6
v 1.6 3.6 -6
v 1.7 0.6 -6
v 1.7 0.7 -6
v 1.7 3.5 -6
v 1.7 3.6 -6
v 1.8 0.5 -6
v 1.8 3.7 -6
v 1.8 4 -6
v 2 0 -6
v 2 0.5 -6
v 2 3.7 -6
v 2 4 -6
v -2 0 6
v 2 0 6
v -2 0 -6
v 2 0 -6
v -1.6 0.7 5.7
v -1.5 0.7 5.7
v -1.6 0.7 3.9
v -1.5 0.7 3.9
v -1.6 0.7 3.5
v -1.5 0.7 3.5
v -1.6 0.7 1.4
v -1.5 0.7 1.4
v -1.6 0.7 1
v -1.5 0.7 1
v -1.6 0.7 -1
v -1.5 0.7 -1
v -1.6 0.7 -1.4
v -1.5 0.7 -1.4
v -1.6 0.7 -3.5
v -1.5 0.7 -3.5
v -1.6 0.7 -3.9
v -1.5 0.7 -3.9
v -1.6 0.7 -5.7
v -1.5 0.7 -5.7
v -1.7 0.8 4.3
v -1.6 0.8 4.3
v -1.7 0.8 4.1
v -1.6 0.8 4.1
v -1.7 0.8 -4.1
v -1.6 0.8 -4.1
v -1.7 0.8 -4.3
v -1.6 0.8 -4.3
v -1.8 1.2 2.9
v -1.6 1.2 2.9
v -1.7 1.2 2.8
v -1.6 1.2 2.8
v -1.7 1.2 2.1
v -1.6 1.2 2.1
v -1.8 1.2 2
v -1.6 1.2 2
v -1.8 1.2 0.2
v -1.6 1.2 0.2
v -1.7 1.2 0.0999999
v -1.6 1.2 0.0999999
v -1.7 1.2 -0.1
v -1.6 1.2 -0.1
v -1.8 1.2 -0.2
v -1.6 1.2 -0.2
v -1.8 1.2 -2
v -1.6 1.2 -2
v -1.7 1.2 -2.1
v -1.6 1.2 -2.1
v -1.7 1.2 -2.8
v -1.6 1.2 -2.8
v -1.8 1.2 -2.9
v -1.6 1.2 -2.9
v -1.6 1.7 3.5
v -1.5 1.7 3.5
v -1.6 1.7 1.4
v -1.5 1.7 1.4
v -1.6 1.7 1
v -1.5 1.7 1
v -1.6 1.7 -1
v -1.5 1.7 -1
v -1.6 1.7 -1.4
v -1.5 1.7 -1.4
v -1.6 1.7 -3.5
v -1.5 1.7 -3.5
v -1.8 2.1 2.9
v -1.6 2.1 2.9
v -1.7 2.1 2.8
v -1.6 2.1 2.8
v -1.7 2.1 2.1
v -1.6 2.1 2.1
v -1.8 2.1 2
v -1.6 2.1 2
v -1.8 2.1 0.2
v -1.6 2.1 0.2
v -1.7 2.1 0.0999999
v -1.6 2.1 0.0999999
v -1.7 2.1 -0.1
v -1.6 2.1 -0.1
v -1.8 2.1 -0.2
v -1.6 2.1 -0.2
v -1.8 2.1 -2
v -1.6 2.1 -2
v -1.7 2.1 -2.1
v -1.6 2.1 -2.1
v -1.7 2.1 -2.8
v -1.6 2.1 -2.8
v -1.8 2.1 -2.9
v -1.6 2.1 -2.9
v -1.6 2.6 3.5
v -1.5 2.6 3.5
v -1.6 2.6 1.4
v -1.5 2.6 1.4
v -1.6 2.6 1
v -1.5 2.6 1
v -1.6 2.6 -1
v -1.5 2.6 -1
v -1.6 2.6 -1.4
v -1.5 2.6 -1.4
v -1.6 2.6 -3.5
v -1.5 2.6 -3.5
v -1.8 3.1 2.9
v -1.6 3.1 2.9
v -1.7 3.1 2.8
v -1.6 3.1 2.8
v -1.7 3.1 2.1
v -1.6 3.1 2.1
v -1.8 3.1 2
v -1.6 3.1 2
v -1.8 3.1 0.2
v -1.6 3.1 0.2
v -1.7 3.1 0.0999999
v -1.6 3.1 0.0999999
v -1.7 3.1 -0.1
v -1.6 3.1 -0.1
v -1.8 3.1 -0.2
v -1.6 3.1 -0.2
v -1.8 3.1 -2
v -1.6 3.1 -2
v -1.7 3.1 -2.1
v -1.6 3.1 -2.1
v -1.7 3.1 -2.8
v -1.6 3.1 -2.8
v -1.8 3.1 -2.9
v -1.6 3.1 -2.9
v 1.6 3.5 5.7
v 1.7 3.5 5.7
v 1.6 3.5 4.9
v 1.7 3.5 4.9
v 1.6 3.5 4.6
v 1.7 3.5 4.6
v 1.6 3.5 -4.6
v 1.7 3.5 -4.6
v 1.6 3.5 -4.9
v 1.7 3.5 -4.9
v 1.6 3.5 -5.7
v 1.7 3.5 -5.7
v -1.8 3.6 5.8
v -1.5 3.6 5.8
v 1.7 3.6 5.8
v 1.8 3.6 5.8
v 1.7 3.6 4.8
v 1.8 3.6 4.8
v 1.7 3.6 4.7
v 1.8 3.6 4.7
v -1.7 3.6 3.8
v -1.5 3.6 3.8
v -1.7 3.6 3.6
v -1.5 3.6 3.6
v -1.7 3.6 1.3
v -1.5 3.6 1.3
v -1.7 3.6 1.1
v -1.5 3.6 1.1
v -1.7 3.6 -1.1
v -1.5 3.6 -1.1
v -1.7 3.6 -1.3
v -1.5 3.6 -1.3
v -1.7 3.6 -3.6
v -1.5 3.6 -3.6
v -1.7 3.6 -3.8
v -1.5 3.6 -3.8
v 1.7 3.6 -4.7
v 1.8 3.6 -4.7
v 1.7 3.6 -4.8
v 1.8 3.6 -4.8
v -1.8 3.6 -5.8
v -1.5 3.6 -5.8
v 1.7 3.6 -5.8
v 1.8 3.6 -5.8
v -2 3.7 6
v -1.8 3.7 6
v 1.8 3.7 6
v 2 3.7 6
v -2 3.7 -6
v -1.8 3.7 -6
v 1.8 3.7 -6
v 2 3.7 -6
v -2 0.5 6
v -1.8 0.5 6
v 1.8 0.5 6
v 2 0.5 6
v -2 0.5 -6
v -1.8 0.5 -6
v 1.8 0.5 -6
v 2 0.5 -6
v -1.8 0.6 5.8
v -1.5 0.6 5.8
v 1.7 0.6 5.8
v 1.8 0.6 5.8
v 1.7 0.6 5.4
v 1.7 0.6 4.9
v 1.7 0.6 4.8
v 1.8 0.6 4.8
v 1.7 0.6 4.7
v 1.8 0.6 4.7
v -1.7 0.6 3.8
v -1.5 0.6 3.8
v -1.7 0.6 3.6
v -1.5 0.6 3.6
v 1.7 0.6 2.5
v 1.7 0.6 2
v -1.7 0.6 1.3
v -1.5 0.6 1.3
v -1.7 0.6 1.1
v -1.5 0.6 1.1
v 1.7 0.6 0.6
v 1.7 0.6 0.0999999
v 1.7 0.6 -0.1
v 1.7 0.6 -0.6
v -1.7 0.6 -1.1
v -1.5 0.6 -1.1
v -1.7 0.6 -1.3
v -1.5 0.6 -1.3
v 1.7 0.6 -2
v 1.7 0.6 -2.5
v -1.7 0.6 -3.6
v -1.5 0.6 -3.6
v -1.7 0.6 -3.8
v -1.5 0.6 -3.8
v 1.7 0.6 -4.7
v 1.8 0.6 -4.7
v 1.7 0.6 -4.8
v 1.8 0.6 -4.8
v 1.7 0.6 -4.9
v 1.7 0.6 -5.4
v -1.8 0.6 -5.8
v -1.5 0.6 -5.8
v 1.7 0.6 -5.8
v 1.8 0.6 -5.8
v 1.6 0.7 5.7
v 1.7 0.7 5.7
v 1.6 0.7 5.4
v 1.7 0.7 5.4
v 1.6 0.7 4.9
v 1.7 0.7 4.9
v 1.6 0.7 4.6
v 1.7 0.7 4.6
v 1.6 0.7 2.5
v 1.7 0.7 2.5
v 1.6 0.7 2
v 1.7 0.7 2
v 1.6 0.7 0.6
v 1.7 0.7 0.6
v 1.6 0.7 0.0999999
v 1.7 0.7 0.0999999
v 1.6 0.7 -0.1
v 1.7 0.7 -0.1
v 1.6 0.7 -0.6
v 1.7 0.7 -0.6
v 1.6 0.7 -2
v 1.7 0.7 -2
v 1.6 0.7 -2.5
v 1.7 0.7 -2.5
v 1.6 0.7 -4.6
v 1.7 0.7 -4.6
v 1.6 0.7 -4.9
v 1.7 0.7 -4.9
v 1.6 0.7 -5.4
v 1.7 0.7 -5.4
v 1.6 0.7 -5.7
v 1.7 0.7 -5.7
v -1.8 1.4 2.9
v -1.6 1.4 2.9
v -1.7 1.4 2.8
v -1.6 1.4 2.8
v -1.7 1.4 2.1
v -1.6 1.4 2.1
v -1.8 1.4 2
v -1.6 1.4 2
v -1.8 1.4 0.2
v -1.6 1.4 0.2
v -1.7 1.4 0.0999999
v -1.6 1.4 0.0999999
v -1.7 1.4 -0.1
v -1.6 1.4 -0.1
v -1.8 1.4 -0.2
v -1.6 1.4 -0.2
v -1.8 1.4 -2
v -1.6 1.4 -2
v -1.7 1.4 -2.1
v -1.6 1.4 -2.1
v -1.7 1.4 -2.8
v -1.6 1.4 -2.8
v -1.8 1.4 -2.9
v -1.6 1.4 -2.9
v -1.6 1.6 3.5
v -1.5 1.6 3.5
v -1.6 1.6 1.4
v -1.5 1.6 1.4
v -1.6 1.6 1
v -1.5 1.6 1
v -1.6 1.6 -1
v -1.5 1.6 -1
v -1.6 1.6 -1.4
v -1.5 1.6 -1.4
v -1.6 1.6 -3.5
v -1.5 1.6 -3.5
v -1.8 2.3 2.9
v -1.6 2.3 2.9
v -1.7 2.3 2.8
v -1.6 2.3 2.8
v -1.7 2.3 2.1
v -1.6 2.3 2.1
v -1.8 2.3 2
v -1.6 2.3 2
v -1.8 2.3 0.2
v -1.6 2.3 0.2
v -1.7 2.3 0.0999999
v -1.6 2.3 0.0999999
v -1.7 2.3 -0.1
v -1.6 2.3 -0.1
v -1.8 2.3 -0.2
v -1.6 2.3 -0.2
v -1.8 2.3 -2
v -1.6 2.3 -2
v -1.7 2.3 -2.1
v -1.6 2.3 -2.1
v -1.7 2.3 -2.8
v -1.6 2.3 -2.8
v -1.8 2.3 -2.9
v -1.6 2.3 -2.9
v -1.6 2.5 3.5
v -1.5 2.5 3.5
v -1.6 2.5 1.4
v -1.5 2.5 1.4
v -1.6 2.5 1
v -1.5 2.5 1
v -1.6 2.5 -1
v -1.5 2.5 -1
v -1.6 2.5 -1.4
v -1.5 2.5 -1.4
v -1.6 2.5 -3.5
v -1.5 2.5 -3.5
v -1.8 3.3 2.9
v -1.6 3.3 2.9
v -1.7 3.3 2.8
v -1.6 3.3 2.8
v -1.7 3.3 2.1
v -1.6 3.3 2.1
v -1.8 3.3 2
v -1.6 3.3 2
v -1.8 3.3 0.2
v -1.6 3.3 0.2
v -1.7 3.3 0.0999999
v -1.6 3.3 0.0999999
v -1.7 3.3 -0.1
v -1.6 3.3 -0.1
v -1.8 3.3 -0.2
v -1.6 3.3 -0.2
v -1.8 3.3 -2
v -1.6 3.3 -2
v -1.7 3.3 -2.1
v -1.6 3.3 -2.1
v -1.7 3.3 -2.8
v -1.6 3.3 -2.8
v -1.8 3.3 -2.9
v -1.6 3.3 -2.9
v -1.7 3.4 4.3
v -1.6 3.4 4.3
v -1.7 3.4 4.1
v -1.6 3.4 4.1
v -1.7 3.4 -4.1
v -1.6 3.4 -4.1
v -1.7 3.4 -4.3
v -1.6 3.4 -4.3
v -1.6 3.5 5.7
v -1.5 3.5 5.7
v -1.6 3.5 3.9
v -1.5 3.5 3.9
v -1.6 3.5 3.5
v -1.5 3.5 3.5
v -1.6 3.5 1.4
v -1.5 3.5 1.4
v -1.6 3.5 1
v -1.5 3.5 1
v -1.6 3.5 -1
v -1.5 3.5 -1
v -1.6 3.5 -1.4
v -1.5 3.5 -1.4
v -1.6 3.5 -3.5
v -1.5 3.5 -3.5
v -1.6 3.5 -3.9
v -1.5 3.5 -3.9
v -1.6 3.5 -5.7
v -1.5 3.5 -5.7
v -2 4 6
v -1.9 4 6
v 1.8 4 6
v 2 4 6
v -2 4 -6
v -1.9 4 -6
v 1.8 4 -6
v 2 4 -6

# faces
f 3/3/1 2/3/1 1/3/1
f 4/3/1 2/3/1 3/3/1
f 7/7/1 6/7/1 5/7/1
f 8/7/1 6/7/1 7/7/1
f 11/4/1 10/4/1 9/4/1
f 12/4/1 10/4/1 11/4/1
f 19/1/1 14/1/1 13/1/1
f 20/1/1 14/1/1 19/1/1
f 21/1/1 16/1/1 15/1/1
f 22/1/1 16/1/1 21/1/1
f 23/1/1 18/1/1 17/1/1
f 24/1/1 18/1/1 23/1/1
f 31/1/1 26/1/1 25/1/1
f 32/1/1 26/1/1 31/1/1
f 33/1/1 28/1/1 27/1/1
f 34/1/1 28/1/1 33/1/1
f 35/1/1 30/1/1 29/1/1
f 36/1/1 30/1/1 35/1/1
f 43/1/1 38/1/1 37/1/1
f 44/1/1 38/1/1 43/1/1
f 45/1/1 40/1/1 39/1/1
f 46/1/1 40/1/1 45/1/1
f 47/1/1 42/1/1 41/1/1
f 48/1/1 42/1/1 47/1/1
f 49/4/1 11/4/1 9/4/1
f 50/4/1 10/4/1 12/4/1
f 51/4/1 49/4/1 9/4/1
f 51/4/1 50/4/1 49/4/1
f 52/4/1 10/4/1 50/4/1
f 52/4/1 50/4/1 51/4/1
f 65/1/1 62/1/1 61/1/1
f 66/1/1 62/1/1 65/1/1
f 67/1/1 64/1/1 63/1/1
f 68/1/1 64/1/1 67/1/1
f 69/4/1 54/4/1 53/4/1
f 70/4/1 54/4/1 69/4/1
f 71/5/1 56/5/1 55/5/1
f 72/5/1 56/5/1 71/5/1
f 73/5/1 58/5/1 57/5/1
f 74/5/1 58/5/1 73/5/1
f 75/4/1 60/4/1 59/4/1
f 76/4/1 60/4/1 75/4/1
f 87/4/1 78/4/1 77/4/1
f 88/4/1 78/4/1 87/4/1
f 89/4/1 86/4/1 85/4/1
f 90/4/1 86/4/1 89/4/1
f 91/4/1 80/4/1 79/4/1
f 92/4/1 80/4/1 91/4/1
f 93/4/1 80/4/1 92/4/1
f 94/4/1 80/4/1 93/4/1
f 95/4/1 82/4/1 81/4/1
f 96/4/1 82/4/1 95/4/1
f 97/4/1 82/4/1 96/4/1
f 98/4/1 82/4/1 97/4/1
f 99/4/1 84/4/1 83/4/1
f 100/4/1 84/4/1 99/4/1
f 101/4/1 84/4/1 100/4/1
f 102/4/1 84/4/1 101/4/1
f 103/4/1 91/4/1 79/4/1
f 104/4/1 93/4/1 92/4/1
f 105/4/1 93/4/1 104/4/1
f 106/4/1 80/4/1 94/4/1
f 107/4/1 95/4/1 81/4/1
f 108/4/1 97/4/1 96/4/1
f 109/4/1 97/4/1 108/4/1
f 110/4/1 82/4/1 98/4/1
f 111/4/1 99/4/1 83/4/1
f 112/4/1 101/4/1 100/4/1
f 113/4/1 101/4/1 112/4/1
f 114/4/1 84/4/1 102/4/1
f 115/4/1 105/4/1 104/4/1
f 115/4/1 103/4/1 79/4/1
f 115/4/1 106/4/1 105/4/1
f 115/4/1 104/4/1 103/4/1
f 116/4/1 80/4/1 106/4/1
f 116/4/1 106/4/1 115/4/1
f 117/4/1 109/4/1 108/4/1
f 117/4/1 110/4/1 109/4/1
f 117/4/1 107/4/1 81/4/1
f 117/4/1 108/4/1 107/4/1
f 118/4/1 82/4/1 110/4/1
f 118/4/1 110/4/1 117/4/1
f 119/4/1 114/4/1 113/4/1
f 119/4/1 113/4/1 112/4/1
f 119/4/1 111/4/1 83/4/1
f 119/4/1 112/4/1 111/4/1
f 120/4/1 84/4/1 114/4/1
f 120/4/1 114/4/1 119/4/1
f 127/4/1 122/4/1 121/4/1
f 128/4/1 122/4/1 127/4/1
f 129/4/1 122/4/1 128/4/1
f 130/4/1 122/4/1 129/4/1
f 131/4/1 124/4/1 123/4/1
f 132/4/1 124/4/1 131/4/1
f 133/4/1 124/4/1 132/4/1
f 134/4/1 124/4/1 133/4/1
f 135/4/1 126/4/1 125/4/1
f 136/4/1 126/4/1 135/4/1
f 137/4/1 126/4/1 136/4/1
f 138/4/1 126/4/1 137/4/1
f 139/4/1 127/4/1 121/4/1
f 140/4/1 129/4/1 128/4/1
f 141/4/1 129/4/1 140/4/1
f 142/4/1 122/4/1 130/4/1
f 143/4/1 131/4/1 123/4/1
f 144/4/1 133/4/1 132/4/1
f 145/4/1 133/4/1 144/4/1
f 146/4/1 124/4/1 134/4/1
f 147/4/1 135/4/1 125/4/1
f 148/4/1 137/4/1 136/4/1
f 149/4/1 137/4/1 148/4/1
f 150/4/1 126/4/1 138/4/1
f 151/4/1 141/4/1 140/4/1
f 151/4/1 139/4/1 121/4/1
f 151/4/1 142/4/1 141/4/1
f 151/4/1 140/4/1 139/4/1
f 152/4/1 122/4/1 142/4/1
f 152/4/1 142/4/1 151/4/1
f 153/4/1 145/4/1 144/4/1
f 153/4/1 146/4/1 145/4/1
f 153/4/1 143/4/1 123/4/1
f 153/4/1 144/4/1 143/4/1
f 154/4/1 124/4/1 146/4/1
f 154/4/1 146/4/1 153/4/1
f 155/4/1 150/4/1 149/4/1
f 155/4/1 149/4/1 148/4/1
f 155/4/1 147/4/1 125/4/1
f 155/4/1 148/4/1 147/4/1
f 156/4/1 126/4/1 150/4/1
f 156/4/1 150/4/1 155/4/1
f 163/4/1 158/4/1 157/4/1
f 164/4/1 158/4/1 163/4/1
f 165/4/1 158/4/1 164/4/1
f 166/4/1 158/4/1 165/4/1
f 167/4/1 160/4/1 159/4/1
f 168/4/1 160/4/1 167/4/1
f 169/4/1 160/4/1 168/4/1
f 170/4/1 160/4/1 169/4/1
f 171/4/1 162/4/1 161/4/1
f 172/4/1 162/4/1 171/4/1
f 173/4/1 162/4/1 172/4/1
f 174/4/1 162/4/1 173/4/1
f 175/4/1 163/4/1 157/4/1
f 176/4/1 165/4/1 164/4/1
f 177/4/1 165/4/1 176/4/1
f 178/4/1 158/4/1 166/4/1
f 179/4/1 167/4/1 159/4/1
f 180/4/1 169/4/1 168/4/1
f 181/4/1 169/4/1 180/4/1
f 182/4/1 160/4/1 170/4/1
f 183/4/1 171/4/1 161/4/1
f 184/4/1 173/4/1 172/4/1
f 185/4/1 173/4/1 184/4/1
f 186/4/1 162/4/1 174/4/1
f 187/4/1 87/4/1 77/4/1
f 188/4/1 78/4/1 88/4/1
f 189/4/1 89/4/1 85/4/1
f 190/4/1 86/4/1 90/4/1
f 191/4/1 187/4/1 77/4/1
f 191/4/1 188/4/1 187/4/1
f 192/4/1 78/4/1 188/4/1
f 192/4/1 188/4/1 191/4/1
f 193/4/1 177/4/1 176/4/1
f 193/4/1 175/4/1 157/4/1
f 193/4/1 178/4/1 177/4/1
f 193/4/1 176/4/1 175/4/1
f 194/4/1 158/4/1 178/4/1
f 194/4/1 178/4/1 193/4/1
f 195/4/1 181/4/1 180/4/1
f 195/4/1 182/4/1 181/4/1
f 195/4/1 179/4/1 159/4/1
f 195/4/1 180/4/1 179/4/1
f 196/4/1 160/4/1 182/4/1
f 196/4/1 182/4/1 195/4/1
f 197/4/1 186/4/1 185/4/1
f 197/4/1 185/4/1 184/4/1
f 197/4/1 183/4/1 161/4/1
f 197/4/1 184/4/1 183/4/1
f 198/4/1 162/4/1 186/4/1
f 198/4/1 186/4/1 197/4/1
f 199/4/1 190/4/1 189/4/1
f 199/4/1 189/4/1 85/4/1
f 200/4/1 86/4/1 190/4/1
f 200/4/1 190/4/1 199/4/1
f 211/2/1 202/2/1 201/2/1
f 212/2/1 202/2/1 211/2/1
f 213/2/1 202/2/1 212/2/1
f 214/2/1 204/2/1 203/2/1
f 215/2/1 204/2/1 214/2/1
f 216/2/1 206/2/1 205/2/1
f 217/2/1 206/2/1 216/2/1
f 218/2/1 208/2/1 207/2/1
f 219/2/1 208/2/1 218/2/1
f 220/2/1 210/2/1 209/2/1
f 221/2/1 210/2/1 220/2/1
f 222/2/1 210/2/1 221/2/1
f 223/2/1 214/2/1 203/2/1
f 224/2/1 204/2/1 215/2/1
f 225/2/1 216/2/1 205/2/1
f 226/2/1 206/2/1 217/2/1
f 227/2/1 218/2/1 207/2/1
f 228/2/1 208/2/1 219/2/1
f 229/2/1 223/2/1 203/2/1
f 229/2/1 224/2/1 223/2/1
f 230/2/1 204/2/1 224/2/1
f 230/2/1 224/2/1 229/2/1
f 231/2/1 225/2/1 205/2/1
f 231/2/1 226/2/1 225/2/1
f 232/2/1 206/2/1 226/2/1
f 232/2/1 226/2/1 231/2/1
f 233/2/1 227/2/1 207/2/1
f 233/2/1 228/2/1 227/2/1
f 234/2/1 208/2/1 228/2/1
f 234/2/1 228/2/1 233/2/1
f 235/2/1 229/2/1 203/2/1
f 236/2/1 204/2/1 230/2/1
f 237/2/1 231/2/1 205/2/1
f 238/2/1 206/2/1 232/2/1
f 239/2/1 233/2/1 207/2/1
f 240/2/1 208/2/1 234/2/1
f 241/2/1 235/2/1 203/2/1
f 241/2/1 236/2/1 235/2/1
f 242/2/1 204/2/1 236/2/1
f 242/2/1 236/2/1 241/2/1
f 243/2/1 237/2/1 205/2/1
f 243/2/1 238/2/1 237/2/1
f 244/2/1 206/2/1 238/2/1
f 244/2/1 238/2/1 243/2/1
f 245/2/1 239/2/1 207/2/1
f 245/2/1 240/2/1 239/2/1
f 246/2/1 208/2/1 240/2/1
f 246/2/1 240/2/1 245/2/1
f 247/2/1 211/2/1 201/2/1
f 248/2/1 213/2/1 212/2/1
f 249/2/1 213/2/1 248/2/1
f 250/2/1 241/2/1 203/2/1
f 251/2/1 204/2/1 242/2/1
f 252/2/1 243/2/1 205/2/1
f 253/2/1 206/2/1 244/2/1
f 254/2/1 245/2/1 207/2/1
f 255/2/1 208/2/1 246/2/1
f 256/2/1 221/2/1 220/2/1
f 257/2/1 221/2/1 256/2/1
f 258/2/1 210/2/1 222/2/1
f 259/2/1 247/2/1 201/2/1
f 259/2/1 249/2/1 248/2/1
f 259/2/1 248/2/1 247/2/1
f 260/2/1 249/2/1 259/2/1
f 261/2/1 250/2/1 203/2/1
f 261/2/1 251/2/1 250/2/1
f 262/2/1 204/2/1 251/2/1
f 262/2/1 251/2/1 261/2/1
f 263/2/1 252/2/1 205/2/1
f 263/2/1 253/2/1 252/2/1
f 264/2/1 206/2/1 253/2/1
f 264/2/1 253/2/1 263/2/1
f 265/2/1 254/2/1 207/2/1
f 265/2/1 255/2/1 254/2/1
f 266/2/1 208/2/1 255/2/1
f 266/2/1 255/2/1 265/2/1
f 267/2/1 258/2/1 257/2/1
f 267/2/1 257/2/1 256/2/1
f 268/2/1 210/2/1 258/2/1
f 268/2/1 258/2/1 267/2/1
f 269/1/2 270/1/2 275/1/2
f 275/1/2 270/1/2 276/1/2
f 271/1/2 272/1/2 277/1/2
f 277/1/2 272/1/2 278/1/2
f 273/1/2 274/1/2 279/1/2
f 279/1/2 274/1/2 280/1/2
f 281/1/2 282/1/2 287/1/2
f 287/1/2 282/1/2 288/1/2
f 283/1/2 284/1/2 289/1/2
f 289/1/2 284/1/2 290/1/2
f 285/1/2 286/1/2 291/1/2
f 291/1/2 286/1/2 292/1/2
f 293/1/2 294/1/2 299/1/2
f 299/1/2 294/1/2 300/1/2
f 295/1/2 296/1/2 301/1/2
f 301/1/2 296/1/2 302/1/2
f 297/1/2 298/1/2 303/1/2
f 303/1/2 298/1/2 304/1/2
f 308/5/2 309/5/2 321/5/2
f 309/5/2 310/5/2 321/5/2
f 310/5/2 311/5/2 321/5/2
f 316/5/2 317/5/2 321/5/2
f 315/5/2 316/5/2 321/5/2
f 314/5/2 315/5/2 321/5/2
f 313/5/2 314/5/2 321/5/2
f 312/5/2 313/5/2 321/5/2
f 311/5/2 312/5/2 321/5/2
f 321/5/2 317/5/2 322/5/2
f 322/5/2 317/5/2 323/5/2
f 323/5/2 317/5/2 324/5/2
f 308/5/2 321/5/2 325/5/2
f 321/6/2 322/6/2 326/6/2
f 325/5/2 321/5/2 326/5/2
f 322/5/2 323/5/2 327/5/2
f 326/6/2 322/6/2 327/6/2
f 323/6/2 324/6/2 328/6/2
f 327/5/2 323/5/2 328/5/2
f 324/5/2 317/5/2 329/5/2
f 328/6/2 324/6/2 329/6/2
f 329/5/2 317/5/2 330/5/2
f 308/5/2 325/5/2 331/5/2
f 325/6/2 326/6/2 331/6/2
f 327/5/2 328/5/2 332/5/2
f 331/6/2 326/6/2 332/6/2
f 326/5/2 327/5/2 332/5/2
f 328/5/2 329/5/2 332/5/2
f 329/6/2 330/6/2 333/6/2
f 332/5/2 329/5/2 333/5/2
f 330/5/2 317/5/2 334/5/2
f 333/6/2 330/6/2 334/6/2
f 332/5/2 333/5/2 335/5/2
f 331/5/2 332/5/2 335/5/2
f 333/5/2 334/5/2 335/5/2
f 335/5/2 334/5/2 336/5/2
f 336/5/2 334/5/2 337/5/2
f 337/5/2 334/5/2 338/5/2
f 331/5/2 335/5/2 339/5/2
f 335/6/2 336/6/2 339/6/2
f 336/5/2 337/5/2 340/5/2
f 339/6/2 336/6/2 340/6/2
f 337/6/2 338/6/2 341/6/2
f 340/5/2 337/5/2 341/5/2
f 338/5/2 334/5/2 342/5/2
f 341/6/2 338/6/2 342/6/2
f 305/5/2 306/5/2 343/5/2
f 306/5/2 307/5/2 343/5/2
f 343/5/2 307/5/2 344/5/2
f 341/5/2 342/5/2 345/5/2
f 308/5/2 331/5/2 345/5/2
f 340/5/2 341/5/2 345/5/2
f 331/5/2 339/5/2 345/5/2
f 339/5/2 340/5/2 345/5/2
f 342/5/2 334/5/2 346/5/2
f 345/5/2 342/5/2 346/5/2
f 334/5/2 317/5/2 346/5/2
f 319/5/2 320/5/2 347/5/2
f 318/5/2 319/5/2 347/5/2
f 347/5/2 320/5/2 348/5/2
f 349/3/2 350/3/2 367/3/2
f 350/2/2 351/2/2 368/2/2
f 367/3/2 350/3/2 368/3/2
f 351/3/2 352/3/2 369/3/2
f 368/2/2 351/2/2 369/2/2
f 353/3/2 354/3/2 370/3/2
f 354/2/2 355/2/2 371/2/2
f 370/3/2 354/3/2 371/3/2
f 355/3/2 356/3/2 372/3/2
f 371/2/2 355/2/2 372/2/2
f 356/2/2 357/2/2 373/2/2
f 372/3/2 356/3/2 373/3/2
f 357/3/2 358/3/2 374/3/2
f 373/2/2 357/2/2 374/2/2
f 358/2/2 359/2/2 375/2/2
f 374/3/2 358/3/2 375/3/2
f 359/3/2 360/3/2 376/3/2
f 375/2/2 359/2/2 376/2/2
f 360/2/2 361/2/2 377/2/2
f 376/3/2 360/3/2 377/3/2
f 361/3/2 362/3/2 378/3/2
f 377/2/2 361/2/2 378/2/2
f 378/3/2 362/3/2 379/3/2
f 363/3/2 364/3/2 380/3/2
f 364/2/2 365/2/2 380/2/2
f 365/3/2 366/3/2 381/3/2
f 380/2/2 365/2/2 381/2/2
f 381/3/2 366/3/2 382/3/2
f 349/3/2 367/3/2 383/3/2
f 369/3/2 352/3/2 384/3/2
f 353/3/2 370/3/2 385/3/2
f 379/3/2 362/3/2 386/3/2
f 363/3/2 380/3/2 387/3/2
f 382/3/2 366/3/2 388/3/2
f 349/3/2 383/3/2 389/3/2
f 383/3/2 384/3/2 389/3/2
f 384/3/2 352/3/2 390/3/2
f 389/3/2 384/3/2 390/3/2
f 385/3/2 386/3/2 391/3/2
f 353/3/2 385/3/2 391/3/2
f 386/3/2 362/3/2 392/3/2
f 391/3/2 386/3/2 392/3/2
f 363/3/2 387/3/2 393/3/2
f 387/3/2 388/3/2 393/3/2
f 388/3/2 366/3/2 394/3/2
f 393/3/2 388/3/2 394/3/2
f 395/4/2 396/4/2 397/4/2
f 397/4/2 396/4/2 398/4/2
f 398/4/2 396/4/2 399/4/2
f 399/4/2 396/4/2 400/4/2
f 400/4/2 396/4/2 401/4/2
f 401/4/2 396/4/2 402/4/2
f 395/4/2 397/4/2 403/4/2
f 398/4/2 399/4/2 404/4/2
f 404/4/2 399/4/2 405/4/2
f 400/4/2 401/4/2 406/4/2
f 406/4/2 401/4/2 407/4/2
f 402/4/2 396/4/2 408/4/2
f 406/4/2 407/4/2 409/4/2
f 407/4/2 408/4/2 409/4/2
f 404/4/2 405/4/2 409/4/2
f 395/4/2 403/4/2 409/4/2
f 405/4/2 406/4/2 409/4/2
f 403/4/2 404/4/2 409/4/2
f 408/4/2 396/4/2 410/4/2
f 409/4/2 408/4/2 410/4/2
f 411/3/2 412/3/2 413/3/2
f 413/3/2 412/3/2 414/3/2
f 415/7/2 416/7/2 417/7/2
f 417/7/2 416/7/2 418/7/2
f 423/7/3 422/7/3 421/7/3
f 424/7/3 422/7/3 423/7/3
f 425/3/3 420/3/3 419/3/3
f 426/7/3 423/7/3 421/7/3
f 427/8/3 424/8/3 423/8/3
f 427/7/3 423/7/3 426/7/3
f 428/4/3 426/4/3 425/4/3
f 429/4/3 426/4/3 428/4/3
f 430/4/3 428/4/3 425/4/3
f 431/5/3 429/5/3 428/5/3
f 431/4/3 428/4/3 430/4/3
f 432/4/3 426/4/3 429/4/3
f 432/5/3 429/5/3 431/5/3
f 433/4/3 426/4/3 432/4/3
f 434/3/3 431/3/3 430/3/3
f 434/4/3 430/4/3 425/4/3
f 435/4/3 432/4/3 431/4/3
f 435/3/3 431/3/3 434/3/3
f 436/3/3 433/3/3 432/3/3
f 436/4/3 432/4/3 435/4/3
f 437/4/3 426/4/3 433/4/3
f 437/3/3 433/3/3 436/3/3
f 438/3/3 425/3/3 419/3/3
f 438/4/3 436/4/3 435/4/3
f 438/4/3 437/4/3 436/4/3
f 438/4/3 434/4/3 425/4/3
f 438/4/3 435/4/3 434/4/3
f 439/4/3 426/4/3 437/4/3
f 439/4/3 437/4/3 438/4/3
f 439/8/3 427/8/3 426/8/3
f 440/8/3 424/8/3 427/8/3
f 440/8/3 427/8/3 439/8/3
f 441/3/3 438/3/3 419/3/3
f 442/3/3 438/3/3 441/3/3
f 443/7/3 440/7/3 439/7/3
f 444/7/3 440/7/3 443/7/3
f 447/4/3 446/4/3 445/4/3
f 448/4/3 446/4/3 447/4/3
f 451/3/3 450/3/3 449/3/3
f 452/3/3 450/3/3 451/3/3
f 455/4/3 454/4/3 453/4/3
f 456/4/3 454/4/3 455/4/3
f 459/1/3 458/1/3 457/1/3
f 460/1/3 458/1/3 459/1/3
f 463/4/3 462/4/3 461/4/3
f 464/4/3 462/4/3 463/4/3
f 465/4/3 463/4/3 461/4/3
f 466/5/3 464/5/3 463/5/3
f 466/4/3 463/4/3 465/4/3
f 467/4/3 462/4/3 464/4/3
f 467/5/3 464/5/3 466/5/3
f 468/4/3 462/4/3 467/4/3
f 475/4/3 470/4/3 469/4/3
f 476/4/3 470/4/3 475/4/3
f 477/4/3 472/4/3 471/4/3
f 478/4/3 472/4/3 477/4/3
f 479/4/3 474/4/3 473/4/3
f 480/4/3 474/4/3 479/4/3
f 487/1/3 482/1/3 481/1/3
f 488/1/3 482/1/3 487/1/3
f 489/1/3 484/1/3 483/1/3
f 490/1/3 484/1/3 489/1/3
f 491/1/3 486/1/3 485/1/3
f 492/1/3 486/1/3 491/1/3
f 499/1/3 494/1/3 493/1/3
f 500/1/3 494/1/3 499/1/3
f 501/1/3 496/1/3 495/1/3
f 502/1/3 496/1/3 501/1/3
f 503/1/3 498/1/3 497/1/3
f 504/1/3 498/1/3 503/1/3
f 507/5/3 506/5/3 505/5/3
f 508/5/3 506/5/3 507/5/3
f 515/4/3 510/4/3 509/4/3
f 516/4/3 510/4/3 515/4/3
f 517/4/3 512/4/3 511/4/3
f 518/4/3 512/4/3 517/4/3
f 519/4/3 514/4/3 513/4/3
f 520/4/3 514/4/3 519/4/3
f 527/1/3 522/1/3 521/1/3
f 528/1/3 522/1/3 527/1/3
f 529/1/3 524/1/3 523/1/3
f 530/1/3 524/1/3 529/1/3
f 531/1/3 526/1/3 525/1/3
f 532/1/3 526/1/3 531/1/3
f 539/1/3 534/1/3 533/1/3
f 540/1/3 534/1/3 539/1/3
f 541/1/3 536/1/3 535/1/3
f 542/1/3 536/1/3 541/1/3
f 543/1/3 538/1/3 537/1/3
f 544/1/3 538/1/3 543/1/3
f 547/5/3 546/5/3 545/5/3
f 548/5/3 546/5/3 547/5/3
f 555/4/3 550/4/3 549/4/3
f 556/4/3 550/4/3 555/4/3
f 557/4/3 552/4/3 551/4/3
f 558/4/3 552/4/3 557/4/3
f 559/4/3 554/4/3 553/4/3
f 560/4/3 554/4/3 559/4/3
f 567/1/3 562/1/3 561/1/3
f 568/1/3 562/1/3 567/1/3
f 569/1/3 564/1/3 563/1/3
f 570/1/3 564/1/3 569/1/3
f 571/1/3 566/1/3 565/1/3
f 572/1/3 566/1/3 571/1/3
f 579/1/3 574/1/3 573/1/3
f 580/1/3 574/1/3 579/1/3
f 581/1/3 576/1/3 575/1/3
f 582/1/3 576/1/3 581/1/3
f 583/1/3 578/1/3 577/1/3
f 584/1/3 578/1/3 583/1/3
f 587/4/3 586/4/3 585/4/3
f 588/4/3 586/4/3 587/4/3
f 591/4/3 590/4/3 589/4/3
f 592/4/3 590/4/3 591/4/3
f 595/1/3 594/1/3 593/1/3
f 596/1/3 594/1/3 595/1/3
f 599/3/3 598/3/3 597/3/3
f 600/3/3 598/3/3 599/3/3
f 603/4/3 602/4/3 601/4/3
f 604/4/3 602/4/3 603/4/3
f 607/3/3 606/3/3 605/3/3
f 608/3/3 606/3/3 607/3/3
f 611/4/3 610/4/3 609/4/3
f 612/4/3 610/4/3 611/4/3
f 615/4/3 614/4/3 613/4/3
f 616/4/3 614/4/3 615/4/3
f 617/4/4 618/4/4 619/4/4
f 619/4/4 618/4/4 620/4/4
f 621/4/4 622/4/4 623/4/4
f 623/4/4 622/4/4 624/4/4
f 625/3/4 626/3/4 627/3/4
f 627/3/4 626/3/4 628/3/4
f 629/4/4 630/4/4 631/4/4
f 631/4/4 630/4/4 632/4/4
f 633/3/4 634/3/4 635/3/4
f 635/3/4 634/3/4 636/3/4
f 637/1/4 638/1/4 639/1/4
f 639/1/4 638/1/4 640/1/4
f 641/4/4 642/4/4 643/4/4
f 643/4/4 642/4/4 644/4/4
f 645/4/4 646/4/4 647/4/4
f 647/4/4 646/4/4 648/4/4
f 649/1/4 650/1/4 655/1/4
f 655/1/4 650/1/4 656/1/4
f 651/1/4 652/1/4 657/1/4
f 657/1/4 652/1/4 658/1/4
f 653/1/4 654/1/4 659/1/4
f 659/1/4 654/1/4 660/1/4
f 661/1/4 662/1/4 667/1/4
f 667/1/4 662/1/4 668/1/4
f 663/1/4 664/1/4 669/1/4
f 669/1/4 664/1/4 670/1/4
f 665/1/4 666/1/4 671/1/4
f 671/1/4 666/1/4 672/1/4
f 673/4/4 674/4/4 679/4/4
f 679/4/4 674/4/4 680/4/4
f 675/4/4 676/4/4 681/4/4
f 681/4/4 676/4/4 682/4/4
f 677/4/4 678/4/4 683/4/4
f 683/4/4 678/4/4 684/4/4
f 685/5/4 686/5/4 687/5/4
f 687/5/4 686/5/4 688/5/4
f 689/1/4 690/1/4 695/1/4
f 695/1/4 690/1/4 696/1/4
f 691/1/4 692/1/4 697/1/4
f 697/1/4 692/1/4 698/1/4
f 693/1/4 694/1/4 699/1/4
f 699/1/4 694/1/4 700/1/4
f 701/1/4 702/1/4 707/1/4
f 707/1/4 702/1/4 708/1/4
f 703/1/4 704/1/4 709/1/4
f 709/1/4 704/1/4 710/1/4
f 705/1/4 706/1/4 711/1/4
f 711/1/4 706/1/4 712/1/4
f 713/4/4 714/4/4 719/4/4
f 719/4/4 714/4/4 720/4/4
f 715/4/4 716/4/4 721/4/4
f 721/4/4 716/4/4 722/4/4
f 717/4/4 718/4/4 723/4/4
f 723/4/4 718/4/4 724/4/4
f 725/5/4 726/5/4 727/5/4
f 727/5/4 726/5/4 728/5/4
f 729/1/4 730/1/4 735/1/4
f 735/1/4 730/1/4 736/1/4
f 731/1/4 732/1/4 737/1/4
f 737/1/4 732/1/4 738/1/4
f 733/1/4 734/1/4 739/1/4
f 739/1/4 734/1/4 740/1/4
f 741/1/4 742/1/4 747/1/4
f 747/1/4 742/1/4 748/1/4
f 743/1/4 744/1/4 749/1/4
f 749/1/4 744/1/4 750/1/4
f 745/1/4 746/1/4 751/1/4
f 751/1/4 746/1/4 752/1/4
f 753/4/4 754/4/4 759/4/4
f 759/4/4 754/4/4 760/4/4
f 755/4/4 756/4/4 761/4/4
f 761/4/4 756/4/4 762/4/4
f 757/4/4 758/4/4 763/4/4
f 763/4/4 758/4/4 764/4/4
f 765/4/4 766/4/4 767/4/4
f 767/4/4 766/4/4 768/4/4
f 765/4/4 767/4/4 769/4/4
f 767/5/4 768/5/4 770/5/4
f 769/4/4 767/4/4 770/4/4
f 768/4/4 766/4/4 771/4/4
f 770/5/4 768/5/4 771/5/4
f 771/4/4 766/4/4 772/4/4
f 773/1/4 774/1/4 775/1/4
f 775/1/4 774/1/4 776/1/4
f 777/4/4 778/4/4 779/4/4
f 779/4/4 778/4/4 780/4/4
f 781/3/4 782/3/4 783/3/4
f 783/3/4 782/3/4 784/3/4
f 785/4/4 786/4/4 787/4/4
f 787/4/4 786/4/4 788/4/4
f 791/7/4 792/7/4 793/7/4
f 793/7/4 792/7/4 794/7/4
f 789/3/4 790/3/4 795/3/4
f 791/7/4 793/7/4 796/7/4
f 793/8/4 794/8/4 797/8/4
f 796/7/4 793/7/4 797/7/4
f 795/4/4 796/4/4 798/4/4
f 798/4/4 796/4/4 799/4/4
f 795/4/4 798/4/4 800/4/4
f 798/5/4 799/5/4 801/5/4
f 800/4/4 798/4/4 801/4/4
f 799/4/4 796/4/4 802/4/4
f 801/5/4 799/5/4 802/5/4
f 802/4/4 796/4/4 803/4/4
f 800/3/4 801/3/4 804/3/4
f 795/4/4 800/4/4 804/4/4
f 801/4/4 802/4/4 805/4/4
f 804/3/4 801/3/4 805/3/4
f 802/3/4 803/3/4 806/3/4
f 805/4/4 802/4/4 806/4/4
f 803/4/4 796/4/4 807/4/4
f 806/3/4 803/3/4 807/3/4
f 789/3/4 795/3/4 808/3/4
f 805/4/4 806/4/4 808/4/4
f 806/4/4 807/4/4 808/4/4
f 795/4/4 804/4/4 808/4/4
f 804/4/4 805/4/4 808/4/4
f 807/4/4 796/4/4 809/4/4
f 808/4/4 807/4/4 809/4/4
f 796/8/4 797/8/4 809/8/4
f 797/8/4 794/8/4 810/8/4
f 809/8/4 797/8/4 810/8/4
f 789/3/4 808/3/4 811/3/4
f 811/3/4 808/3/4 812/3/4
f 809/7/4 810/7/4 813/7/4
f 813/7/4 810/7/4 814/7/4
f 817/3/5 816/3/5 815/3/5
f 818/3/5 816/3/5 817/3/5
f 821/4/5 820/4/5 819/4/5
f 822/4/5 820/4/5 821/4/5
f 825/4/5 824/4/5 823/4/5
f 826/4/5 824/4/5 825/4/5
f 829/4/5 828/4/5 827/4/5
f 830/4/5 828/4/5 829/4/5
f 833/4/5 832/4/5 831/4/5
f 834/4/5 832/4/5 833/4/5
f 837/4/5 836/4/5 835/4/5
f 838/4/5 836/4/5 837/4/5
f 841/1/5 840/1/5 839/1/5
f 842/1/5 840/1/5 841/1/5
f 845/1/5 844/1/5 843/1/5
f 846/1/5 844/1/5 845/1/5
f 849/1/5 848/1/5 847/1/5
f 850/1/5 848/1/5 849/1/5
f 851/1/5 849/1/5 847/1/5
f 853/1/5 851/1/5 847/1/5
f 853/1/5 852/1/5 851/1/5
f 854/1/5 852/1/5 853/1/5
f 857/1/5 856/1/5 855/1/5
f 858/1/5 856/1/5 857/1/5
f 859/1/5 857/1/5 855/1/5
f 861/1/5 859/1/5 855/1/5
f 861/1/5 860/1/5 859/1/5
f 862/1/5 860/1/5 861/1/5
f 865/1/5 864/1/5 863/1/5
f 866/1/5 864/1/5 865/1/5
f 867/1/5 865/1/5 863/1/5
f 869/1/5 867/1/5 863/1/5
f 869/1/5 868/1/5 867/1/5
f 870/1/5 868/1/5 869/1/5
f 873/4/5 872/4/5 871/4/5
f 874/4/5 872/4/5 873/4/5
f 877/4/5 876/4/5 875/4/5
f 878/4/5 876/4/5 877/4/5
f 881/4/5 880/4/5 879/4/5
f 882/4/5 880/4/5 881/4/5
f 885/1/5 884/1/5 883/1/5
f 886/1/5 884/1/5 885/1/5
f 887/1/5 885/1/5 883/1/5
f 889/1/5 887/1/5 883/1/5
f 889/1/5 888/1/5 887/1/5
f 890/1/5 888/1/5 889/1/5
f 893/1/5 892/1/5 891/1/5
f 894/1/5 892/1/5 893/1/5
f 895/1/5 893/1/5 891/1/5
f 897/1/5 895/1/5 891/1/5
f 897/1/5 896/1/5 895/1/5
f 898/1/5 896/1/5 897/1/5
f 901/1/5 900/1/5 899/1/5
f 902/1/5 900/1/5 901/1/5
f 903/1/5 901/1/5 899/1/5
f 905/1/5 903/1/5 899/1/5
f 905/1/5 904/1/5 903/1/5
f 906/1/5 904/1/5 905/1/5
f 909/4/5 908/4/5 907/4/5
f 910/4/5 908/4/5 909/4/5
f 913/4/5 912/4/5 911/4/5
f 914/4/5 912/4/5 913/4/5
f 917/4/5 916/4/5 915/4/5
f 918/4/5 916/4/5 917/4/5
f 921/1/5 920/1/5 919/1/5
f 922/1/5 920/1/5 921/1/5
f 923/1/5 921/1/5 919/1/5
f 925/1/5 923/1/5 919/1/5
f 925/1/5 924/1/5 923/1/5
f 926/1/5 924/1/5 925/1/5
f 929/1/5 928/1/5 927/1/5
f 930/1/5 928/1/5 929/1/5
f 931/1/5 929/1/5 927/1/5
f 933/1/5 931/1/5 927/1/5
f 933/1/5 932/1/5 931/1/5
f 934/1/5 932/1/5 933/1/5
f 937/1/5 936/1/5 935/1/5
f 938/1/5 936/1/5 937/1/5
f 939/1/5 937/1/5 935/1/5
f 941/1/5 939/1/5 935/1/5
f 941/1/5 940/1/5 939/1/5
f 942/1/5 940/1/5 941/1/5
f 945/3/5 944/3/5 943/3/5
f 946/3/5 944/3/5 945/3/5
f 949/3/5 948/3/5 947/3/5
f 950/3/5 948/3/5 949/3/5
f 953/3/5 952/3/5 951/3/5
f 954/3/5 952/3/5 953/3/5
f 959/4/5 958/4/5 957/4/5
f 960/4/5 958/4/5 959/4/5
f 963/4/5 956/4/5 955/4/5
f 964/4/5 956/4/5 963/4/5
f 965/4/5 963/4/5 955/4/5
f 967/4/5 965/4/5 955/4/5
f 967/4/5 966/4/5 965/4/5
f 968/4/5 966/4/5 967/4/5
f 969/4/5 967/4/5 955/4/5
f 971/4/5 969/4/5 955/4/5
f 971/4/5 970/4/5 969/4/5
f 972/4/5 970/4/5 971/4/5
f 973/4/5 971/4/5 955/4/5
f 975/4/5 973/4/5 955/4/5
f 975/4/5 974/4/5 973/4/5
f 976/4/5 974/4/5 975/4/5
f 977/4/5 975/4/5 955/4/5
f 979/4/5 962/4/5 961/4/5
f 980/4/5 962/4/5 979/4/5
f 983/4/5 978/4/5 977/4/5
f 983/4/5 977/4/5 955/4/5
f 984/4/5 978/4/5 983/4/5
f 985/4/5 982/4/5 981/4/5
f 986/4/5 982/4/5 985/4/5
f 991/7/5 988/7/5 987/7/5
f 992/7/5 988/7/5 991/7/5
f 993/7/5 990/7/5 989/7/5
f 994/7/5 990/7/5 993/7/5
f 995/3/6 996/3/6 999/3/6
f 999/3/6 996/3/6 1000/3/6
f 997/3/6 998/3/6 1001/3/6
f 1001/3/6 998/3/6 1002/3/6
f 1005/4/6 1006/4/6 1007/4/6
f 1007/4/6 1006/4/6 1008/4/6
f 1008/4/6 1006/4/6 1009/4/6
f 1009/4/6 1006/4/6 1010/4/6
f 1003/4/6 1004/4/6 1013/4/6
f 1013/4/6 1004/4/6 1014/4/6
f 1003/4/6 1013/4/6 1015/4/6
f 1011/4/6 1012/4/6 1017/4/6
f 1017/4/6 1012/4/6 1018/4/6
f 1015/4/6 1016/4/6 1019/4/6
f 1003/4/6 1015/4/6 1019/4/6
f 1019/4/6 1016/4/6 1020/4/6
f 1003/4/6 1019/4/6 1021/4/6
f 1018/4/6 1012/4/6 1023/4/6
f 1023/4/6 1012/4/6 1024/4/6
f 1024/4/6 1012/4/6 1025/4/6
f 1025/4/6 1012/4/6 1026/4/6
f 1021/4/6 1022/4/6 1027/4/6
f 1003/4/6 1021/4/6 1027/4/6
f 1027/4/6 1022/4/6 1028/4/6
f 1003/4/6 1027/4/6 1029/4/6
f 1026/4/6 1012/4/6 1031/4/6
f 1031/4/6 1012/4/6 1032/4/6
f 1029/4/6 1030/4/6 1033/4/6
f 1003/4/6 1029/4/6 1033/4/6
f 1033/4/6 1030/4/6 1034/4/6
f 1003/4/6 1033/4/6 1035/4/6
f 1032/4/6 1012/4/6 1037/4/6
f 1037/4/6 1012/4/6 1038/4/6
f 1039/4/6 1040/4/6 1041/4/6
f 1041/4/6 1040/4/6 1042/4/6
f 1035/4/6 1036/4/6 1043/4/6
f 1003/4/6 1035/4/6 1043/4/6
f 1043/4/6 1036/4/6 1044/4/6
f 1042/4/6 1040/4/6 1045/4/6
f 1045/4/6 1040/4/6 1046/4/6
f 1047/3/6 1048/3/6 1049/3/6
f 1049/3/6 1048/3/6 1050/3/6
f 1049/2/6 1050/2/6 1051/2/6
f 1051/2/6 1050/2/6 1052/2/6
f 1053/3/6 1054/3/6 1055/3/6
f 1055/3/6 1054/3/6 1056/3/6
f 1055/2/6 1056/2/6 1057/2/6
f 1057/2/6 1056/2/6 1058/2/6
f 1057/3/6 1058/3/6 1059/3/6
f 1059/3/6 1058/3/6 1060/3/6
f 1059/2/6 1060/2/6 1061/2/6
f 1061/2/6 1060/2/6 1062/2/6
f 1061/3/6 1062/3/6 1063/3/6
f 1063/3/6 1062/3/6 1064/3/6
f 1063/2/6 1064/2/6 1065/2/6
f 1065/2/6 1064/2/6 1066/2/6
f 1065/3/6 1066/3/6 1067/3/6
f 1067/3/6 1066/3/6 1068/3/6
f 1067/2/6 1068/2/6 1069/2/6
f 1069/2/6 1068/2/6 1070/2/6
f 1069/3/6 1070/3/6 1071/3/6
f 1071/3/6 1070/3/6 1072/3/6
f 1073/2/6 1074/2/6 1075/2/6
f 1075/2/6 1074/2/6 1076/2/6
f 1075/3/6 1076/3/6 1077/3/6
f 1077/3/6 1076/3/6 1078/3/6
f 1079/1/6 1080/1/6 1081/1/6
f 1081/1/6 1080/1/6 1082/1/6
f 1079/1/6 1081/1/6 1083/1/6
f 1079/1/6 1083/1/6 1085/1/6
f 1083/1/6 1084/1/6 1085/1/6
f 1085/1/6 1084/1/6 1086/1/6
f 1087/1/6 1088/1/6 1089/1/6
f 1089/1/6 1088/1/6 1090/1/6
f 1087/1/6 1089/1/6 1091/1/6
f 1087/1/6 1091/1/6 1093/1/6
f 1091/1/6 1092/1/6 1093/1/6
f 1093/1/6 1092/1/6 1094/1/6
f 1095/1/6 1096/1/6 1097/1/6
f 1097/1/6 1096/1/6 1098/1/6
f 1095/1/6 1097/1/6 1099/1/6
f 1095/1/6 1099/1/6 1101/1/6
f 1099/1/6 1100/1/6 1101/1/6
f 1101/1/6 1100/1/6 1102/1/6
f 1103/4/6 1104/4/6 1105/4/6
f 1105/4/6 1104/4/6 1106/4/6
f 1107/4/6 1108/4/6 1109/4/6
f 1109/4/6 1108/4/6 1110/4/6
f 1111/4/6 1112/4/6 1113/4/6
f 1113/4/6 1112/4/6 1114/4/6
f 1115/1/6 1116/1/6 1117/1/6
f 1117/1/6 1116/1/6 1118/1/6
f 1115/1/6 1117/1/6 1119/1/6
f 1115/1/6 1119/1/6 1121/1/6
f 1119/1/6 1120/1/6 1121/1/6
f 1121/1/6 1120/1/6 1122/1/6
f 1123/1/6 1124/1/6 1125/1/6
f 1125/1/6 1124/1/6 1126/1/6
f 1123/1/6 1125/1/6 1127/1/6
f 1123/1/6 1127/1/6 1129/1/6
f 1127/1/6 1128/1/6 1129/1/6
f 1129/1/6 1128/1/6 1130/1/6
f 1131/1/6 1132/1/6 1133/1/6
f 1133/1/6 1132/1/6 1134/1/6
f 1131/1/6 1133/1/6 1135/1/6
f 1131/1/6 1135/1/6 1137/1/6
f 1135/1/6 1136/1/6 1137/1/6
f 1137/1/6 1136/1/6 1138/1/6
f 1139/4/6 1140/4/6 1141/4/6
f 1141/4/6 1140/4/6 1142/4/6
f 1143/4/6 1144/4/6 1145/4/6
f 1145/4/6 1144/4/6 1146/4/6
f 1147/4/6 1148/4/6 1149/4/6
f 1149/4/6 1148/4/6 1150/4/6
f 1151/1/6 1152/1/6 1153/1/6
f 1153/1/6 1152/1/6 1154/1/6
f 1151/1/6 1153/1/6 1155/1/6
f 1151/1/6 1155/1/6 1157/1/6
f 1155/1/6 1156/1/6 1157/1/6
f 1157/1/6 1156/1/6 1158/1/6
f 1159/1/6 1160/1/6 1161/1/6
f 1161/1/6 1160/1/6 1162/1/6
f 1159/1/6 1161/1/6 1163/1/6
f 1159/1/6 1163/1/6 1165/1/6
f 1163/1/6 1164/1/6 1165/1/6
f 1165/1/6 1164/1/6 1166/1/6
f 1167/1/6 1168/1/6 1169/1/6
f 1169/1/6 1168/1/6 1170/1/6
f 1167/1/6 1169/1/6 1171/1/6
f 1167/1/6 1171/1/6 1173/1/6
f 1171/1/6 1172/1/6 1173/1/6
f 1173/1/6 1172/1/6 1174/1/6
f 1175/1/6 1176/1/6 1177/1/6
f 1177/1/6 1176/1/6 1178/1/6
f 1179/1/6 1180/1/6 1181/1/6
f 1181/1/6 1180/1/6 1182/1/6
f 1183/4/6 1184/4/6 1185/4/6
f 1185/4/6 1184/4/6 1186/4/6
f 1187/4/6 1188/4/6 1189/4/6
f 1189/4/6 1188/4/6 1190/4/6
f 1191/4/6 1192/4/6 1193/4/6
f 1193/4/6 1192/4/6 1194/4/6
f 1195/4/6 1196/4/6 1197/4/6
f 1197/4/6 1196/4/6 1198/4/6
f 1199/4/6 1200/4/6 1201/4/6
f 1201/4/6 1200/4/6 1202/4/6
f 1203/7/6 1204/7/6 1207/7/6
f 1204/8/6 1205/8/6 1208/8/6
f 1207/7/6 1204/7/6 1208/7/6
f 1205/7/6 1206/7/6 1209/7/6
f 1208/8/6 1205/8/6 1209/8/6
f 1209/7/6 1206/7/6 1210/7/6
