# MagicaVoxel @ Ephtracy

# group
o deco wall back-0

# material
mtllib ludum dare_tile01-02-1-deco wall back-0.mtl
usemtl palette

# normals
vn -1 0 0
vn 1 0 0
vn 0 0 1
vn 0 0 -1
vn 0 -1 0
vn 0 1 0

# texcoords
vt 0.103516 0.5
vt 0.107422 0.5
vt 0.130859 0.5
vt 0.138672 0.5
vt 0.189453 0.5
vt 0.193359 0.5
vt 0.197266 0.5

# verts
v -0.2 0 0.3
v -0.2 0 -0.4
v -0.2 0.1 0.5
v -0.2 0.1 0.3
v -0.2 0.1 -0.4
v -0.2 0.1 -0.6
v -0.2 0.2 0.7
v -0.2 0.2 0.5
v -0.2 0.2 -0.6
v -0.2 0.2 -0.8
v -0.2 0.3 0.8
v -0.2 0.3 0.7
v -0.2 0.3 -0.8
v -0.2 0.3 -0.9
v -0.2 0.5 0.9
v -0.2 0.5 0.8
v -0.2 0.5 -0.9
v -0.2 0.5 -1
v -0.2 0.7 1
v -0.2 0.7 0.9
v -0.2 0.7 -1
v -0.2 0.7 -1.1
v -0.2 1.4 1
v -0.2 1.4 0.9
v -0.2 1.4 -1
v -0.2 1.4 -1.1
v -0.2 1.6 0.9
v -0.2 1.6 0.8
v -0.2 1.6 -0.9
v -0.2 1.6 -1
v -0.2 1.8 0.8
v -0.2 1.8 0.7
v -0.2 1.8 -0.8
v -0.2 1.8 -0.9
v -0.2 1.9 0.7
v -0.2 1.9 0.5
v -0.2 1.9 -0.6
v -0.2 1.9 -0.8
v -0.2 2 0.5
v -0.2 2 0.3
v -0.2 2 -0.4
v -0.2 2 -0.6
v -0.2 2.1 0.3
v -0.2 2.1 -0.4
v 0 0.2 0.3
v 0 0.2 -0.4
v 0 0.3 0.5
v 0 0.3 0.3
v 0 0.3 0.1
v 0 0.3 -0.2
v 0 0.3 -0.4
v 0 0.3 -0.6
v 0 0.4 0.6
v 0 0.4 0.5
v 0 0.4 0.2
v 0 0.4 0.1
v 0 0.4 -0.2
v 0 0.4 -0.3
v 0 0.4 -0.6
v 0 0.4 -0.7
v 0 0.5 0.7
v 0 0.5 0.6
v 0 0.5 0.5
v 0 0.5 0.4
v 0 0.5 0.2
v 0 0.5 -0.3
v 0 0.5 -0.5
v 0 0.5 -0.6
v 0 0.5 -0.7
v 0 0.5 -0.8
v 0 0.6 0.5
v 0 0.6 0.4
v 0 0.6 0.2
v 0 0.6 -0.3
v 0 0.6 -0.5
v 0 0.6 -0.6
v 0 0.7 0.8
v 0 0.7 0.7
v 0 0.7 0.5
v 0 0.7 0.4
v 0 0.7 -0.5
v 0 0.7 -0.6
v 0 0.7 -0.8
v 0 0.7 -0.9
v 0 0.8 0.5
v 0 0.8 0.4
v 0 0.8 -0.5
v 0 0.8 -0.6
v 0 0.9 0.7
v 0 0.9 0.6
v 0 0.9 -0.7
v 0 0.9 -0.8
v 0 1.2 0.7
v 0 1.2 0.6
v 0 1.2 -0.7
v 0 1.2 -0.8
v 0 1.3 0.5
v 0 1.3 0.4
v 0 1.3 -0.5
v 0 1.3 -0.6
v 0 1.4 0.8
v 0 1.4 0.7
v 0 1.4 -0.8
v 0 1.4 -0.9
v 0 1.5 0.5
v 0 1.5 0.4
v 0 1.5 0.2
v 0 1.5 -0.3
v 0 1.5 -0.5
v 0 1.5 -0.6
v 0 1.6 0.7
v 0 1.6 0.6
v 0 1.6 0.5
v 0 1.6 0.4
v 0 1.6 0.2
v 0 1.6 -0.3
v 0 1.6 -0.5
v 0 1.6 -0.6
v 0 1.6 -0.7
v 0 1.6 -0.8
v 0 1.7 0.6
v 0 1.7 0.5
v 0 1.7 0.1
v 0 1.7 -0.2
v 0 1.7 -0.6
v 0 1.7 -0.7
v 0 1.8 0.5
v 0 1.8 0.3
v 0 1.8 0.1
v 0 1.8 -0.2
v 0 1.8 -0.4
v 0 1.8 -0.6
v 0 1.9 0.3
v 0 1.9 -0.4
v 0.1 0.5 0.2
v 0.1 0.5 -0.3
v 0.1 0.6 0.4
v 0.1 0.6 0.2
v 0.1 0.6 -0.3
v 0.1 0.6 -0.5
v 0.1 0.7 0.3
v 0.1 0.7 0.2
v 0.1 0.7 -0.3
v 0.1 0.7 -0.4
v 0.1 0.8 0.5
v 0.1 0.8 0.4
v 0.1 0.8 0.3
v 0.1 0.8 0.2
v 0.1 0.8 0
v 0.1 0.8 -0.1
v 0.1 0.8 -0.3
v 0.1 0.8 -0.4
v 0.1 0.8 -0.5
v 0.1 0.8 -0.6
v 0.1 0.9 0.1
v 0.1 0.9 0
v 0.1 0.9 -0.1
v 0.1 0.9 -0.2
v 0.1 1 0.2
v 0.1 1 0.1
v 0.1 1 0
v 0.1 1 -0.1
v 0.1 1 -0.2
v 0.1 1 -0.3
v 0.1 1.1 0.2
v 0.1 1.1 0.1
v 0.1 1.1 0
v 0.1 1.1 -0.1
v 0.1 1.1 -0.2
v 0.1 1.1 -0.3
v 0.1 1.2 0.1
v 0.1 1.2 0
v 0.1 1.2 -0.1
v 0.1 1.2 -0.2
v 0.1 1.3 0.5
v 0.1 1.3 0.4
v 0.1 1.3 0.3
v 0.1 1.3 0.2
v 0.1 1.3 0
v 0.1 1.3 -0.1
v 0.1 1.3 -0.3
v 0.1 1.3 -0.4
v 0.1 1.3 -0.5
v 0.1 1.3 -0.6
v 0.1 1.4 0.3
v 0.1 1.4 0.2
v 0.1 1.4 -0.3
v 0.1 1.4 -0.4
v 0.1 1.5 0.4
v 0.1 1.5 0.2
v 0.1 1.5 -0.3
v 0.1 1.5 -0.5
v 0.1 1.6 0.2
v 0.1 1.6 -0.3
v 0.2 0 0.3
v 0.2 0 -0.4
v 0.2 0.1 0.5
v 0.2 0.1 0.3
v 0.2 0.1 -0.4
v 0.2 0.1 -0.6
v 0.2 0.2 0.7
v 0.2 0.2 0.5
v 0.2 0.2 0.3
v 0.2 0.2 -0.4
v 0.2 0.2 -0.6
v 0.2 0.2 -0.8
v 0.2 0.3 0.8
v 0.2 0.3 0.7
v 0.2 0.3 0.5
v 0.2 0.3 0.3
v 0.2 0.3 -0.4
v 0.2 0.3 -0.6
v 0.2 0.3 -0.8
v 0.2 0.3 -0.9
v 0.2 0.4 0.6
v 0.2 0.4 0.5
v 0.2 0.4 -0.6
v 0.2 0.4 -0.7
v 0.2 0.5 0.9
v 0.2 0.5 0.8
v 0.2 0.5 0.7
v 0.2 0.5 0.6
v 0.2 0.5 -0.7
v 0.2 0.5 -0.8
v 0.2 0.5 -0.9
v 0.2 0.5 -1
v 0.2 0.7 1
v 0.2 0.7 0.9
v 0.2 0.7 0.8
v 0.2 0.7 0.7
v 0.2 0.7 -0.8
v 0.2 0.7 -0.9
v 0.2 0.7 -1
v 0.2 0.7 -1.1
v 0.2 0.9 -0.9
v 0.2 0.9 -1.1
v 0.2 1.3 -0.9
v 0.2 1.3 -1.1
v 0.2 1.4 1
v 0.2 1.4 0.9
v 0.2 1.4 0.8
v 0.2 1.4 0.7
v 0.2 1.4 -0.8
v 0.2 1.4 -0.9
v 0.2 1.4 -1
v 0.2 1.4 -1.1
v 0.2 1.6 0.9
v 0.2 1.6 0.8
v 0.2 1.6 0.7
v 0.2 1.6 0.6
v 0.2 1.6 -0.7
v 0.2 1.6 -0.8
v 0.2 1.6 -0.9
v 0.2 1.6 -1
v 0.2 1.7 0.6
v 0.2 1.7 0.5
v 0.2 1.7 -0.6
v 0.2 1.7 -0.7
v 0.2 1.8 0.8
v 0.2 1.8 0.7
v 0.2 1.8 0.5
v 0.2 1.8 0.3
v 0.2 1.8 -0.4
v 0.2 1.8 -0.6
v 0.2 1.8 -0.8
v 0.2 1.8 -0.9
v 0.2 1.9 0.7
v 0.2 1.9 0.5
v 0.2 1.9 0.3
v 0.2 1.9 -0.2
v 0.2 1.9 -0.4
v 0.2 1.9 -0.6
v 0.2 1.9 -0.8
v 0.2 2 0.5
v 0.2 2 0.3
v 0.2 2 -0.4
v 0.2 2 -0.6
v 0.2 2.1 0.3
v 0.2 2.1 -0.2
v 0.2 2.1 -0.4
v -0.2 0.7 1
v -0.2 1.4 1
v 0.2 0.7 1
v 0.2 1.4 1
v -0.2 0.5 0.9
v -0.2 0.7 0.9
v -0.2 1.4 0.9
v -0.2 1.6 0.9
v 0.2 0.5 0.9
v 0.2 0.7 0.9
v 0.2 1.4 0.9
v 0.2 1.6 0.9
v -0.2 0.3 0.8
v -0.2 0.5 0.8
v -0.2 1.6 0.8
v -0.2 1.8 0.8
v 0.2 0.3 0.8
v 0.2 0.5 0.8
v 0.2 1.6 0.8
v 0.2 1.8 0.8
v -0.2 0.2 0.7
v -0.2 0.3 0.7
v -0.2 1.8 0.7
v -0.2 1.9 0.7
v 0.2 0.2 0.7
v 0.2 0.3 0.7
v 0.2 1.8 0.7
v 0.2 1.9 0.7
v -0.2 0.1 0.5
v -0.2 0.2 0.5
v -0.2 1.9 0.5
v -0.2 2 0.5
v 0 0.8 0.5
v 0 1.3 0.5
v 0.1 0.8 0.5
v 0.1 1.3 0.5
v 0.2 0.1 0.5
v 0.2 0.2 0.5
v 0.2 1.9 0.5
v 0.2 2 0.5
v 0 0.6 0.4
v 0 0.7 0.4
v 0 0.8 0.4
v 0 1.3 0.4
v 0 1.5 0.4
v 0.1 0.6 0.4
v 0.1 0.8 0.4
v 0.1 1.3 0.4
v 0.1 1.5 0.4
v -0.2 0 0.3
v -0.2 0.1 0.3
v -0.2 2 0.3
v -0.2 2.1 0.3
v 0.2 0 0.3
v 0.2 0.1 0.3
v 0.2 2 0.3
v 0.2 2.1 0.3
v 0 0.5 0.2
v 0 0.6 0.2
v 0 1.5 0.2
v 0 1.6 0.2
v 0.1 0.5 0.2
v 0.1 0.6 0.2
v 0.1 1.5 0.2
v 0.1 1.6 0.2
v 0 0.2 -0.4
v 0 0.3 -0.4
v 0 1.8 -0.4
v 0 1.9 -0.4
v 0.1 1.8 -0.4
v 0.1 1.9 -0.4
v 0.2 0.2 -0.4
v 0.2 0.3 -0.4
v 0.2 1.8 -0.4
v 0.2 1.9 -0.4
v 0 0.3 -0.6
v 0 0.4 -0.6
v 0 1.7 -0.6
v 0 1.8 -0.6
v 0.1 1.7 -0.6
v 0.1 1.8 -0.6
v 0.2 0.3 -0.6
v 0.2 0.4 -0.6
v 0.2 1.7 -0.6
v 0.2 1.8 -0.6
v 0 0.4 -0.7
v 0 0.5 -0.7
v 0 1.6 -0.7
v 0 1.7 -0.7
v 0.1 1.6 -0.7
v 0.1 1.7 -0.7
v 0.2 0.4 -0.7
v 0.2 0.5 -0.7
v 0.2 1.6 -0.7
v 0.2 1.7 -0.7
v 0 0.5 -0.8
v 0 0.7 -0.8
v 0 1.4 -0.8
v 0 1.6 -0.8
v 0.1 1.6 -0.8
v 0.2 0.5 -0.8
v 0.2 0.7 -0.8
v 0.2 1.4 -0.8
v 0.2 1.6 -0.8
v 0 0.7 -0.9
v 0 1.4 -0.9
v 0.1 0.9 -0.9
v 0.1 1.3 -0.9
v 0.2 0.7 -0.9
v 0.2 0.9 -0.9
v 0.2 1.3 -0.9
v 0.2 1.4 -0.9
v 0 0.7 0.8
v 0 1.4 0.8
v 0.2 0.7 0.8
v 0.2 1.4 0.8
v 0 0.5 0.7
v 0 0.7 0.7
v 0 1.4 0.7
v 0 1.6 0.7
v 0.2 0.5 0.7
v 0.2 0.7 0.7
v 0.2 1.4 0.7
v 0.2 1.6 0.7
v 0 0.4 0.6
v 0 0.5 0.6
v 0 1.6 0.6
v 0 1.7 0.6
v 0.2 0.4 0.6
v 0.2 0.5 0.6
v 0.2 1.6 0.6
v 0.2 1.7 0.6
v 0 0.3 0.5
v 0 0.4 0.5
v 0 1.7 0.5
v 0 1.8 0.5
v 0.2 0.3 0.5
v 0.2 0.4 0.5
v 0.2 1.7 0.5
v 0.2 1.8 0.5
v 0 0.2 0.3
v 0 0.3 0.3
v 0 1.8 0.3
v 0 1.9 0.3
v 0.2 0.2 0.3
v 0.2 0.3 0.3
v 0.2 1.8 0.3
v 0.2 1.9 0.3
v 0 0.5 -0.3
v 0 0.6 -0.3
v 0 1.5 -0.3
v 0 1.6 -0.3
v 0.1 0.5 -0.3
v 0.1 0.6 -0.3
v 0.1 1.5 -0.3
v 0.1 1.6 -0.3
v -0.2 0 -0.4
v -0.2 0.1 -0.4
v -0.2 2 -0.4
v -0.2 2.1 -0.4
v 0.1 2 -0.4
v 0.1 2.1 -0.4
v 0.2 0 -0.4
v 0.2 0.1 -0.4
v 0.2 2 -0.4
v 0.2 2.1 -0.4
v 0 0.6 -0.5
v 0 0.7 -0.5
v 0 0.8 -0.5
v 0 1.3 -0.5
v 0 1.5 -0.5
v 0.1 0.6 -0.5
v 0.1 0.8 -0.5
v 0.1 1.3 -0.5
v 0.1 1.5 -0.5
v -0.2 0.1 -0.6
v -0.2 0.2 -0.6
v -0.2 1.9 -0.6
v -0.2 2 -0.6
v 0 0.8 -0.6
v 0 1.3 -0.6
v 0.1 0.8 -0.6
v 0.1 1.3 -0.6
v 0.1 1.9 -0.6
v 0.1 2 -0.6
v 0.2 0.1 -0.6
v 0.2 0.2 -0.6
v 0.2 1.9 -0.6
v 0.2 2 -0.6
v -0.2 0.2 -0.8
v -0.2 0.3 -0.8
v -0.2 1.8 -0.8
v -0.2 1.9 -0.8
v 0.1 1.8 -0.8
v 0.1 1.9 -0.8
v 0.2 0.2 -0.8
v 0.2 0.3 -0.8
v 0.2 1.8 -0.8
v 0.2 1.9 -0.8
v -0.2 0.3 -0.9
v -0.2 0.5 -0.9
v -0.2 1.6 -0.9
v -0.2 1.8 -0.9
v 0.1 1.6 -0.9
v 0.1 1.8 -0.9
v 0.2 0.3 -0.9
v 0.2 0.5 -0.9
v 0.2 1.6 -0.9
v 0.2 1.8 -0.9
v -0.2 0.5 -1
v -0.2 0.7 -1
v -0.2 1.4 -1
v -0.2 1.6 -1
v 0.2 0.5 -1
v 0.2 0.7 -1
v 0.2 1.4 -1
v 0.2 1.6 -1
v -0.2 0.7 -1.1
v -0.2 1.4 -1.1
v 0.1 0.9 -1.1
v 0.1 1.3 -1.1
v 0.2 0.7 -1.1
v 0.2 0.9 -1.1
v 0.2 1.3 -1.1
v 0.2 1.4 -1.1
v -0.2 0 0.3
v 0.2 0 0.3
v -0.2 0 -0.4
v 0.2 0 -0.4
v -0.2 0.1 0.5
v 0.2 0.1 0.5
v -0.2 0.1 0.3
v 0.2 0.1 0.3
v -0.2 0.1 -0.4
v 0.2 0.1 -0.4
v -0.2 0.1 -0.6
v 0.2 0.1 -0.6
v -0.2 0.2 0.7
v 0.2 0.2 0.7
v -0.2 0.2 0.5
v 0.2 0.2 0.5
v -0.2 0.2 -0.6
v 0.2 0.2 -0.6
v -0.2 0.2 -0.8
v 0.2 0.2 -0.8
v -0.2 0.3 0.8
v 0.2 0.3 0.8
v -0.2 0.3 0.7
v 0.2 0.3 0.7
v -0.2 0.3 -0.8
v 0.2 0.3 -0.8
v -0.2 0.3 -0.9
v 0.2 0.3 -0.9
v -0.2 0.5 0.9
v 0.2 0.5 0.9
v -0.2 0.5 0.8
v 0.2 0.5 0.8
v 0 0.5 0.2
v 0.1 0.5 0.2
v 0 0.5 -0.3
v 0.1 0.5 -0.3
v -0.2 0.5 -0.9
v 0.2 0.5 -0.9
v -0.2 0.5 -1
v 0.2 0.5 -1
v 0 0.6 0.4
v 0.1 0.6 0.4
v 0 0.6 0.2
v 0.1 0.6 0.2
v 0 0.6 -0.3
v 0.1 0.6 -0.3
v 0 0.6 -0.5
v 0.1 0.6 -0.5
v -0.2 0.7 1
v 0.2 0.7 1
v -0.2 0.7 0.9
v 0.2 0.7 0.9
v -0.2 0.7 -1
v 0.2 0.7 -1
v -0.2 0.7 -1.1
v 0.2 0.7 -1.1
v 0 0.8 0.5
v 0.1 0.8 0.5
v 0 0.8 0.4
v 0.1 0.8 0.4
v 0 0.8 -0.5
v 0.1 0.8 -0.5
v 0 0.8 -0.6
v 0.1 0.8 -0.6
v 0 1.4 0.8
v 0.2 1.4 0.8
v 0 1.4 0.7
v 0.2 1.4 0.7
v 0 1.4 -0.8
v 0.2 1.4 -0.8
v 0 1.4 -0.9
v 0.2 1.4 -0.9
v 0 1.6 0.7
v 0.2 1.6 0.7
v 0 1.6 0.6
v 0.2 1.6 0.6
v 0 1.6 -0.7
v 0.1 1.6 -0.7
v 0.2 1.6 -0.7
v 0 1.6 -0.8
v 0.1 1.6 -0.8
v 0.2 1.6 -0.8
v 0 1.7 0.6
v 0.2 1.7 0.6
v 0 1.7 0.5
v 0.2 1.7 0.5
v 0 1.7 -0.6
v 0.1 1.7 -0.6
v 0.2 1.7 -0.6
v 0 1.7 -0.7
v 0.1 1.7 -0.7
v 0.2 1.7 -0.7
v 0 1.8 0.5
v 0.2 1.8 0.5
v 0 1.8 0.3
v 0.2 1.8 0.3
v 0 1.8 -0.4
v 0.1 1.8 -0.4
v 0.2 1.8 -0.4
v 0 1.8 -0.6
v 0.1 1.8 -0.6
v 0.2 1.8 -0.6
v 0 1.9 0.3
v 0.2 1.9 0.3
v 0.1 1.9 -0.2
v 0.2 1.9 -0.2
v 0 1.9 -0.4
v 0.1 1.9 -0.4
v 0.2 1.9 -0.4
v 0 0.2 0.3
v 0.2 0.2 0.3
v 0 0.2 -0.4
v 0.2 0.2 -0.4
v 0 0.3 0.5
v 0.2 0.3 0.5
v 0 0.3 0.3
v 0.2 0.3 0.3
v 0 0.3 -0.4
v 0.2 0.3 -0.4
v 0 0.3 -0.6
v 0.2 0.3 -0.6
v 0 0.4 0.6
v 0.2 0.4 0.6
v 0 0.4 0.5
v 0.2 0.4 0.5
v 0 0.4 -0.6
v 0.2 0.4 -0.6
v 0 0.4 -0.7
v 0.2 0.4 -0.7
v 0 0.5 0.7
v 0.2 0.5 0.7
v 0 0.5 0.6
v 0.2 0.5 0.6
v 0 0.5 -0.7
v 0.2 0.5 -0.7
v 0 0.5 -0.8
v 0.2 0.5 -0.8
v 0 0.7 0.8
v 0.2 0.7 0.8
v 0 0.7 0.7
v 0.2 0.7 0.7
v 0 0.7 -0.8
v 0.2 0.7 -0.8
v 0 0.7 -0.9
v 0.2 0.7 -0.9
v 0 1.3 0.5
v 0.1 1.3 0.5
v 0 1.3 0.4
v 0.1 1.3 0.4
v 0 1.3 -0.5
v 0.1 1.3 -0.5
v 0 1.3 -0.6
v 0.1 1.3 -0.6
v -0.2 1.4 1
v 0.2 1.4 1
v -0.2 1.4 0.9
v 0.2 1.4 0.9
v -0.2 1.4 -1
v 0.2 1.4 -1
v -0.2 1.4 -1.1
v 0.2 1.4 -1.1
v 0 1.5 0.4
v 0.1 1.5 0.4
v 0 1.5 0.2
v 0.1 1.5 0.2
v 0 1.5 -0.3
v 0.1 1.5 -0.3
v 0 1.5 -0.5
v 0.1 1.5 -0.5
v -0.2 1.6 0.9
v 0.2 1.6 0.9
v -0.2 1.6 0.8
v 0.2 1.6 0.8
v 0 1.6 0.2
v 0.1 1.6 0.2
v 0 1.6 -0.3
v 0.1 1.6 -0.3
v -0.2 1.6 -0.9
v 0.1 1.6 -0.9
v 0.2 1.6 -0.9
v -0.2 1.6 -1
v 0.2 1.6 -1
v -0.2 1.8 0.8
v 0.2 1.8 0.8
v -0.2 1.8 0.7
v 0.2 1.8 0.7
v -0.2 1.8 -0.8
v 0.1 1.8 -0.8
v 0.2 1.8 -0.8
v -0.2 1.8 -0.9
v 0.1 1.8 -0.9
v 0.2 1.8 -0.9
v -0.2 1.9 0.7
v 0.2 1.9 0.7
v -0.2 1.9 0.5
v 0.2 1.9 0.5
v -0.2 1.9 -0.6
v 0.1 1.9 -0.6
v 0.2 1.9 -0.6
v -0.2 1.9 -0.8
v 0.1 1.9 -0.8
v 0.2 1.9 -0.8
v -0.2 2 0.5
v 0.2 2 0.5
v -0.2 2 0.3
v 0.2 2 0.3
v -0.2 2 -0.4
v 0.1 2 -0.4
v 0.2 2 -0.4
v -0.2 2 -0.6
v 0.1 2 -0.6
v 0.2 2 -0.6
v -0.2 2.1 0.3
v 0.2 2.1 0.3
v 0.1 2.1 -0.2
v 0.2 2.1 -0.2
v -0.2 2.1 -0.4
v 0.1 2.1 -0.4
v 0.2 2.1 -0.4

# faces
f 4/1/1 2/1/1 1/1/1
f 5/1/1 2/1/1 4/1/1
f 8/1/1 4/1/1 3/1/1
f 8/1/1 6/1/1 5/1/1
f 8/1/1 5/1/1 4/1/1
f 9/1/1 6/1/1 8/1/1
f 12/1/1 8/1/1 7/1/1
f 12/1/1 10/1/1 9/1/1
f 12/1/1 9/1/1 8/1/1
f 13/1/1 10/1/1 12/1/1
f 16/1/1 12/1/1 11/1/1
f 16/1/1 14/1/1 13/1/1
f 16/1/1 13/1/1 12/1/1
f 17/1/1 14/1/1 16/1/1
f 20/1/1 16/1/1 15/1/1
f 20/1/1 18/1/1 17/1/1
f 20/1/1 17/1/1 16/1/1
f 21/1/1 18/1/1 20/1/1
f 23/1/1 20/1/1 19/1/1
f 23/1/1 22/1/1 21/1/1
f 23/1/1 21/1/1 20/1/1
f 24/1/1 22/1/1 23/1/1
f 25/1/1 22/1/1 24/1/1
f 26/1/1 22/1/1 25/1/1
f 27/1/1 25/1/1 24/1/1
f 28/1/1 25/1/1 27/1/1
f 29/1/1 25/1/1 28/1/1
f 30/1/1 25/1/1 29/1/1
f 31/1/1 29/1/1 28/1/1
f 32/1/1 29/1/1 31/1/1
f 33/1/1 29/1/1 32/1/1
f 34/1/1 29/1/1 33/1/1
f 35/1/1 33/1/1 32/1/1
f 36/1/1 33/1/1 35/1/1
f 37/1/1 33/1/1 36/1/1
f 38/1/1 33/1/1 37/1/1
f 39/1/1 37/1/1 36/1/1
f 40/1/1 37/1/1 39/1/1
f 41/1/1 37/1/1 40/1/1
f 42/1/1 37/1/1 41/1/1
f 43/1/1 41/1/1 40/1/1
f 44/1/1 41/1/1 43/1/1
f 45/6/2 46/6/2 48/6/2
f 48/6/2 46/6/2 49/6/2
f 49/6/2 46/6/2 50/6/2
f 50/6/2 46/6/2 51/6/2
f 47/6/2 48/6/2 54/6/2
f 48/6/2 49/6/2 54/6/2
f 54/6/2 49/6/2 55/6/2
f 49/4/2 50/4/2 56/4/2
f 55/6/2 49/6/2 56/6/2
f 51/6/2 52/6/2 57/6/2
f 56/4/2 50/4/2 57/4/2
f 50/6/2 51/6/2 57/6/2
f 57/6/2 52/6/2 58/6/2
f 58/6/2 52/6/2 59/6/2
f 53/6/2 54/6/2 62/6/2
f 54/6/2 55/6/2 62/6/2
f 62/6/2 55/6/2 63/6/2
f 63/6/2 55/6/2 64/6/2
f 55/5/2 56/5/2 65/5/2
f 64/6/2 55/6/2 65/6/2
f 56/5/2 57/5/2 65/5/2
f 57/5/2 58/5/2 65/5/2
f 59/6/2 60/6/2 66/6/2
f 65/5/2 58/5/2 66/5/2
f 58/6/2 59/6/2 66/6/2
f 66/6/2 60/6/2 67/6/2
f 67/6/2 60/6/2 68/6/2
f 68/6/2 60/6/2 69/6/2
f 63/4/2 64/4/2 71/4/2
f 62/6/2 63/6/2 71/6/2
f 61/6/2 62/6/2 71/6/2
f 64/5/2 65/5/2 72/5/2
f 71/4/2 64/4/2 72/4/2
f 72/5/2 65/5/2 73/5/2
f 66/5/2 67/5/2 74/5/2
f 67/4/2 68/4/2 75/4/2
f 74/5/2 67/5/2 75/5/2
f 69/6/2 70/6/2 76/6/2
f 75/4/2 68/4/2 76/4/2
f 68/6/2 69/6/2 76/6/2
f 61/6/2 71/6/2 78/6/2
f 71/6/2 72/6/2 78/6/2
f 78/6/2 72/6/2 79/6/2
f 79/6/2 72/6/2 80/6/2
f 75/6/2 76/6/2 81/6/2
f 76/6/2 70/6/2 82/6/2
f 81/6/2 76/6/2 82/6/2
f 82/6/2 70/6/2 83/6/2
f 79/5/2 80/5/2 85/5/2
f 77/6/2 78/6/2 85/6/2
f 78/6/2 79/6/2 85/6/2
f 85/5/2 80/5/2 86/5/2
f 81/5/2 82/5/2 87/5/2
f 83/6/2 84/6/2 88/6/2
f 87/5/2 82/5/2 88/5/2
f 82/6/2 83/6/2 88/6/2
f 77/6/2 85/6/2 89/6/2
f 89/6/2 85/6/2 90/6/2
f 88/6/2 84/6/2 91/6/2
f 91/6/2 84/6/2 92/6/2
f 77/6/2 89/6/2 93/6/2
f 89/4/2 90/4/2 93/4/2
f 90/6/2 85/6/2 94/6/2
f 93/4/2 90/4/2 94/4/2
f 91/4/2 92/4/2 95/4/2
f 88/6/2 91/6/2 95/6/2
f 92/6/2 84/6/2 96/6/2
f 95/4/2 92/4/2 96/4/2
f 94/6/2 85/6/2 97/6/2
f 93/6/2 94/6/2 97/6/2
f 88/6/2 95/6/2 100/6/2
f 95/6/2 96/6/2 100/6/2
f 77/6/2 93/6/2 101/6/2
f 97/6/2 98/6/2 101/6/2
f 93/6/2 97/6/2 101/6/2
f 101/6/2 98/6/2 102/6/2
f 99/6/2 100/6/2 103/6/2
f 100/6/2 96/6/2 103/6/2
f 96/6/2 84/6/2 103/6/2
f 103/6/2 84/6/2 104/6/2
f 102/6/2 98/6/2 105/6/2
f 105/6/2 98/6/2 106/6/2
f 99/6/2 103/6/2 109/6/2
f 109/6/2 103/6/2 110/6/2
f 102/6/2 105/6/2 111/6/2
f 111/6/2 105/6/2 112/6/2
f 105/4/2 106/4/2 113/4/2
f 112/6/2 105/6/2 113/6/2
f 106/6/2 107/6/2 114/6/2
f 113/4/2 106/4/2 114/4/2
f 114/6/2 107/6/2 115/6/2
f 108/6/2 109/6/2 116/6/2
f 109/4/2 110/4/2 117/4/2
f 116/6/2 109/6/2 117/6/2
f 110/6/2 103/6/2 118/6/2
f 117/4/2 110/4/2 118/4/2
f 118/6/2 103/6/2 119/6/2
f 119/6/2 103/6/2 120/6/2
f 112/6/2 113/6/2 121/6/2
f 116/6/2 117/6/2 121/6/2
f 118/6/2 119/6/2 121/6/2
f 117/6/2 118/6/2 121/6/2
f 113/6/2 114/6/2 121/6/2
f 114/6/2 115/6/2 121/6/2
f 115/6/2 116/6/2 121/6/2
f 121/6/2 119/6/2 122/6/2
f 122/6/2 119/6/2 123/6/2
f 123/6/2 119/6/2 124/6/2
f 124/6/2 119/6/2 125/6/2
f 125/6/2 119/6/2 126/6/2
f 122/6/2 123/6/2 127/6/2
f 127/6/2 123/6/2 128/6/2
f 123/4/2 124/4/2 129/4/2
f 128/6/2 123/6/2 129/6/2
f 124/6/2 125/6/2 130/6/2
f 129/4/2 124/4/2 130/4/2
f 130/6/2 125/6/2 131/6/2
f 131/6/2 125/6/2 132/6/2
f 128/6/2 129/6/2 133/6/2
f 130/6/2 131/6/2 133/6/2
f 129/6/2 130/6/2 133/6/2
f 133/6/2 131/6/2 134/6/2
f 135/3/2 136/3/2 138/3/2
f 138/3/2 136/3/2 139/3/2
f 137/3/2 138/3/2 141/3/2
f 138/6/2 139/6/2 142/6/2
f 141/3/2 138/3/2 142/3/2
f 139/3/2 140/3/2 143/3/2
f 142/6/2 139/6/2 143/6/2
f 143/3/2 140/3/2 144/3/2
f 137/3/2 141/3/2 146/3/2
f 141/6/2 142/6/2 147/6/2
f 146/3/2 141/3/2 147/3/2
f 142/7/2 143/7/2 148/7/2
f 147/6/2 142/6/2 148/6/2
f 148/7/2 143/7/2 149/7/2
f 149/7/2 143/7/2 150/7/2
f 143/6/2 144/6/2 151/6/2
f 150/7/2 143/7/2 151/7/2
f 144/3/2 140/3/2 152/3/2
f 151/6/2 144/6/2 152/6/2
f 152/3/2 140/3/2 153/3/2
f 147/7/2 148/7/2 155/7/2
f 148/7/2 149/7/2 155/7/2
f 149/4/2 150/4/2 156/4/2
f 155/7/2 149/7/2 156/7/2
f 150/7/2 151/7/2 157/7/2
f 156/4/2 150/4/2 157/4/2
f 151/7/2 152/7/2 157/7/2
f 157/7/2 152/7/2 158/7/2
f 147/7/2 155/7/2 159/7/2
f 155/4/2 156/4/2 160/4/2
f 159/7/2 155/7/2 160/7/2
f 156/3/2 157/3/2 161/3/2
f 160/4/2 156/4/2 161/4/2
f 157/4/2 158/4/2 162/4/2
f 161/3/2 157/3/2 162/3/2
f 158/7/2 152/7/2 163/7/2
f 162/4/2 158/4/2 163/4/2
f 163/7/2 152/7/2 164/7/2
f 147/7/2 159/7/2 165/7/2
f 159/4/2 160/4/2 165/4/2
f 161/3/2 162/3/2 166/3/2
f 165/4/2 160/4/2 166/4/2
f 160/3/2 161/3/2 166/3/2
f 162/3/2 163/3/2 166/3/2
f 166/3/2 163/3/2 167/3/2
f 167/3/2 163/3/2 168/3/2
f 163/4/2 164/4/2 169/4/2
f 168/3/2 163/3/2 169/3/2
f 164/7/2 152/7/2 170/7/2
f 169/4/2 164/4/2 170/4/2
f 165/7/2 166/7/2 171/7/2
f 166/4/2 167/4/2 171/4/2
f 167/3/2 168/3/2 172/3/2
f 171/4/2 167/4/2 172/4/2
f 168/4/2 169/4/2 173/4/2
f 172/3/2 168/3/2 173/3/2
f 169/7/2 170/7/2 174/7/2
f 173/4/2 169/4/2 174/4/2
f 145/3/2 146/3/2 175/3/2
f 146/6/2 147/6/2 176/6/2
f 175/3/2 146/3/2 176/3/2
f 171/7/2 172/7/2 177/7/2
f 176/6/2 147/6/2 177/6/2
f 147/7/2 165/7/2 177/7/2
f 165/7/2 171/7/2 177/7/2
f 177/7/2 172/7/2 178/7/2
f 172/4/2 173/4/2 179/4/2
f 178/7/2 172/7/2 179/7/2
f 173/7/2 174/7/2 180/7/2
f 179/4/2 173/4/2 180/4/2
f 174/7/2 170/7/2 181/7/2
f 180/7/2 174/7/2 181/7/2
f 170/7/2 152/7/2 181/7/2
f 152/6/2 153/6/2 182/6/2
f 181/7/2 152/7/2 182/7/2
f 153/3/2 154/3/2 183/3/2
f 182/6/2 153/6/2 183/6/2
f 183/3/2 154/3/2 184/3/2
f 177/6/2 178/6/2 185/6/2
f 176/3/2 177/3/2 185/3/2
f 179/7/2 180/7/2 186/7/2
f 185/6/2 178/6/2 186/6/2
f 178/7/2 179/7/2 186/7/2
f 180/7/2 181/7/2 186/7/2
f 181/6/2 182/6/2 187/6/2
f 186/7/2 181/7/2 187/7/2
f 182/3/2 183/3/2 188/3/2
f 187/6/2 182/6/2 188/6/2
f 176/3/2 185/3/2 189/3/2
f 185/3/2 186/3/2 189/3/2
f 186/6/2 187/6/2 190/6/2
f 189/3/2 186/3/2 190/3/2
f 187/3/2 188/3/2 191/3/2
f 190/6/2 187/6/2 191/6/2
f 188/3/2 183/3/2 192/3/2
f 191/3/2 188/3/2 192/3/2
f 190/3/2 191/3/2 193/3/2
f 193/3/2 191/3/2 194/3/2
f 195/1/2 196/1/2 198/1/2
f 198/1/2 196/1/2 199/1/2
f 197/1/2 198/1/2 202/1/2
f 199/1/2 200/1/2 202/1/2
f 198/1/2 199/1/2 202/1/2
f 202/1/2 200/1/2 203/1/2
f 203/1/2 200/1/2 204/1/2
f 204/1/2 200/1/2 205/1/2
f 201/1/2 202/1/2 208/1/2
f 202/1/2 203/1/2 208/1/2
f 208/1/2 203/1/2 209/1/2
f 209/1/2 203/1/2 210/1/2
f 204/1/2 205/1/2 211/1/2
f 205/1/2 206/1/2 211/1/2
f 211/1/2 206/1/2 212/1/2
f 212/1/2 206/1/2 213/1/2
f 208/1/2 209/1/2 215/1/2
f 207/1/2 208/1/2 215/1/2
f 215/1/2 209/1/2 216/1/2
f 213/1/2 214/1/2 217/1/2
f 212/1/2 213/1/2 217/1/2
f 217/1/2 214/1/2 218/1/2
f 207/1/2 215/1/2 220/1/2
f 220/1/2 215/1/2 221/1/2
f 221/1/2 215/1/2 222/1/2
f 218/1/2 214/1/2 223/1/2
f 223/1/2 214/1/2 224/1/2
f 224/1/2 214/1/2 225/1/2
f 219/1/2 220/1/2 228/1/2
f 220/1/2 221/1/2 228/1/2
f 228/1/2 221/1/2 229/1/2
f 229/1/2 221/1/2 230/1/2
f 225/1/2 226/1/2 231/1/2
f 224/1/2 225/1/2 231/1/2
f 231/1/2 226/1/2 232/1/2
f 232/1/2 226/1/2 233/1/2
f 233/1/2 234/1/2 235/1/2
f 232/1/2 233/1/2 235/1/2
f 235/1/2 234/1/2 236/1/2
f 235/2/2 236/2/2 237/2/2
f 237/2/2 236/2/2 238/2/2
f 228/1/2 229/1/2 239/1/2
f 227/1/2 228/1/2 239/1/2
f 239/1/2 229/1/2 240/1/2
f 240/1/2 229/1/2 241/1/2
f 237/1/2 238/1/2 244/1/2
f 244/1/2 238/1/2 245/1/2
f 245/1/2 238/1/2 246/1/2
f 241/1/2 242/1/2 247/1/2
f 240/1/2 241/1/2 247/1/2
f 247/1/2 242/1/2 248/1/2
f 248/1/2 242/1/2 249/1/2
f 244/1/2 245/1/2 252/1/2
f 243/1/2 244/1/2 252/1/2
f 252/1/2 245/1/2 253/1/2
f 253/1/2 245/1/2 254/1/2
f 249/1/2 250/1/2 255/1/2
f 248/1/2 249/1/2 255/1/2
f 252/2/2 253/2/2 258/2/2
f 251/2/2 252/2/2 258/2/2
f 255/1/2 256/1/2 259/1/2
f 248/1/2 255/1/2 259/1/2
f 259/1/2 256/1/2 260/1/2
f 260/1/2 256/1/2 261/1/2
f 257/2/2 258/2/2 264/2/2
f 258/2/2 253/2/2 265/2/2
f 264/2/2 258/2/2 265/2/2
f 265/2/2 253/2/2 266/2/2
f 261/1/2 262/1/2 267/1/2
f 260/1/2 261/1/2 267/1/2
f 267/1/2 262/1/2 268/1/2
f 268/1/2 262/1/2 269/1/2
f 263/2/2 264/2/2 271/2/2
f 264/2/2 265/2/2 271/2/2
f 271/2/2 265/2/2 272/2/2
f 272/2/2 265/2/2 273/2/2
f 269/1/2 270/1/2 274/1/2
f 268/1/2 269/1/2 274/1/2
f 274/1/2 270/1/2 275/1/2
f 271/2/2 272/2/2 276/2/2
f 270/2/2 271/2/2 276/2/2
f 276/2/2 272/2/2 277/2/2
f 275/1/2 270/1/2 278/1/2
f 270/2/2 276/2/2 279/2/2
f 278/1/2 270/1/2 279/1/2
f 279/2/2 276/2/2 280/2/2
f 283/1/3 282/1/3 281/1/3
f 284/1/3 282/1/3 283/1/3
f 289/1/3 286/1/3 285/1/3
f 290/1/3 286/1/3 289/1/3
f 291/1/3 288/1/3 287/1/3
f 292/1/3 288/1/3 291/1/3
f 297/1/3 294/1/3 293/1/3
f 298/1/3 294/1/3 297/1/3
f 299/1/3 296/1/3 295/1/3
f 300/1/3 296/1/3 299/1/3
f 305/1/3 302/1/3 301/1/3
f 306/1/3 302/1/3 305/1/3
f 307/1/3 304/1/3 303/1/3
f 308/1/3 304/1/3 307/1/3
f 315/3/3 314/3/3 313/3/3
f 316/3/3 314/3/3 315/3/3
f 317/1/3 310/1/3 309/1/3
f 318/1/3 310/1/3 317/1/3
f 319/1/3 312/1/3 311/1/3
f 320/1/3 312/1/3 319/1/3
f 326/3/3 322/3/3 321/3/3
f 326/3/3 323/3/3 322/3/3
f 327/3/3 323/3/3 326/3/3
f 328/3/3 325/3/3 324/3/3
f 329/3/3 325/3/3 328/3/3
f 334/1/3 331/1/3 330/1/3
f 335/1/3 331/1/3 334/1/3
f 336/1/3 333/1/3 332/1/3
f 337/1/3 333/1/3 336/1/3
f 342/3/3 339/3/3 338/3/3
f 343/3/3 339/3/3 342/3/3
f 344/3/3 341/3/3 340/3/3
f 345/3/3 341/3/3 344/3/3
f 350/1/3 349/1/3 348/1/3
f 351/1/3 349/1/3 350/1/3
f 352/1/3 347/1/3 346/1/3
f 353/1/3 347/1/3 352/1/3
f 354/2/3 351/2/3 350/2/3
f 355/2/3 351/2/3 354/2/3
f 360/1/3 359/1/3 358/1/3
f 361/1/3 359/1/3 360/1/3
f 362/1/3 357/1/3 356/1/3
f 363/1/3 357/1/3 362/1/3
f 364/2/3 361/2/3 360/2/3
f 365/2/3 361/2/3 364/2/3
f 370/1/3 369/1/3 368/1/3
f 371/1/3 369/1/3 370/1/3
f 372/1/3 367/1/3 366/1/3
f 373/1/3 367/1/3 372/1/3
f 374/2/3 371/2/3 370/2/3
f 375/2/3 371/2/3 374/2/3
f 380/1/3 379/1/3 378/1/3
f 381/1/3 377/1/3 376/1/3
f 382/1/3 377/1/3 381/1/3
f 383/1/3 380/1/3 378/1/3
f 384/1/3 380/1/3 383/1/3
f 387/1/3 386/1/3 385/1/3
f 388/1/3 386/1/3 387/1/3
f 389/1/3 387/1/3 385/1/3
f 390/2/3 388/2/3 387/2/3
f 390/1/3 387/1/3 389/1/3
f 391/1/3 386/1/3 388/1/3
f 391/2/3 388/2/3 390/2/3
f 392/1/3 386/1/3 391/1/3
f 393/1/4 394/1/4 395/1/4
f 395/1/4 394/1/4 396/1/4
f 397/1/4 398/1/4 401/1/4
f 401/1/4 398/1/4 402/1/4
f 399/1/4 400/1/4 403/1/4
f 403/1/4 400/1/4 404/1/4
f 405/1/4 406/1/4 409/1/4
f 409/1/4 406/1/4 410/1/4
f 407/1/4 408/1/4 411/1/4
f 411/1/4 408/1/4 412/1/4
f 413/1/4 414/1/4 417/1/4
f 417/1/4 414/1/4 418/1/4
f 415/1/4 416/1/4 419/1/4
f 419/1/4 416/1/4 420/1/4
f 421/1/4 422/1/4 425/1/4
f 425/1/4 422/1/4 426/1/4
f 423/1/4 424/1/4 427/1/4
f 427/1/4 424/1/4 428/1/4
f 429/3/4 430/3/4 433/3/4
f 433/3/4 430/3/4 434/3/4
f 431/3/4 432/3/4 435/3/4
f 435/3/4 432/3/4 436/3/4
f 439/1/4 440/1/4 441/1/4
f 441/1/4 440/1/4 442/1/4
f 437/1/4 438/1/4 443/1/4
f 443/1/4 438/1/4 444/1/4
f 441/2/4 442/2/4 445/2/4
f 445/2/4 442/2/4 446/2/4
f 447/3/4 448/3/4 452/3/4
f 448/3/4 449/3/4 452/3/4
f 452/3/4 449/3/4 453/3/4
f 450/3/4 451/3/4 454/3/4
f 454/3/4 451/3/4 455/3/4
f 460/3/4 461/3/4 462/3/4
f 462/3/4 461/3/4 463/3/4
f 458/1/4 459/1/4 464/1/4
f 464/1/4 459/1/4 465/1/4
f 456/1/4 457/1/4 466/1/4
f 466/1/4 457/1/4 467/1/4
f 464/2/4 465/2/4 468/2/4
f 468/2/4 465/2/4 469/2/4
f 472/1/4 473/1/4 474/1/4
f 474/1/4 473/1/4 475/1/4
f 470/1/4 471/1/4 476/1/4
f 476/1/4 471/1/4 477/1/4
f 474/2/4 475/2/4 478/2/4
f 478/2/4 475/2/4 479/2/4
f 482/1/4 483/1/4 484/1/4
f 484/1/4 483/1/4 485/1/4
f 480/1/4 481/1/4 486/1/4
f 486/1/4 481/1/4 487/1/4
f 484/2/4 485/2/4 488/2/4
f 488/2/4 485/2/4 489/2/4
f 490/1/4 491/1/4 494/1/4
f 494/1/4 491/1/4 495/1/4
f 492/1/4 493/1/4 496/1/4
f 496/1/4 493/1/4 497/1/4
f 498/1/4 499/1/4 500/1/4
f 500/1/4 499/1/4 501/1/4
f 498/1/4 500/1/4 502/1/4
f 500/2/4 501/2/4 503/2/4
f 502/1/4 500/1/4 503/1/4
f 501/1/4 499/1/4 504/1/4
f 503/2/4 501/2/4 504/2/4
f 504/1/4 499/1/4 505/1/4
f 508/1/5 507/1/5 506/1/5
f 509/1/5 507/1/5 508/1/5
f 512/1/5 511/1/5 510/1/5
f 513/1/5 511/1/5 512/1/5
f 516/1/5 515/1/5 514/1/5
f 517/1/5 515/1/5 516/1/5
f 520/1/5 519/1/5 518/1/5
f 521/1/5 519/1/5 520/1/5
f 524/1/5 523/1/5 522/1/5
f 525/1/5 523/1/5 524/1/5
f 528/1/5 527/1/5 526/1/5
f 529/1/5 527/1/5 528/1/5
f 532/1/5 531/1/5 530/1/5
f 533/1/5 531/1/5 532/1/5
f 536/1/5 535/1/5 534/1/5
f 537/1/5 535/1/5 536/1/5
f 540/3/5 539/3/5 538/3/5
f 541/3/5 539/3/5 540/3/5
f 544/1/5 543/1/5 542/1/5
f 545/1/5 543/1/5 544/1/5
f 548/3/5 547/3/5 546/3/5
f 549/3/5 547/3/5 548/3/5
f 552/3/5 551/3/5 550/3/5
f 553/3/5 551/3/5 552/3/5
f 556/1/5 555/1/5 554/1/5
f 557/1/5 555/1/5 556/1/5
f 560/1/5 559/1/5 558/1/5
f 561/1/5 559/1/5 560/1/5
f 564/3/5 563/3/5 562/3/5
f 565/3/5 563/3/5 564/3/5
f 568/3/5 567/3/5 566/3/5
f 569/3/5 567/3/5 568/3/5
f 572/1/5 571/1/5 570/1/5
f 573/1/5 571/1/5 572/1/5
f 576/1/5 575/1/5 574/1/5
f 577/1/5 575/1/5 576/1/5
f 580/1/5 579/1/5 578/1/5
f 581/1/5 579/1/5 580/1/5
f 585/1/5 583/1/5 582/1/5
f 586/2/5 584/2/5 583/2/5
f 586/1/5 583/1/5 585/1/5
f 587/2/5 584/2/5 586/2/5
f 590/1/5 589/1/5 588/1/5
f 591/1/5 589/1/5 590/1/5
f 595/1/5 593/1/5 592/1/5
f 596/2/5 594/2/5 593/2/5
f 596/1/5 593/1/5 595/1/5
f 597/2/5 594/2/5 596/2/5
f 600/1/5 599/1/5 598/1/5
f 601/1/5 599/1/5 600/1/5
f 605/1/5 603/1/5 602/1/5
f 606/2/5 604/2/5 603/2/5
f 606/1/5 603/1/5 605/1/5
f 607/2/5 604/2/5 606/2/5
f 610/1/5 609/1/5 608/1/5
f 611/1/5 609/1/5 610/1/5
f 612/1/5 610/1/5 608/1/5
f 613/2/5 611/2/5 610/2/5
f 613/1/5 610/1/5 612/1/5
f 614/2/5 611/2/5 613/2/5
f 615/1/6 616/1/6 617/1/6
f 617/1/6 616/1/6 618/1/6
f 619/1/6 620/1/6 621/1/6
f 621/1/6 620/1/6 622/1/6
f 623/1/6 624/1/6 625/1/6
f 625/1/6 624/1/6 626/1/6
f 627/1/6 628/1/6 629/1/6
f 629/1/6 628/1/6 630/1/6
f 631/1/6 632/1/6 633/1/6
f 633/1/6 632/1/6 634/1/6
f 635/1/6 636/1/6 637/1/6
f 637/1/6 636/1/6 638/1/6
f 639/1/6 640/1/6 641/1/6
f 641/1/6 640/1/6 642/1/6
f 643/1/6 644/1/6 645/1/6
f 645/1/6 644/1/6 646/1/6
f 647/1/6 648/1/6 649/1/6
f 649/1/6 648/1/6 650/1/6
f 651/3/6 652/3/6 653/3/6
f 653/3/6 652/3/6 654/3/6
f 655/3/6 656/3/6 657/3/6
f 657/3/6 656/3/6 658/3/6
f 659/1/6 660/1/6 661/1/6
f 661/1/6 660/1/6 662/1/6
f 663/1/6 664/1/6 665/1/6
f 665/1/6 664/1/6 666/1/6
f 667/3/6 668/3/6 669/3/6
f 669/3/6 668/3/6 670/3/6
f 671/3/6 672/3/6 673/3/6
f 673/3/6 672/3/6 674/3/6
f 675/1/6 676/1/6 677/1/6
f 677/1/6 676/1/6 678/1/6
f 679/3/6 680/3/6 681/3/6
f 681/3/6 680/3/6 682/3/6
f 683/1/6 684/1/6 686/1/6
f 684/1/6 685/1/6 686/1/6
f 686/1/6 685/1/6 687/1/6
f 688/1/6 689/1/6 690/1/6
f 690/1/6 689/1/6 691/1/6
f 692/1/6 693/1/6 695/1/6
f 693/2/6 694/2/6 696/2/6
f 695/1/6 693/1/6 696/1/6
f 696/2/6 694/2/6 697/2/6
f 698/1/6 699/1/6 700/1/6
f 700/1/6 699/1/6 701/1/6
f 702/1/6 703/1/6 705/1/6
f 703/2/6 704/2/6 706/2/6
f 705/1/6 703/1/6 706/1/6
f 706/2/6 704/2/6 707/2/6
f 708/1/6 709/1/6 710/1/6
f 710/1/6 709/1/6 711/1/6
f 712/1/6 713/1/6 715/1/6
f 713/2/6 714/2/6 716/2/6
f 715/1/6 713/1/6 716/1/6
f 716/2/6 714/2/6 717/2/6
f 718/1/6 719/1/6 720/1/6
f 720/1/6 719/1/6 721/1/6
f 718/1/6 720/1/6 722/1/6
f 720/2/6 721/2/6 723/2/6
f 722/1/6 720/1/6 723/1/6
f 723/2/6 721/2/6 724/2/6
