# MagicaVoxel @ Ephtracy

# group
o 02-cupboard2

# material
mtllib ludum dare_tile02-5-02-cupboard2.mtl
usemtl palette

# normals
vn -1 0 0
vn 1 0 0
vn 0 0 1
vn 0 0 -1
vn 0 -1 0
vn 0 1 0

# texcoords
vt 0.103516 0.5
vt 0.380859 0.5
vt 0.384766 0.5
vt 0.388672 0.5
vt 0.392578 0.5
vt 0.396484 0.5
vt 0.412109 0.5
vt 0.416016 0.5

# verts
v -6.5 0.1 1.5
v -6.5 0.1 -1.5
v -6.5 0.6 1.5
v -6.5 0.6 -1.5
v -6.5 3.8 1.5
v -6.5 3.8 -1.5
v -6.5 4.1 1.5
v -6.5 4.1 -1.5
v -6.3 0.6 0.9
v -6.3 0.6 -1.3
v -6.3 3.8 0.9
v -6.3 3.8 -1.3
v -6 0.6 1.3
v -6 0.6 0.9
v -6 3.8 1.3
v -6 3.8 0.9
v -5.8 0.8 -1
v -5.8 0.8 -1.1
v -5.8 3.6 -1
v -5.8 3.6 -1.1
v -4.5 0.8 1.2
v -4.5 0.8 1.1
v -4.5 3.6 1.2
v -4.5 3.6 1.1
v -4.4 0.7 1.3
v -4.4 0.7 1.2
v -4.4 3.7 1.3
v -4.4 3.7 1.2
v -4 0.9 -1.1
v -4 0.9 -1.2
v -4 3.5 -1.1
v -4 3.5 -1.2
v -3.5 0.7 -1
v -3.5 0.7 -1.3
v -3.5 3.7 -1
v -3.5 3.7 -1.3
v -3.2 0.8 -1.1
v -3.2 0.8 -1.2
v -3.2 0.8 -1.3
v -3.2 3.6 -1.1
v -3.2 3.6 -1.2
v -3.2 3.6 -1.3
v -3 0.8 -1
v -3 0.8 -1.1
v -3 1.7 -1
v -3 1.7 -1.1
v -3 1.8 -1
v -3 1.8 -1.1
v -3 2.6 -1
v -3 2.6 -1.1
v -3 2.7 -1
v -3 2.7 -1.1
v -3 3.6 -1
v -3 3.6 -1.1
v -2.8 0.8 1.2
v -2.8 0.8 1.1
v -2.8 3.6 1.2
v -2.8 3.6 1.1
v -2.7 0.7 1.3
v -2.7 0.7 1.2
v -2.7 3.7 1.3
v -2.7 3.7 1.2
v -2.4 1.3 -1.1
v -2.4 1.3 -1.3
v -2.4 1.5 -1.1
v -2.4 1.5 -1.3
v -2.4 2.2 -1.1
v -2.4 2.2 -1.3
v -2.4 2.4 -1.1
v -2.4 2.4 -1.3
v -2.4 3.2 -1.1
v -2.4 3.2 -1.3
v -2.4 3.4 -1.1
v -2.4 3.4 -1.3
v -1.6 1.3 -1.1
v -1.6 1.3 -1.2
v -1.6 1.5 -1.1
v -1.6 1.5 -1.2
v -1.6 2.2 -1.1
v -1.6 2.2 -1.2
v -1.6 2.4 -1.1
v -1.6 2.4 -1.2
v -1.6 3.2 -1.1
v -1.6 3.2 -1.2
v -1.6 3.4 -1.1
v -1.6 3.4 -1.2
v -1.4 0.8 1.2
v -1.4 0.8 1.1
v -1.4 3.6 1.2
v -1.4 3.6 1.1
v -1.3 0.7 1.3
v -1.3 0.7 1.2
v -1.3 3.7 1.3
v -1.3 3.7 1.2
v -0.8 0.7 -1
v -0.8 0.7 -1.2
v -0.8 0.7 -1.3
v -0.8 3.7 -1
v -0.8 3.7 -1.2
v -0.8 3.7 -1.3
v -0.5 0.8 -1.1
v -0.5 0.8 -1.3
v -0.5 3.6 -1.1
v -0.5 3.6 -1.3
v -0.3 0.8 -1
v -0.3 0.8 -1.1
v -0.3 3.6 -1
v -0.3 3.6 -1.1
v -0.0999999 0.9 -1.1
v -0.0999999 0.9 -1.2
v -0.0999999 3.5 -1.1
v -0.0999999 3.5 -1.2
v 0.5 0.7 -1
v 0.5 0.7 -1.3
v 0.5 3.7 -1
v 0.5 3.7 -1.3
v 0.8 0.8 -1.1
v 0.8 0.8 -1.2
v 0.8 0.8 -1.3
v 0.8 3.6 -1.1
v 0.8 3.6 -1.2
v 0.8 3.6 -1.3
v 1 0.8 -1
v 1 0.8 -1.1
v 1 1.7 -1
v 1 1.7 -1.1
v 1 1.8 -1
v 1 1.8 -1.1
v 1 2.6 -1
v 1 2.6 -1.1
v 1 2.7 -1
v 1 2.7 -1.1
v 1 3.6 -1
v 1 3.6 -1.1
v 1.2 0.8 1.2
v 1.2 0.8 1.1
v 1.2 3.6 1.2
v 1.2 3.6 1.1
v 1.3 0.7 1.3
v 1.3 0.7 1.2
v 1.3 3.7 1.3
v 1.3 3.7 1.2
v 1.6 1.3 -1.1
v 1.6 1.3 -1.3
v 1.6 1.5 -1.1
v 1.6 1.5 -1.3
v 1.6 2.2 -1.1
v 1.6 2.2 -1.3
v 1.6 2.4 -1.1
v 1.6 2.4 -1.3
v 1.6 3.2 -1.1
v 1.6 3.2 -1.3
v 1.6 3.4 -1.1
v 1.6 3.4 -1.3
v 2.4 1.3 -1.1
v 2.4 1.3 -1.2
v 2.4 1.5 -1.1
v 2.4 1.5 -1.2
v 2.4 2.2 -1.1
v 2.4 2.2 -1.2
v 2.4 2.4 -1.1
v 2.4 2.4 -1.2
v 2.4 3.2 -1.1
v 2.4 3.2 -1.2
v 2.4 3.4 -1.1
v 2.4 3.4 -1.2
v 2.6 0.8 1.2
v 2.6 0.8 1.1
v 2.6 3.6 1.2
v 2.6 3.6 1.1
v 2.7 0.7 1.3
v 2.7 0.7 1.2
v 2.7 3.7 1.3
v 2.7 3.7 1.2
v 3.2 0.7 -1
v 3.2 0.7 -1.2
v 3.2 0.7 -1.3
v 3.2 3.7 -1
v 3.2 3.7 -1.2
v 3.2 3.7 -1.3
v 3.5 0.8 -1.1
v 3.5 0.8 -1.3
v 3.5 3.6 -1.1
v 3.5 3.6 -1.3
v 3.7 0.8 -1
v 3.7 0.8 -1.1
v 3.7 3.6 -1
v 3.7 3.6 -1.1
v 3.9 0.9 -1.1
v 3.9 0.9 -1.2
v 3.9 3.5 -1.1
v 3.9 3.5 -1.2
v 4.3 0.8 1.2
v 4.3 0.8 1.1
v 4.3 3.6 1.2
v 4.3 3.6 1.1
v 4.4 0.7 1.3
v 4.4 0.7 1.2
v 4.4 3.7 1.3
v 4.4 3.7 1.2
v 5.9 0.8 1.2
v 5.9 0.8 1.1
v 5.9 3.6 1.2
v 5.9 3.6 1.1
v 6 0.7 1.3
v 6 0.7 1.2
v 6 0.7 -1
v 6 0.7 -1.3
v 6 3.7 1.3
v 6 3.7 1.2
v 6 3.7 -1
v 6 3.7 -1.3
v -5.9 0.7 1.3
v -5.9 0.7 1.2
v -5.9 0.7 -1
v -5.9 0.7 -1.3
v -5.9 3.7 1.3
v -5.9 3.7 1.2
v -5.9 3.7 -1
v -5.9 3.7 -1.3
v -5.8 0.8 1.2
v -5.8 0.8 1.1
v -5.8 3.6 1.2
v -5.8 3.6 1.1
v -4.3 0.7 1.3
v -4.3 0.7 1.2
v -4.3 3.7 1.3
v -4.3 3.7 1.2
v -4.2 0.8 1.2
v -4.2 0.8 1.1
v -4.2 3.6 1.2
v -4.2 3.6 1.1
v -3.8 0.9 -1.1
v -3.8 0.9 -1.2
v -3.8 3.5 -1.1
v -3.8 3.5 -1.2
v -3.6 0.8 -1
v -3.6 0.8 -1.1
v -3.6 3.6 -1
v -3.6 3.6 -1.1
v -3.4 0.8 -1.1
v -3.4 0.8 -1.3
v -3.4 3.6 -1.1
v -3.4 3.6 -1.3
v -3.1 0.7 -1
v -3.1 0.7 -1.2
v -3.1 0.7 -1.3
v -3.1 3.7 -1
v -3.1 3.7 -1.2
v -3.1 3.7 -1.3
v -2.6 0.7 1.3
v -2.6 0.7 1.2
v -2.6 3.7 1.3
v -2.6 3.7 1.2
v -2.5 0.8 1.2
v -2.5 0.8 1.1
v -2.5 3.6 1.2
v -2.5 3.6 1.1
v -2.3 1.3 -1.1
v -2.3 1.3 -1.2
v -2.3 1.5 -1.1
v -2.3 1.5 -1.2
v -2.3 2.2 -1.1
v -2.3 2.2 -1.2
v -2.3 2.4 -1.1
v -2.3 2.4 -1.2
v -2.3 3.2 -1.1
v -2.3 3.2 -1.2
v -2.3 3.4 -1.1
v -2.3 3.4 -1.2
v -1.5 1.3 -1.1
v -1.5 1.3 -1.3
v -1.5 1.5 -1.1
v -1.5 1.5 -1.3
v -1.5 2.2 -1.1
v -1.5 2.2 -1.3
v -1.5 2.4 -1.1
v -1.5 2.4 -1.3
v -1.5 3.2 -1.1
v -1.5 3.2 -1.3
v -1.5 3.4 -1.1
v -1.5 3.4 -1.3
v -1.2 0.7 1.3
v -1.2 0.7 1.2
v -1.2 3.7 1.3
v -1.2 3.7 1.2
v -1.1 0.8 1.2
v -1.1 0.8 1.1
v -1.1 3.6 1.2
v -1.1 3.6 1.1
v -0.9 0.8 -1
v -0.9 0.8 -1.1
v -0.9 1.7 -1
v -0.9 1.7 -1.1
v -0.9 1.8 -1
v -0.9 1.8 -1.1
v -0.9 2.6 -1
v -0.9 2.6 -1.1
v -0.9 2.7 -1
v -0.9 2.7 -1.1
v -0.9 3.6 -1
v -0.9 3.6 -1.1
v -0.7 0.8 -1.1
v -0.7 0.8 -1.2
v -0.7 0.8 -1.3
v -0.7 3.6 -1.1
v -0.7 3.6 -1.2
v -0.7 3.6 -1.3
v -0.4 0.7 -1
v -0.4 0.7 -1.3
v -0.4 3.7 -1
v -0.4 3.7 -1.3
v 0.2 0.9 -1.1
v 0.2 0.9 -1.2
v 0.2 3.5 -1.1
v 0.2 3.5 -1.2
v 0.4 0.8 -1
v 0.4 0.8 -1.1
v 0.4 3.6 -1
v 0.4 3.6 -1.1
v 0.6 0.8 -1.1
v 0.6 0.8 -1.3
v 0.6 3.6 -1.1
v 0.6 3.6 -1.3
v 0.9 0.7 -1
v 0.9 0.7 -1.2
v 0.9 0.7 -1.3
v 0.9 3.7 -1
v 0.9 3.7 -1.2
v 0.9 3.7 -1.3
v 1.4 0.7 1.3
v 1.4 0.7 1.2
v 1.4 3.7 1.3
v 1.4 3.7 1.2
v 1.5 0.8 1.2
v 1.5 0.8 1.1
v 1.5 3.6 1.2
v 1.5 3.6 1.1
v 1.7 1.3 -1.1
v 1.7 1.3 -1.2
v 1.7 1.5 -1.1
v 1.7 1.5 -1.2
v 1.7 2.2 -1.1
v 1.7 2.2 -1.2
v 1.7 2.4 -1.1
v 1.7 2.4 -1.2
v 1.7 3.2 -1.1
v 1.7 3.2 -1.2
v 1.7 3.4 -1.1
v 1.7 3.4 -1.2
v 2.5 1.3 -1.1
v 2.5 1.3 -1.3
v 2.5 1.5 -1.1
v 2.5 1.5 -1.3
v 2.5 2.2 -1.1
v 2.5 2.2 -1.3
v 2.5 2.4 -1.1
v 2.5 2.4 -1.3
v 2.5 3.2 -1.1
v 2.5 3.2 -1.3
v 2.5 3.4 -1.1
v 2.5 3.4 -1.3
v 2.8 0.7 1.3
v 2.8 0.7 1.2
v 2.8 3.7 1.3
v 2.8 3.7 1.2
v 2.9 0.8 1.2
v 2.9 0.8 1.1
v 2.9 3.6 1.2
v 2.9 3.6 1.1
v 3.1 0.8 -1
v 3.1 0.8 -1.1
v 3.1 1.7 -1
v 3.1 1.7 -1.1
v 3.1 1.8 -1
v 3.1 1.8 -1.1
v 3.1 2.6 -1
v 3.1 2.6 -1.1
v 3.1 2.7 -1
v 3.1 2.7 -1.1
v 3.1 3.6 -1
v 3.1 3.6 -1.1
v 3.3 0.8 -1.1
v 3.3 0.8 -1.2
v 3.3 0.8 -1.3
v 3.3 3.6 -1.1
v 3.3 3.6 -1.2
v 3.3 3.6 -1.3
v 3.6 0.7 -1
v 3.6 0.7 -1.3
v 3.6 3.7 -1
v 3.6 3.7 -1.3
v 4.1 0.9 -1.1
v 4.1 0.9 -1.2
v 4.1 3.5 -1.1
v 4.1 3.5 -1.2
v 4.5 0.7 1.3
v 4.5 0.7 1.2
v 4.5 3.7 1.3
v 4.5 3.7 1.2
v 4.6 0.8 1.2
v 4.6 0.8 1.1
v 4.6 3.6 1.2
v 4.6 3.6 1.1
v 5.9 0.8 -1
v 5.9 0.8 -1.1
v 5.9 3.6 -1
v 5.9 3.6 -1.1
v 6.1 0.6 1.3
v 6.1 0.6 0.9
v 6.1 3.8 1.3
v 6.1 3.8 0.9
v 6.4 0.6 0.9
v 6.4 0.6 -1.3
v 6.4 3.8 0.9
v 6.4 3.8 -1.3
v 6.6 0.1 1.5
v 6.6 0.1 -1.5
v 6.6 0.6 1.5
v 6.6 0.6 -1.5
v 6.6 3.8 1.5
v 6.6 3.8 -1.5
v 6.6 4.1 1.5
v 6.6 4.1 -1.5
v -6.5 0.1 1.5
v -6.5 0.6 1.5
v -6.5 3.8 1.5
v -6.5 4.1 1.5
v 6.6 0.1 1.5
v 6.6 0.6 1.5
v 6.6 3.8 1.5
v 6.6 4.1 1.5
v -6 0.6 1.3
v -6 3.8 1.3
v -5.9 0.7 1.3
v -5.9 3.7 1.3
v -4.4 0.7 1.3
v -4.4 3.7 1.3
v -4.3 0.7 1.3
v -4.3 3.7 1.3
v -2.7 0.7 1.3
v -2.7 3.7 1.3
v -2.6 0.7 1.3
v -2.6 3.7 1.3
v -1.3 0.7 1.3
v -1.3 3.7 1.3
v -1.2 0.7 1.3
v -1.2 3.7 1.3
v 1.3 0.7 1.3
v 1.3 3.7 1.3
v 1.4 0.7 1.3
v 1.4 3.7 1.3
v 2.7 0.7 1.3
v 2.7 3.7 1.3
v 2.8 0.7 1.3
v 2.8 3.7 1.3
v 4.4 0.7 1.3
v 4.4 3.7 1.3
v 4.5 0.7 1.3
v 4.5 3.7 1.3
v 6 0.7 1.3
v 6 3.7 1.3
v 6.1 0.6 1.3
v 6.1 3.8 1.3
v -5.9 0.7 1.2
v -5.9 3.7 1.2
v -5.8 0.8 1.2
v -5.8 3.6 1.2
v -5.6 0.7 1.2
v -5.6 0.8 1.2
v -5.1 0.7 1.2
v -5.1 0.8 1.2
v -4.5 0.8 1.2
v -4.5 3.6 1.2
v -4.4 0.7 1.2
v -4.4 3.7 1.2
v -4.3 0.7 1.2
v -4.3 3.7 1.2
v -4.2 0.8 1.2
v -4.2 3.6 1.2
v -3.5 0.7 1.2
v -3.5 0.8 1.2
v -3.3 0.7 1.2
v -3.3 0.8 1.2
v -2.8 0.8 1.2
v -2.8 3.6 1.2
v -2.7 0.7 1.2
v -2.7 3.7 1.2
v -2.6 0.7 1.2
v -2.6 3.7 1.2
v -2.5 0.8 1.2
v -2.5 3.6 1.2
v -1.4 0.8 1.2
v -1.4 3.6 1.2
v -1.3 0.7 1.2
v -1.3 3.7 1.2
v -1.2 0.7 1.2
v -1.2 3.7 1.2
v -1.1 0.8 1.2
v -1.1 3.6 1.2
v -0.6 0.7 1.2
v -0.6 0.8 1.2
v -0.4 0.7 1.2
v -0.4 0.8 1.2
v 0.5 0.7 1.2
v 0.5 0.8 1.2
v 0.7 0.7 1.2
v 0.7 0.8 1.2
v 1.2 0.8 1.2
v 1.2 3.6 1.2
v 1.3 0.7 1.2
v 1.3 3.7 1.2
v 1.4 0.7 1.2
v 1.4 3.7 1.2
v 1.5 0.8 1.2
v 1.5 3.6 1.2
v 2.6 0.8 1.2
v 2.6 3.6 1.2
v 2.7 0.7 1.2
v 2.7 3.7 1.2
v 2.8 0.7 1.2
v 2.8 3.7 1.2
v 2.9 0.8 1.2
v 2.9 3.6 1.2
v 3.4 0.7 1.2
v 3.4 0.8 1.2
v 3.6 0.7 1.2
v 3.6 0.8 1.2
v 4.3 0.8 1.2
v 4.3 3.6 1.2
v 4.4 0.7 1.2
v 4.4 3.7 1.2
v 4.5 0.7 1.2
v 4.5 3.7 1.2
v 4.6 0.8 1.2
v 4.6 3.6 1.2
v 5.2 0.7 1.2
v 5.2 0.8 1.2
v 5.7 0.7 1.2
v 5.7 0.8 1.2
v 5.9 0.8 1.2
v 5.9 3.6 1.2
v 6 0.7 1.2
v 6 3.7 1.2
v -5.8 0.8 1.1
v -5.8 3.6 1.1
v -5.6 0.8 1.1
v -5.1 0.8 1.1
v -4.5 0.8 1.1
v -4.5 3.6 1.1
v -4.2 0.8 1.1
v -4.2 3.6 1.1
v -3.5 0.8 1.1
v -3.3 0.8 1.1
v -2.8 0.8 1.1
v -2.8 3.6 1.1
v -2.5 0.8 1.1
v -2.5 3.6 1.1
v -2 3.3 1.1
v -2 3.4 1.1
v -1.9 3.3 1.1
v -1.9 3.4 1.1
v -1.4 0.8 1.1
v -1.4 3.6 1.1
v -1.1 0.8 1.1
v -1.1 3.6 1.1
v -0.6 0.8 1.1
v -0.4 0.8 1.1
v 0.5 0.8 1.1
v 0.7 0.8 1.1
v 1.2 0.8 1.1
v 1.2 3.6 1.1
v 1.5 0.8 1.1
v 1.5 3.6 1.1
v 2 3.3 1.1
v 2 3.4 1.1
v 2.1 3.3 1.1
v 2.1 3.4 1.1
v 2.6 0.8 1.1
v 2.6 3.6 1.1
v 2.9 0.8 1.1
v 2.9 3.6 1.1
v 3.4 0.8 1.1
v 3.6 0.8 1.1
v 4.3 0.8 1.1
v 4.3 3.6 1.1
v 4.6 0.8 1.1
v 4.6 3.6 1.1
v 5.2 0.8 1.1
v 5.7 0.8 1.1
v 5.9 0.8 1.1
v 5.9 3.6 1.1
v -6.3 0.6 0.9
v -6.3 3.8 0.9
v -6.2 3.8 0.9
v -6 0.6 0.9
v -6 3.8 0.9
v 6.1 0.6 0.9
v 6.1 3.8 0.9
v 6.3 3.8 0.9
v 6.4 0.6 0.9
v 6.4 3.8 0.9
v -2.3 1.3 -1.2
v -2.3 1.5 -1.2
v -2.3 2.2 -1.2
v -2.3 2.4 -1.2
v -2.3 3.2 -1.2
v -2.3 3.4 -1.2
v -1.6 1.3 -1.2
v -1.6 1.5 -1.2
v -1.6 2.2 -1.2
v -1.6 2.4 -1.2
v -1.6 3.2 -1.2
v -1.6 3.4 -1.2
v 1.7 1.3 -1.2
v 1.7 1.5 -1.2
v 1.7 2.2 -1.2
v 1.7 2.4 -1.2
v 1.7 3.2 -1.2
v 1.7 3.4 -1.2
v 2.4 1.3 -1.2
v 2.4 1.5 -1.2
v 2.4 2.2 -1.2
v 2.4 2.4 -1.2
v 2.4 3.2 -1.2
v 2.4 3.4 -1.2
v -5.9 0.7 -1
v -5.9 3.7 -1
v -5.8 0.8 -1
v -5.8 3.6 -1
v -3.6 0.8 -1
v -3.6 3.6 -1
v -3.5 0.7 -1
v -3.5 3.7 -1
v -3.1 0.7 -1
v -3.1 3.7 -1
v -3 0.8 -1
v -3 1.7 -1
v -3 1.8 -1
v -3 2.6 -1
v -3 2.7 -1
v -3 3.6 -1
v -0.9 0.8 -1
v -0.9 1.7 -1
v -0.9 1.8 -1
v -0.9 2.6 -1
v -0.9 2.7 -1
v -0.9 3.6 -1
v -0.8 0.7 -1
v -0.8 3.7 -1
v -0.4 0.7 -1
v -0.4 3.7 -1
v -0.3 0.8 -1
v -0.3 3.6 -1
v 0.4 0.8 -1
v 0.4 3.6 -1
v 0.5 0.7 -1
v 0.5 3.7 -1
v 0.9 0.7 -1
v 0.9 3.7 -1
v 1 0.8 -1
v 1 1.7 -1
v 1 1.8 -1
v 1 2.6 -1
v 1 2.7 -1
v 1 3.6 -1
v 3.1 0.8 -1
v 3.1 1.7 -1
v 3.1 1.8 -1
v 3.1 2.6 -1
v 3.1 2.7 -1
v 3.1 3.6 -1
v 3.2 0.7 -1
v 3.2 3.7 -1
v 3.6 0.7 -1
v 3.6 3.7 -1
v 3.7 0.8 -1
v 3.7 3.6 -1
v 5.9 0.8 -1
v 5.9 3.6 -1
v 6 0.7 -1
v 6 3.7 -1
v -5.8 0.8 -1.1
v -5.8 3.6 -1.1
v -4 0.9 -1.1
v -4 3.5 -1.1
v -3.8 0.9 -1.1
v -3.8 3.5 -1.1
v -3.6 0.8 -1.1
v -3.6 3.6 -1.1
v -3.4 0.8 -1.1
v -3.4 3.6 -1.1
v -3.3 0.8 -1.1
v -3.3 3.6 -1.1
v -3.2 0.8 -1.1
v -3.2 3.6 -1.1
v -3 0.8 -1.1
v -3 1.7 -1.1
v -3 1.8 -1.1
v -3 2.6 -1.1
v -3 2.7 -1.1
v -3 3.6 -1.1
v -2.4 1.3 -1.1
v -2.4 1.5 -1.1
v -2.4 2.2 -1.1
v -2.4 2.4 -1.1
v -2.4 3.2 -1.1
v -2.4 3.4 -1.1
v -2.3 1.3 -1.1
v -2.3 1.5 -1.1
v -2.3 2.2 -1.1
v -2.3 2.4 -1.1
v -2.3 3.2 -1.1
v -2.3 3.4 -1.1
v -1.6 1.3 -1.1
v -1.6 1.5 -1.1
v -1.6 2.2 -1.1
v -1.6 2.4 -1.1
v -1.6 3.2 -1.1
v -1.6 3.4 -1.1
v -1.5 1.3 -1.1
v -1.5 1.5 -1.1
v -1.5 2.2 -1.1
v -1.5 2.4 -1.1
v -1.5 3.2 -1.1
v -1.5 3.4 -1.1
v -0.9 0.8 -1.1
v -0.9 1.7 -1.1
v -0.9 1.8 -1.1
v -0.9 2.6 -1.1
v -0.9 2.7 -1.1
v -0.9 3.6 -1.1
v -0.7 0.8 -1.1
v -0.7 3.6 -1.1
v -0.6 0.8 -1.1
v -0.6 3.6 -1.1
v -0.5 0.8 -1.1
v -0.5 3.6 -1.1
v -0.3 0.8 -1.1
v -0.3 3.6 -1.1
v -0.0999999 0.9 -1.1
v -0.0999999 3.5 -1.1
v 0.2 0.9 -1.1
v 0.2 3.5 -1.1
v 0.4 0.8 -1.1
v 0.4 3.6 -1.1
v 0.6 0.8 -1.1
v 0.6 3.6 -1.1
v 0.7 0.8 -1.1
v 0.7 3.6 -1.1
v 0.8 0.8 -1.1
v 0.8 3.6 -1.1
v 1 0.8 -1.1
v 1 1.7 -1.1
v 1 1.8 -1.1
v 1 2.6 -1.1
v 1 2.7 -1.1
v 1 3.6 -1.1
v 1.6 1.3 -1.1
v 1.6 1.5 -1.1
v 1.6 2.2 -1.1
v 1.6 2.4 -1.1
v 1.6 3.2 -1.1
v 1.6 3.4 -1.1
v 1.7 1.3 -1.1
v 1.7 1.5 -1.1
v 1.7 2.2 -1.1
v 1.7 2.4 -1.1
v 1.7 3.2 -1.1
v 1.7 3.4 -1.1
v 2.4 1.3 -1.1
v 2.4 1.5 -1.1
v 2.4 2.2 -1.1
v 2.4 2.4 -1.1
v 2.4 3.2 -1.1
v 2.4 3.4 -1.1
v 2.5 1.3 -1.1
v 2.5 1.5 -1.1
v 2.5 2.2 -1.1
v 2.5 2.4 -1.1
v 2.5 3.2 -1.1
v 2.5 3.4 -1.1
v 3.1 0.8 -1.1
v 3.1 1.7 -1.1
v 3.1 1.8 -1.1
v 3.1 2.6 -1.1
v 3.1 2.7 -1.1
v 3.1 3.6 -1.1
v 3.3 0.8 -1.1
v 3.3 3.6 -1.1
v 3.4 0.8 -1.1
v 3.4 3.6 -1.1
v 3.5 0.8 -1.1
v 3.5 3.6 -1.1
v 3.7 0.8 -1.1
v 3.7 3.6 -1.1
v 3.9 0.9 -1.1
v 3.9 3.5 -1.1
v 4.1 0.9 -1.1
v 4.1 3.5 -1.1
v 5.9 0.8 -1.1
v 5.9 3.6 -1.1
v -4 0.9 -1.2
v -4 3.5 -1.2
v -3.8 0.9 -1.2
v -3.8 3.5 -1.2
v -0.0999999 0.9 -1.2
v -0.0999999 3.5 -1.2
v 0.2 0.9 -1.2
v 0.2 3.5 -1.2
v 3.9 0.9 -1.2
v 3.9 3.5 -1.2
v 4.1 0.9 -1.2
v 4.1 3.5 -1.2
v -6.3 0.6 -1.3
v -6.3 3.8 -1.3
v -5.9 0.7 -1.3
v -5.9 3.7 -1.3
v -3.5 0.7 -1.3
v -3.5 3.7 -1.3
v -3.4 0.8 -1.3
v -3.4 3.6 -1.3
v -3.2 0.8 -1.3
v -3.2 3.6 -1.3
v -3.1 0.7 -1.3
v -3.1 3.7 -1.3
v -2.4 1.3 -1.3
v -2.4 1.5 -1.3
v -2.4 2.2 -1.3
v -2.4 2.4 -1.3
v -2.4 3.2 -1.3
v -2.4 3.4 -1.3
v -1.5 1.3 -1.3
v -1.5 1.5 -1.3
v -1.5 2.2 -1.3
v -1.5 2.4 -1.3
v -1.5 3.2 -1.3
v -1.5 3.4 -1.3
v -0.8 0.7 -1.3
v -0.8 3.7 -1.3
v -0.7 0.8 -1.3
v -0.7 3.6 -1.3
v -0.5 0.8 -1.3
v -0.5 3.6 -1.3
v -0.4 0.7 -1.3
v -0.4 3.7 -1.3
v 0.5 0.7 -1.3
v 0.5 3.7 -1.3
v 0.6 0.8 -1.3
v 0.6 3.6 -1.3
v 0.8 0.8 -1.3
v 0.8 3.6 -1.3
v 0.9 0.7 -1.3
v 0.9 3.7 -1.3
v 1.6 1.3 -1.3
v 1.6 1.5 -1.3
v 1.6 2.2 -1.3
v 1.6 2.4 -1.3
v 1.6 3.2 -1.3
v 1.6 3.4 -1.3
v 2.5 1.3 -1.3
v 2.5 1.5 -1.3
v 2.5 2.2 -1.3
v 2.5 2.4 -1.3
v 2.5 3.2 -1.3
v 2.5 3.4 -1.3
v 3.2 0.7 -1.3
v 3.2 3.7 -1.3
v 3.3 0.8 -1.3
v 3.3 3.6 -1.3
v 3.5 0.8 -1.3
v 3.5 3.6 -1.3
v 3.6 0.7 -1.3
v 3.6 3.7 -1.3
v 6 0.7 -1.3
v 6 3.7 -1.3
v 6.4 0.6 -1.3
v 6.4 3.8 -1.3
v -6.5 0.1 -1.5
v -6.5 0.6 -1.5
v -6.5 3.8 -1.5
v -6.5 4.1 -1.5
v 6.6 0.1 -1.5
v 6.6 0.6 -1.5
v 6.6 3.8 -1.5
v 6.6 4.1 -1.5
v -6.5 0.1 1.5
v 6.6 0.1 1.5
v -6.5 0.1 -1.5
v 6.6 0.1 -1.5
v -5.8 0.8 -1
v -3.6 0.8 -1
v -3 0.8 -1
v -0.9 0.8 -1
v -0.3 0.8 -1
v 0.4 0.8 -1
v 1 0.8 -1
v 3.1 0.8 -1
v 3.7 0.8 -1
v 5.9 0.8 -1
v -5.8 0.8 -1.1
v -3.6 0.8 -1.1
v -3 0.8 -1.1
v -0.9 0.8 -1.1
v -0.3 0.8 -1.1
v 0.4 0.8 -1.1
v 1 0.8 -1.1
v 3.1 0.8 -1.1
v 3.7 0.8 -1.1
v 5.9 0.8 -1.1
v -4 0.9 -1.1
v -3.8 0.9 -1.1
v -0.0999999 0.9 -1.1
v 0.2 0.9 -1.1
v 3.9 0.9 -1.1
v 4.1 0.9 -1.1
v -4 0.9 -1.2
v -3.8 0.9 -1.2
v -0.0999999 0.9 -1.2
v 0.2 0.9 -1.2
v 3.9 0.9 -1.2
v 4.1 0.9 -1.2
v -2.4 1.3 -1.1
v -2.3 1.3 -1.1
v -1.6 1.3 -1.1
v -1.5 1.3 -1.1
v 1.6 1.3 -1.1
v 1.7 1.3 -1.1
v 2.4 1.3 -1.1
v 2.5 1.3 -1.1
v -2.3 1.3 -1.2
v -1.6 1.3 -1.2
v 1.7 1.3 -1.2
v 2.4 1.3 -1.2
v -2.4 1.3 -1.3
v -1.5 1.3 -1.3
v 1.6 1.3 -1.3
v 2.5 1.3 -1.3
v -3 1.8 -1
v -0.9 1.8 -1
v 1 1.8 -1
v 3.1 1.8 -1
v -3 1.8 -1.1
v -0.9 1.8 -1.1
v 1 1.8 -1.1
v 3.1 1.8 -1.1
v -2.4 2.2 -1.1
v -2.3 2.2 -1.1
v -1.6 2.2 -1.1
v -1.5 2.2 -1.1
v 1.6 2.2 -1.1
v 1.7 2.2 -1.1
v 2.4 2.2 -1.1
v 2.5 2.2 -1.1
v -2.3 2.2 -1.2
v -1.6 2.2 -1.2
v 1.7 2.2 -1.2
v 2.4 2.2 -1.2
v -2.4 2.2 -1.3
v -1.5 2.2 -1.3
v 1.6 2.2 -1.3
v 2.5 2.2 -1.3
v -3 2.7 -1
v -0.9 2.7 -1
v 1 2.7 -1
v 3.1 2.7 -1
v -3 2.7 -1.1
v -0.9 2.7 -1.1
v 1 2.7 -1.1
v 3.1 2.7 -1.1
v -2.4 3.2 -1.1
v -2.3 3.2 -1.1
v -1.6 3.2 -1.1
v -1.5 3.2 -1.1
v 1.6 3.2 -1.1
v 1.7 3.2 -1.1
v 2.4 3.2 -1.1
v 2.5 3.2 -1.1
v -2.3 3.2 -1.2
v -1.6 3.2 -1.2
v 1.7 3.2 -1.2
v 2.4 3.2 -1.2
v -2.4 3.2 -1.3
v -1.5 3.2 -1.3
v 1.6 3.2 -1.3
v 2.5 3.2 -1.3
v -5.8 3.6 1.2
v -4.5 3.6 1.2
v -4.2 3.6 1.2
v -2.8 3.6 1.2
v -2.5 3.6 1.2
v -1.4 3.6 1.2
v -1.1 3.6 1.2
v 1.2 3.6 1.2
v 1.5 3.6 1.2
v 2.6 3.6 1.2
v 2.9 3.6 1.2
v 4.3 3.6 1.2
v 4.6 3.6 1.2
v 5.9 3.6 1.2
v -5.8 3.6 1.1
v -4.5 3.6 1.1
v -4.2 3.6 1.1
v -2.8 3.6 1.1
v -2.5 3.6 1.1
v -1.4 3.6 1.1
v -1.1 3.6 1.1
v 1.2 3.6 1.1
v 1.5 3.6 1.1
v 2.6 3.6 1.1
v 2.9 3.6 1.1
v 4.3 3.6 1.1
v 4.6 3.6 1.1
v 5.9 3.6 1.1
v -3.4 3.6 -1.1
v -3.3 3.6 -1.1
v -3.2 3.6 -1.1
v -0.7 3.6 -1.1
v -0.6 3.6 -1.1
v -0.5 3.6 -1.1
v 0.6 3.6 -1.1
v 0.7 3.6 -1.1
v 0.8 3.6 -1.1
v 3.3 3.6 -1.1
v 3.4 3.6 -1.1
v 3.5 3.6 -1.1
v -3.3 3.6 -1.2
v -3.2 3.6 -1.2
v -0.7 3.6 -1.2
v -0.6 3.6 -1.2
v 0.7 3.6 -1.2
v 0.8 3.6 -1.2
v 3.3 3.6 -1.2
v 3.4 3.6 -1.2
v -3.4 3.6 -1.3
v -3.2 3.6 -1.3
v -0.7 3.6 -1.3
v -0.5 3.6 -1.3
v 0.6 3.6 -1.3
v 0.8 3.6 -1.3
v 3.3 3.6 -1.3
v 3.5 3.6 -1.3
v -5.9 3.7 1.3
v -4.4 3.7 1.3
v -4.3 3.7 1.3
v -2.7 3.7 1.3
v -2.6 3.7 1.3
v -1.3 3.7 1.3
v -1.2 3.7 1.3
v 1.3 3.7 1.3
v 1.4 3.7 1.3
v 2.7 3.7 1.3
v 2.8 3.7 1.3
v 4.4 3.7 1.3
v 4.5 3.7 1.3
v 6 3.7 1.3
v -5.9 3.7 1.2
v -4.4 3.7 1.2
v -4.3 3.7 1.2
v -2.7 3.7 1.2
v -2.6 3.7 1.2
v -1.3 3.7 1.2
v -1.2 3.7 1.2
v 1.3 3.7 1.2
v 1.4 3.7 1.2
v 2.7 3.7 1.2
v 2.8 3.7 1.2
v 4.4 3.7 1.2
v 4.5 3.7 1.2
v 6 3.7 1.2
v -5.9 3.7 -1
v -3.5 3.7 -1
v -3.1 3.7 -1
v -0.8 3.7 -1
v -0.4 3.7 -1
v 0.5 3.7 -1
v 0.9 3.7 -1
v 3.2 3.7 -1
v 3.6 3.7 -1
v 6 3.7 -1
v -3.1 3.7 -1.2
v -0.8 3.7 -1.2
v 0.9 3.7 -1.2
v 3.2 3.7 -1.2
v -5.9 3.7 -1.3
v -3.5 3.7 -1.3
v -3.1 3.7 -1.3
v -0.8 3.7 -1.3
v -0.4 3.7 -1.3
v 0.5 3.7 -1.3
v 0.9 3.7 -1.3
v 3.2 3.7 -1.3
v 3.6 3.7 -1.3
v 6 3.7 -1.3
v -6.5 3.8 1.5
v 6.6 3.8 1.5
v -6.3 3.8 1.3
v -6.2 3.8 1.3
v -6 3.8 1.3
v 6.1 3.8 1.3
v 6.3 3.8 1.3
v 6.4 3.8 1.3
v -6.3 3.8 0.9
v -6.2 3.8 0.9
v -6 3.8 0.9
v 6.1 3.8 0.9
v 6.3 3.8 0.9
v 6.4 3.8 0.9
v -6.3 3.8 -1.3
v 6.4 3.8 -1.3
v -6.5 3.8 -1.5
v 6.6 3.8 -1.5
v -6.5 0.6 1.5
v 6.6 0.6 1.5
v -6 0.6 1.3
v 6.1 0.6 1.3
v -6.3 0.6 0.9
v -6 0.6 0.9
v 6.1 0.6 0.9
v 6.4 0.6 0.9
v -6.3 0.6 -1.3
v 6.4 0.6 -1.3
v -6.5 0.6 -1.5
v 6.6 0.6 -1.5
v -5.9 0.7 1.3
v -4.4 0.7 1.3
v -4.3 0.7 1.3
v -2.7 0.7 1.3
v -2.6 0.7 1.3
v -1.3 0.7 1.3
v -1.2 0.7 1.3
v 1.3 0.7 1.3
v 1.4 0.7 1.3
v 2.7 0.7 1.3
v 2.8 0.7 1.3
v 4.4 0.7 1.3
v 4.5 0.7 1.3
v 6 0.7 1.3
v -5.9 0.7 1.2
v -5.6 0.7 1.2
v -5.1 0.7 1.2
v -4.4 0.7 1.2
v -4.3 0.7 1.2
v -3.5 0.7 1.2
v -3.3 0.7 1.2
v -2.7 0.7 1.2
v -2.6 0.7 1.2
v -1.3 0.7 1.2
v -1.2 0.7 1.2
v -0.6 0.7 1.2
v -0.4 0.7 1.2
v 0.5 0.7 1.2
v 0.7 0.7 1.2
v 1.3 0.7 1.2
v 1.4 0.7 1.2
v 2.7 0.7 1.2
v 2.8 0.7 1.2
v 3.4 0.7 1.2
v 3.6 0.7 1.2
v 4.4 0.7 1.2
v 4.5 0.7 1.2
v 5.2 0.7 1.2
v 5.7 0.7 1.2
v 6 0.7 1.2
v -5.9 0.7 -1
v -3.5 0.7 -1
v -3.1 0.7 -1
v -0.8 0.7 -1
v -0.4 0.7 -1
v 0.5 0.7 -1
v 0.9 0.7 -1
v 3.2 0.7 -1
v 3.6 0.7 -1
v 6 0.7 -1
v -3.1 0.7 -1.2
v -0.8 0.7 -1.2
v 0.9 0.7 -1.2
v 3.2 0.7 -1.2
v -5.9 0.7 -1.3
v -3.5 0.7 -1.3
v -3.1 0.7 -1.3
v -0.8 0.7 -1.3
v -0.4 0.7 -1.3
v 0.5 0.7 -1.3
v 0.9 0.7 -1.3
v 3.2 0.7 -1.3
v 3.6 0.7 -1.3
v 6 0.7 -1.3
v -5.8 0.8 1.2
v -5.6 0.8 1.2
v -5.1 0.8 1.2
v -4.5 0.8 1.2
v -4.2 0.8 1.2
v -3.5 0.8 1.2
v -3.3 0.8 1.2
v -2.8 0.8 1.2
v -2.5 0.8 1.2
v -1.4 0.8 1.2
v -1.1 0.8 1.2
v -0.6 0.8 1.2
v -0.4 0.8 1.2
v 0.5 0.8 1.2
v 0.7 0.8 1.2
v 1.2 0.8 1.2
v 1.5 0.8 1.2
v 2.6 0.8 1.2
v 2.9 0.8 1.2
v 3.4 0.8 1.2
v 3.6 0.8 1.2
v 4.3 0.8 1.2
v 4.6 0.8 1.2
v 5.2 0.8 1.2
v 5.7 0.8 1.2
v 5.9 0.8 1.2
v -5.8 0.8 1.1
v -5.6 0.8 1.1
v -5.1 0.8 1.1
v -4.5 0.8 1.1
v -4.2 0.8 1.1
v -3.5 0.8 1.1
v -3.3 0.8 1.1
v -2.8 0.8 1.1
v -2.5 0.8 1.1
v -1.4 0.8 1.1
v -1.1 0.8 1.1
v -0.6 0.8 1.1
v -0.4 0.8 1.1
v 0.5 0.8 1.1
v 0.7 0.8 1.1
v 1.2 0.8 1.1
v 1.5 0.8 1.1
v 2.6 0.8 1.1
v 2.9 0.8 1.1
v 3.4 0.8 1.1
v 3.6 0.8 1.1
v 4.3 0.8 1.1
v 4.6 0.8 1.1
v 5.2 0.8 1.1
v 5.7 0.8 1.1
v 5.9 0.8 1.1
v -3.4 0.8 -1.1
v -3.3 0.8 -1.1
v -3.2 0.8 -1.1
v -0.7 0.8 -1.1
v -0.6 0.8 -1.1
v -0.5 0.8 -1.1
v 0.6 0.8 -1.1
v 0.7 0.8 -1.1
v 0.8 0.8 -1.1
v 3.3 0.8 -1.1
v 3.4 0.8 -1.1
v 3.5 0.8 -1.1
v -3.3 0.8 -1.2
v -3.2 0.8 -1.2
v -0.7 0.8 -1.2
v -0.6 0.8 -1.2
v 0.7 0.8 -1.2
v 0.8 0.8 -1.2
v 3.3 0.8 -1.2
v 3.4 0.8 -1.2
v -3.4 0.8 -1.3
v -3.2 0.8 -1.3
v -0.7 0.8 -1.3
v -0.5 0.8 -1.3
v 0.6 0.8 -1.3
v 0.8 0.8 -1.3
v 3.3 0.8 -1.3
v 3.5 0.8 -1.3
v -2.4 1.5 -1.1
v -2.3 1.5 -1.1
v -1.6 1.5 -1.1
v -1.5 1.5 -1.1
v 1.6 1.5 -1.1
v 1.7 1.5 -1.1
v 2.4 1.5 -1.1
v 2.5 1.5 -1.1
v -2.3 1.5 -1.2
v -1.6 1.5 -1.2
v 1.7 1.5 -1.2
v 2.4 1.5 -1.2
v -2.4 1.5 -1.3
v -1.5 1.5 -1.3
v 1.6 1.5 -1.3
v 2.5 1.5 -1.3
v -3 1.7 -1
v -0.9 1.7 -1
v 1 1.7 -1
v 3.1 1.7 -1
v -3 1.7 -1.1
v -0.9 1.7 -1.1
v 1 1.7 -1.1
v 3.1 1.7 -1.1
v -2.4 2.4 -1.1
v -2.3 2.4 -1.1
v -1.6 2.4 -1.1
v -1.5 2.4 -1.1
v 1.6 2.4 -1.1
v 1.7 2.4 -1.1
v 2.4 2.4 -1.1
v 2.5 2.4 -1.1
v -2.3 2.4 -1.2
v -1.6 2.4 -1.2
v 1.7 2.4 -1.2
v 2.4 2.4 -1.2
v -2.4 2.4 -1.3
v -1.5 2.4 -1.3
v 1.6 2.4 -1.3
v 2.5 2.4 -1.3
v -3 2.6 -1
v -0.9 2.6 -1
v 1 2.6 -1
v 3.1 2.6 -1
v -3 2.6 -1.1
v -0.9 2.6 -1.1
v 1 2.6 -1.1
v 3.1 2.6 -1.1
v -2.4 3.4 -1.1
v -2.3 3.4 -1.1
v -1.6 3.4 -1.1
v -1.5 3.4 -1.1
v 1.6 3.4 -1.1
v 1.7 3.4 -1.1
v 2.4 3.4 -1.1
v 2.5 3.4 -1.1
v -2.3 3.4 -1.2
v -1.6 3.4 -1.2
v 1.7 3.4 -1.2
v 2.4 3.4 -1.2
v -2.4 3.4 -1.3
v -1.5 3.4 -1.3
v 1.6 3.4 -1.3
v 2.5 3.4 -1.3
v -4 3.5 -1.1
v -3.8 3.5 -1.1
v -0.0999999 3.5 -1.1
v 0.2 3.5 -1.1
v 3.9 3.5 -1.1
v 4.1 3.5 -1.1
v -4 3.5 -1.2
v -3.8 3.5 -1.2
v -0.0999999 3.5 -1.2
v 0.2 3.5 -1.2
v 3.9 3.5 -1.2
v 4.1 3.5 -1.2
v -5.8 3.6 -1
v -3.6 3.6 -1
v -3 3.6 -1
v -0.9 3.6 -1
v -0.3 3.6 -1
v 0.4 3.6 -1
v 1 3.6 -1
v 3.1 3.6 -1
v 3.7 3.6 -1
v 5.9 3.6 -1
v -5.8 3.6 -1.1
v -3.6 3.6 -1.1
v -3 3.6 -1.1
v -0.9 3.6 -1.1
v -0.3 3.6 -1.1
v 0.4 3.6 -1.1
v 1 3.6 -1.1
v 3.1 3.6 -1.1
v 3.7 3.6 -1.1
v 5.9 3.6 -1.1
v -6.5 4.1 1.5
v 6.6 4.1 1.5
v -6.4 4.1 1.4
v 6.5 4.1 1.4
v -6.4 4.1 -1.4
v 6.5 4.1 -1.4
v -6.5 4.1 -1.5
v 6.6 4.1 -1.5

# faces
f 3/3/1 2/3/1 1/3/1
f 4/3/1 2/3/1 3/3/1
f 7/7/1 6/7/1 5/7/1
f 8/7/1 6/7/1 7/7/1
f 11/4/1 10/4/1 9/4/1
f 12/4/1 10/4/1 11/4/1
f 15/4/1 14/4/1 13/4/1
f 16/4/1 14/4/1 15/4/1
f 19/4/1 18/4/1 17/4/1
f 20/4/1 18/4/1 19/4/1
f 23/3/1 22/3/1 21/3/1
f 24/3/1 22/3/1 23/3/1
f 27/4/1 26/4/1 25/4/1
f 28/4/1 26/4/1 27/4/1
f 31/1/1 30/1/1 29/1/1
f 32/1/1 30/1/1 31/1/1
f 35/4/1 34/4/1 33/4/1
f 36/4/1 34/4/1 35/4/1
f 40/5/1 38/5/1 37/5/1
f 41/4/1 39/4/1 38/4/1
f 41/5/1 38/5/1 40/5/1
f 42/4/1 39/4/1 41/4/1
f 45/4/1 44/4/1 43/4/1
f 46/4/1 44/4/1 45/4/1
f 49/4/1 48/4/1 47/4/1
f 50/4/1 48/4/1 49/4/1
f 53/4/1 52/4/1 51/4/1
f 54/4/1 52/4/1 53/4/1
f 57/3/1 56/3/1 55/3/1
f 58/3/1 56/3/1 57/3/1
f 61/4/1 60/4/1 59/4/1
f 62/4/1 60/4/1 61/4/1
f 65/1/1 64/1/1 63/1/1
f 66/1/1 64/1/1 65/1/1
f 69/1/1 68/1/1 67/1/1
f 70/1/1 68/1/1 69/1/1
f 73/1/1 72/1/1 71/1/1
f 74/1/1 72/1/1 73/1/1
f 77/1/1 76/1/1 75/1/1
f 78/1/1 76/1/1 77/1/1
f 81/1/1 80/1/1 79/1/1
f 82/1/1 80/1/1 81/1/1
f 85/1/1 84/1/1 83/1/1
f 86/1/1 84/1/1 85/1/1
f 89/3/1 88/3/1 87/3/1
f 90/3/1 88/3/1 89/3/1
f 93/4/1 92/4/1 91/4/1
f 94/4/1 92/4/1 93/4/1
f 98/5/1 96/5/1 95/5/1
f 99/4/1 97/4/1 96/4/1
f 99/5/1 96/5/1 98/5/1
f 100/4/1 97/4/1 99/4/1
f 103/4/1 102/4/1 101/4/1
f 104/4/1 102/4/1 103/4/1
f 107/4/1 106/4/1 105/4/1
f 108/4/1 106/4/1 107/4/1
f 111/1/1 110/1/1 109/1/1
f 112/1/1 110/1/1 111/1/1
f 115/4/1 114/4/1 113/4/1
f 116/4/1 114/4/1 115/4/1
f 120/5/1 118/5/1 117/5/1
f 121/4/1 119/4/1 118/4/1
f 121/5/1 118/5/1 120/5/1
f 122/4/1 119/4/1 121/4/1
f 125/4/1 124/4/1 123/4/1
f 126/4/1 124/4/1 125/4/1
f 129/4/1 128/4/1 127/4/1
f 130/4/1 128/4/1 129/4/1
f 133/4/1 132/4/1 131/4/1
f 134/4/1 132/4/1 133/4/1
f 137/3/1 136/3/1 135/3/1
f 138/3/1 136/3/1 137/3/1
f 141/4/1 140/4/1 139/4/1
f 142/4/1 140/4/1 141/4/1
f 145/1/1 144/1/1 143/1/1
f 146/1/1 144/1/1 145/1/1
f 149/1/1 148/1/1 147/1/1
f 150/1/1 148/1/1 149/1/1
f 153/1/1 152/1/1 151/1/1
f 154/1/1 152/1/1 153/1/1
f 157/1/1 156/1/1 155/1/1
f 158/1/1 156/1/1 157/1/1
f 161/1/1 160/1/1 159/1/1
f 162/1/1 160/1/1 161/1/1
f 165/1/1 164/1/1 163/1/1
f 166/1/1 164/1/1 165/1/1
f 169/3/1 168/3/1 167/3/1
f 170/3/1 168/3/1 169/3/1
f 173/4/1 172/4/1 171/4/1
f 174/4/1 172/4/1 173/4/1
f 178/5/1 176/5/1 175/5/1
f 179/4/1 177/4/1 176/4/1
f 179/5/1 176/5/1 178/5/1
f 180/4/1 177/4/1 179/4/1
f 183/4/1 182/4/1 181/4/1
f 184/4/1 182/4/1 183/4/1
f 187/4/1 186/4/1 185/4/1
f 188/4/1 186/4/1 187/4/1
f 191/1/1 190/1/1 189/1/1
f 192/1/1 190/1/1 191/1/1
f 195/3/1 194/3/1 193/3/1
f 196/3/1 194/3/1 195/3/1
f 199/4/1 198/4/1 197/4/1
f 200/4/1 198/4/1 199/4/1
f 203/3/1 202/3/1 201/3/1
f 204/3/1 202/3/1 203/3/1
f 209/4/1 206/4/1 205/4/1
f 210/4/1 206/4/1 209/4/1
f 211/4/1 208/4/1 207/4/1
f 212/4/1 208/4/1 211/4/1
f 213/4/2 214/4/2 217/4/2
f 217/4/2 214/4/2 218/4/2
f 215/4/2 216/4/2 219/4/2
f 219/4/2 216/4/2 220/4/2
f 221/3/2 222/3/2 223/3/2
f 223/3/2 222/3/2 224/3/2
f 225/4/2 226/4/2 227/4/2
f 227/4/2 226/4/2 228/4/2
f 229/3/2 230/3/2 231/3/2
f 231/3/2 230/3/2 232/3/2
f 233/1/2 234/1/2 235/1/2
f 235/1/2 234/1/2 236/1/2
f 237/4/2 238/4/2 239/4/2
f 239/4/2 238/4/2 240/4/2
f 241/4/2 242/4/2 243/4/2
f 243/4/2 242/4/2 244/4/2
f 245/5/2 246/5/2 248/5/2
f 246/4/2 247/4/2 249/4/2
f 248/5/2 246/5/2 249/5/2
f 249/4/2 247/4/2 250/4/2
f 251/4/2 252/4/2 253/4/2
f 253/4/2 252/4/2 254/4/2
f 255/3/2 256/3/2 257/3/2
f 257/3/2 256/3/2 258/3/2
f 259/1/2 260/1/2 261/1/2
f 261/1/2 260/1/2 262/1/2
f 263/1/2 264/1/2 265/1/2
f 265/1/2 264/1/2 266/1/2
f 267/1/2 268/1/2 269/1/2
f 269/1/2 268/1/2 270/1/2
f 271/1/2 272/1/2 273/1/2
f 273/1/2 272/1/2 274/1/2
f 275/1/2 276/1/2 277/1/2
f 277/1/2 276/1/2 278/1/2
f 279/1/2 280/1/2 281/1/2
f 281/1/2 280/1/2 282/1/2
f 283/4/2 284/4/2 285/4/2
f 285/4/2 284/4/2 286/4/2
f 287/3/2 288/3/2 289/3/2
f 289/3/2 288/3/2 290/3/2
f 291/4/2 292/4/2 293/4/2
f 293/4/2 292/4/2 294/4/2
f 295/4/2 296/4/2 297/4/2
f 297/4/2 296/4/2 298/4/2
f 299/4/2 300/4/2 301/4/2
f 301/4/2 300/4/2 302/4/2
f 303/5/2 304/5/2 306/5/2
f 304/4/2 305/4/2 307/4/2
f 306/5/2 304/5/2 307/5/2
f 307/4/2 305/4/2 308/4/2
f 309/4/2 310/4/2 311/4/2
f 311/4/2 310/4/2 312/4/2
f 313/1/2 314/1/2 315/1/2
f 315/1/2 314/1/2 316/1/2
f 317/4/2 318/4/2 319/4/2
f 319/4/2 318/4/2 320/4/2
f 321/4/2 322/4/2 323/4/2
f 323/4/2 322/4/2 324/4/2
f 325/5/2 326/5/2 328/5/2
f 326/4/2 327/4/2 329/4/2
f 328/5/2 326/5/2 329/5/2
f 329/4/2 327/4/2 330/4/2
f 331/4/2 332/4/2 333/4/2
f 333/4/2 332/4/2 334/4/2
f 335/3/2 336/3/2 337/3/2
f 337/3/2 336/3/2 338/3/2
f 339/1/2 340/1/2 341/1/2
f 341/1/2 340/1/2 342/1/2
f 343/1/2 344/1/2 345/1/2
f 345/1/2 344/1/2 346/1/2
f 347/1/2 348/1/2 349/1/2
f 349/1/2 348/1/2 350/1/2
f 351/1/2 352/1/2 353/1/2
f 353/1/2 352/1/2 354/1/2
f 355/1/2 356/1/2 357/1/2
f 357/1/2 356/1/2 358/1/2
f 359/1/2 360/1/2 361/1/2
f 361/1/2 360/1/2 362/1/2
f 363/4/2 364/4/2 365/4/2
f 365/4/2 364/4/2 366/4/2
f 367/3/2 368/3/2 369/3/2
f 369/3/2 368/3/2 370/3/2
f 371/4/2 372/4/2 373/4/2
f 373/4/2 372/4/2 374/4/2
f 375/4/2 376/4/2 377/4/2
f 377/4/2 376/4/2 378/4/2
f 379/4/2 380/4/2 381/4/2
f 381/4/2 380/4/2 382/4/2
f 383/5/2 384/5/2 386/5/2
f 384/4/2 385/4/2 387/4/2
f 386/5/2 384/5/2 387/5/2
f 387/4/2 385/4/2 388/4/2
f 389/4/2 390/4/2 391/4/2
f 391/4/2 390/4/2 392/4/2
f 393/1/2 394/1/2 395/1/2
f 395/1/2 394/1/2 396/1/2
f 397/4/2 398/4/2 399/4/2
f 399/4/2 398/4/2 400/4/2
f 401/3/2 402/3/2 403/3/2
f 403/3/2 402/3/2 404/3/2
f 405/4/2 406/4/2 407/4/2
f 407/4/2 406/4/2 408/4/2
f 409/4/2 410/4/2 411/4/2
f 411/4/2 410/4/2 412/4/2
f 413/4/2 414/4/2 415/4/2
f 415/4/2 414/4/2 416/4/2
f 417/3/2 418/3/2 419/3/2
f 419/3/2 418/3/2 420/3/2
f 421/7/2 422/7/2 423/7/2
f 423/7/2 422/7/2 424/7/2
f 429/3/3 426/3/3 425/3/3
f 430/3/3 426/3/3 429/3/3
f 431/7/3 428/7/3 427/7/3
f 432/7/3 428/7/3 431/7/3
f 435/4/3 434/4/3 433/4/3
f 436/4/3 434/4/3 435/4/3
f 437/4/3 435/4/3 433/4/3
f 438/4/3 434/4/3 436/4/3
f 439/4/3 437/4/3 433/4/3
f 439/4/3 438/4/3 437/4/3
f 440/4/3 434/4/3 438/4/3
f 440/4/3 438/4/3 439/4/3
f 441/4/3 439/4/3 433/4/3
f 442/4/3 434/4/3 440/4/3
f 443/4/3 441/4/3 433/4/3
f 443/4/3 442/4/3 441/4/3
f 444/4/3 434/4/3 442/4/3
f 444/4/3 442/4/3 443/4/3
f 445/4/3 443/4/3 433/4/3
f 446/4/3 434/4/3 444/4/3
f 447/4/3 445/4/3 433/4/3
f 447/4/3 446/4/3 445/4/3
f 448/4/3 434/4/3 446/4/3
f 448/4/3 446/4/3 447/4/3
f 449/4/3 447/4/3 433/4/3
f 450/4/3 434/4/3 448/4/3
f 451/4/3 449/4/3 433/4/3
f 451/4/3 450/4/3 449/4/3
f 452/4/3 434/4/3 450/4/3
f 452/4/3 450/4/3 451/4/3
f 453/4/3 451/4/3 433/4/3
f 454/4/3 434/4/3 452/4/3
f 455/4/3 453/4/3 433/4/3
f 455/4/3 454/4/3 453/4/3
f 456/4/3 434/4/3 454/4/3
f 456/4/3 454/4/3 455/4/3
f 457/4/3 455/4/3 433/4/3
f 458/4/3 434/4/3 456/4/3
f 459/4/3 457/4/3 433/4/3
f 459/4/3 458/4/3 457/4/3
f 460/4/3 434/4/3 458/4/3
f 460/4/3 458/4/3 459/4/3
f 461/4/3 459/4/3 433/4/3
f 462/4/3 434/4/3 460/4/3
f 463/4/3 461/4/3 433/4/3
f 463/4/3 462/4/3 461/4/3
f 464/4/3 434/4/3 462/4/3
f 464/4/3 462/4/3 463/4/3
f 467/3/3 466/3/3 465/3/3
f 468/3/3 466/3/3 467/3/3
f 469/3/3 467/3/3 465/3/3
f 470/3/3 467/3/3 469/3/3
f 471/2/3 470/2/3 469/2/3
f 472/2/3 470/2/3 471/2/3
f 473/3/3 472/3/3 471/3/3
f 474/3/3 466/3/3 468/3/3
f 475/3/3 473/3/3 471/3/3
f 475/3/3 474/3/3 473/3/3
f 476/3/3 466/3/3 474/3/3
f 476/3/3 474/3/3 475/3/3
f 479/3/3 478/3/3 477/3/3
f 480/3/3 478/3/3 479/3/3
f 481/3/3 479/3/3 477/3/3
f 482/3/3 479/3/3 481/3/3
f 483/2/3 482/2/3 481/2/3
f 484/2/3 482/2/3 483/2/3
f 485/3/3 484/3/3 483/3/3
f 486/3/3 478/3/3 480/3/3
f 487/3/3 485/3/3 483/3/3
f 487/3/3 486/3/3 485/3/3
f 488/3/3 478/3/3 486/3/3
f 488/3/3 486/3/3 487/3/3
f 491/3/3 490/3/3 489/3/3
f 492/3/3 490/3/3 491/3/3
f 493/3/3 491/3/3 489/3/3
f 494/3/3 490/3/3 492/3/3
f 495/3/3 493/3/3 489/3/3
f 495/3/3 494/3/3 493/3/3
f 496/3/3 490/3/3 494/3/3
f 496/3/3 494/3/3 495/3/3
f 499/3/3 498/3/3 497/3/3
f 500/3/3 498/3/3 499/3/3
f 501/3/3 499/3/3 497/3/3
f 502/3/3 499/3/3 501/3/3
f 503/2/3 502/2/3 501/2/3
f 504/2/3 502/2/3 503/2/3
f 505/3/3 504/3/3 503/3/3
f 506/3/3 504/3/3 505/3/3
f 507/2/3 506/2/3 505/2/3
f 508/2/3 506/2/3 507/2/3
f 509/3/3 508/3/3 507/3/3
f 510/3/3 498/3/3 500/3/3
f 511/3/3 509/3/3 507/3/3
f 511/3/3 510/3/3 509/3/3
f 512/3/3 498/3/3 510/3/3
f 512/3/3 510/3/3 511/3/3
f 515/3/3 514/3/3 513/3/3
f 516/3/3 514/3/3 515/3/3
f 517/3/3 515/3/3 513/3/3
f 518/3/3 514/3/3 516/3/3
f 519/3/3 517/3/3 513/3/3
f 519/3/3 518/3/3 517/3/3
f 520/3/3 514/3/3 518/3/3
f 520/3/3 518/3/3 519/3/3
f 523/3/3 522/3/3 521/3/3
f 524/3/3 522/3/3 523/3/3
f 525/3/3 523/3/3 521/3/3
f 526/3/3 523/3/3 525/3/3
f 527/2/3 526/2/3 525/2/3
f 528/2/3 526/2/3 527/2/3
f 529/3/3 528/3/3 527/3/3
f 530/3/3 522/3/3 524/3/3
f 531/3/3 529/3/3 527/3/3
f 531/3/3 530/3/3 529/3/3
f 532/3/3 522/3/3 530/3/3
f 532/3/3 530/3/3 531/3/3
f 535/3/3 534/3/3 533/3/3
f 536/3/3 534/3/3 535/3/3
f 537/3/3 535/3/3 533/3/3
f 538/3/3 535/3/3 537/3/3
f 539/2/3 538/2/3 537/2/3
f 540/2/3 538/2/3 539/2/3
f 541/3/3 540/3/3 539/3/3
f 542/3/3 534/3/3 536/3/3
f 543/3/3 541/3/3 539/3/3
f 543/3/3 542/3/3 541/3/3
f 544/3/3 534/3/3 542/3/3
f 544/3/3 542/3/3 543/3/3
f 547/5/3 546/5/3 545/5/3
f 548/5/3 546/5/3 547/5/3
f 549/5/3 546/5/3 548/5/3
f 550/5/3 546/5/3 549/5/3
f 553/5/3 552/5/3 551/5/3
f 554/5/3 552/5/3 553/5/3
f 555/5/3 552/5/3 554/5/3
f 556/5/3 552/5/3 555/5/3
f 559/5/3 558/5/3 557/5/3
f 560/5/3 558/5/3 559/5/3
f 561/5/3 559/5/3 557/5/3
f 561/6/3 560/6/3 559/6/3
f 562/5/3 558/5/3 560/5/3
f 562/6/3 560/6/3 561/6/3
f 563/5/3 561/5/3 557/5/3
f 563/5/3 562/5/3 561/5/3
f 564/5/3 558/5/3 562/5/3
f 564/5/3 562/5/3 563/5/3
f 567/5/3 566/5/3 565/5/3
f 568/5/3 566/5/3 567/5/3
f 569/5/3 566/5/3 568/5/3
f 570/5/3 566/5/3 569/5/3
f 571/5/3 566/5/3 570/5/3
f 572/5/3 566/5/3 571/5/3
f 575/5/3 574/5/3 573/5/3
f 576/5/3 574/5/3 575/5/3
f 577/5/3 575/5/3 573/5/3
f 577/6/3 576/6/3 575/6/3
f 578/5/3 574/5/3 576/5/3
f 578/6/3 576/6/3 577/6/3
f 579/5/3 577/5/3 573/5/3
f 579/5/3 578/5/3 577/5/3
f 580/5/3 574/5/3 578/5/3
f 580/5/3 578/5/3 579/5/3
f 583/5/3 582/5/3 581/5/3
f 584/5/3 582/5/3 583/5/3
f 585/5/3 582/5/3 584/5/3
f 586/5/3 582/5/3 585/5/3
f 589/5/3 588/5/3 587/5/3
f 590/5/3 588/5/3 589/5/3
f 591/5/3 588/5/3 590/5/3
f 592/5/3 588/5/3 591/5/3
f 595/4/3 594/4/3 593/4/3
f 596/4/3 595/4/3 593/4/3
f 597/4/3 595/4/3 596/4/3
f 600/4/3 599/4/3 598/4/3
f 601/4/3 600/4/3 598/4/3
f 602/4/3 600/4/3 601/4/3
f 609/1/3 604/1/3 603/1/3
f 610/1/3 604/1/3 609/1/3
f 611/1/3 606/1/3 605/1/3
f 612/1/3 606/1/3 611/1/3
f 613/1/3 608/1/3 607/1/3
f 614/1/3 608/1/3 613/1/3
f 621/1/3 616/1/3 615/1/3
f 622/1/3 616/1/3 621/1/3
f 623/1/3 618/1/3 617/1/3
f 624/1/3 618/1/3 623/1/3
f 625/1/3 620/1/3 619/1/3
f 626/1/3 620/1/3 625/1/3
f 627/2/4 628/2/4 629/2/4
f 629/2/4 628/2/4 630/2/4
f 627/2/4 629/2/4 631/2/4
f 630/2/4 628/2/4 632/2/4
f 627/2/4 631/2/4 633/2/4
f 631/2/4 632/2/4 633/2/4
f 632/2/4 628/2/4 634/2/4
f 633/2/4 632/2/4 634/2/4
f 635/2/4 636/2/4 637/2/4
f 637/2/4 636/2/4 638/2/4
f 638/2/4 636/2/4 639/2/4
f 639/2/4 636/2/4 640/2/4
f 640/2/4 636/2/4 641/2/4
f 641/2/4 636/2/4 642/2/4
f 635/2/4 637/2/4 643/2/4
f 638/2/4 639/2/4 644/2/4
f 644/2/4 639/2/4 645/2/4
f 640/2/4 641/2/4 646/2/4
f 646/2/4 641/2/4 647/2/4
f 642/2/4 636/2/4 648/2/4
f 646/2/4 647/2/4 649/2/4
f 647/2/4 648/2/4 649/2/4
f 644/2/4 645/2/4 649/2/4
f 635/2/4 643/2/4 649/2/4
f 645/2/4 646/2/4 649/2/4
f 643/2/4 644/2/4 649/2/4
f 648/2/4 636/2/4 650/2/4
f 649/2/4 648/2/4 650/2/4
f 651/2/4 652/2/4 653/2/4
f 653/2/4 652/2/4 654/2/4
f 651/2/4 653/2/4 655/2/4
f 654/2/4 652/2/4 656/2/4
f 651/2/4 655/2/4 657/2/4
f 655/2/4 656/2/4 657/2/4
f 656/2/4 652/2/4 658/2/4
f 657/2/4 656/2/4 658/2/4
f 659/2/4 660/2/4 661/2/4
f 661/2/4 660/2/4 662/2/4
f 662/2/4 660/2/4 663/2/4
f 663/2/4 660/2/4 664/2/4
f 664/2/4 660/2/4 665/2/4
f 665/2/4 660/2/4 666/2/4
f 659/2/4 661/2/4 667/2/4
f 662/2/4 663/2/4 668/2/4
f 668/2/4 663/2/4 669/2/4
f 664/2/4 665/2/4 670/2/4
f 670/2/4 665/2/4 671/2/4
f 666/2/4 660/2/4 672/2/4
f 670/2/4 671/2/4 673/2/4
f 671/2/4 672/2/4 673/2/4
f 668/2/4 669/2/4 673/2/4
f 659/2/4 667/2/4 673/2/4
f 669/2/4 670/2/4 673/2/4
f 667/2/4 668/2/4 673/2/4
f 672/2/4 660/2/4 674/2/4
f 673/2/4 672/2/4 674/2/4
f 675/2/4 676/2/4 677/2/4
f 677/2/4 676/2/4 678/2/4
f 675/2/4 677/2/4 679/2/4
f 678/2/4 676/2/4 680/2/4
f 675/2/4 679/2/4 681/2/4
f 679/2/4 680/2/4 681/2/4
f 680/2/4 676/2/4 682/2/4
f 681/2/4 680/2/4 682/2/4
f 683/4/4 684/4/4 685/4/4
f 685/4/4 684/4/4 686/4/4
f 683/4/4 685/4/4 687/4/4
f 686/4/4 684/4/4 688/4/4
f 683/4/4 687/4/4 689/4/4
f 687/4/4 688/4/4 689/4/4
f 688/4/4 684/4/4 690/4/4
f 689/4/4 688/4/4 690/4/4
f 691/5/4 692/5/4 693/5/4
f 693/5/4 692/5/4 694/5/4
f 693/5/4 694/5/4 695/5/4
f 695/5/4 694/5/4 696/5/4
f 697/4/4 698/4/4 703/4/4
f 703/4/4 698/4/4 704/4/4
f 699/4/4 700/4/4 705/4/4
f 705/4/4 700/4/4 706/4/4
f 701/4/4 702/4/4 707/4/4
f 707/4/4 702/4/4 708/4/4
f 697/4/4 703/4/4 709/4/4
f 704/4/4 698/4/4 710/4/4
f 699/4/4 705/4/4 711/4/4
f 706/4/4 700/4/4 712/4/4
f 701/4/4 707/4/4 713/4/4
f 708/4/4 702/4/4 714/4/4
f 697/4/4 709/4/4 715/4/4
f 709/4/4 710/4/4 715/4/4
f 710/4/4 698/4/4 716/4/4
f 715/4/4 710/4/4 716/4/4
f 699/4/4 711/4/4 717/4/4
f 711/4/4 712/4/4 717/4/4
f 712/4/4 700/4/4 718/4/4
f 717/4/4 712/4/4 718/4/4
f 713/4/4 714/4/4 719/4/4
f 701/4/4 713/4/4 719/4/4
f 714/4/4 702/4/4 720/4/4
f 719/4/4 714/4/4 720/4/4
f 697/4/4 715/4/4 721/4/4
f 716/4/4 698/4/4 722/4/4
f 699/4/4 717/4/4 723/4/4
f 718/4/4 700/4/4 724/4/4
f 701/4/4 719/4/4 725/4/4
f 720/4/4 702/4/4 726/4/4
f 697/4/4 721/4/4 727/4/4
f 721/4/4 722/4/4 727/4/4
f 722/4/4 698/4/4 728/4/4
f 727/4/4 722/4/4 728/4/4
f 699/4/4 723/4/4 729/4/4
f 723/4/4 724/4/4 729/4/4
f 724/4/4 700/4/4 730/4/4
f 729/4/4 724/4/4 730/4/4
f 725/4/4 726/4/4 731/4/4
f 701/4/4 725/4/4 731/4/4
f 726/4/4 702/4/4 732/4/4
f 731/4/4 726/4/4 732/4/4
f 733/5/4 734/5/4 735/5/4
f 735/5/4 734/5/4 736/5/4
f 735/5/4 736/5/4 737/5/4
f 737/5/4 736/5/4 738/5/4
f 739/4/4 740/4/4 741/4/4
f 741/4/4 740/4/4 742/4/4
f 739/4/4 741/4/4 743/4/4
f 742/4/4 740/4/4 744/4/4
f 739/4/4 743/4/4 745/4/4
f 743/4/4 744/4/4 745/4/4
f 744/4/4 740/4/4 746/4/4
f 745/4/4 744/4/4 746/4/4
f 747/5/4 748/5/4 749/5/4
f 749/5/4 748/5/4 750/5/4
f 749/5/4 750/5/4 751/5/4
f 751/5/4 750/5/4 752/5/4
f 753/4/4 754/4/4 759/4/4
f 759/4/4 754/4/4 760/4/4
f 755/4/4 756/4/4 761/4/4
f 761/4/4 756/4/4 762/4/4
f 757/4/4 758/4/4 763/4/4
f 763/4/4 758/4/4 764/4/4
f 753/4/4 759/4/4 765/4/4
f 760/4/4 754/4/4 766/4/4
f 755/4/4 761/4/4 767/4/4
f 762/4/4 756/4/4 768/4/4
f 757/4/4 763/4/4 769/4/4
f 764/4/4 758/4/4 770/4/4
f 753/4/4 765/4/4 771/4/4
f 765/4/4 766/4/4 771/4/4
f 766/4/4 754/4/4 772/4/4
f 771/4/4 766/4/4 772/4/4
f 755/4/4 767/4/4 773/4/4
f 767/4/4 768/4/4 773/4/4
f 768/4/4 756/4/4 774/4/4
f 773/4/4 768/4/4 774/4/4
f 769/4/4 770/4/4 775/4/4
f 757/4/4 769/4/4 775/4/4
f 770/4/4 758/4/4 776/4/4
f 775/4/4 770/4/4 776/4/4
f 753/4/4 771/4/4 777/4/4
f 772/4/4 754/4/4 778/4/4
f 755/4/4 773/4/4 779/4/4
f 774/4/4 756/4/4 780/4/4
f 757/4/4 775/4/4 781/4/4
f 776/4/4 758/4/4 782/4/4
f 753/4/4 777/4/4 783/4/4
f 777/4/4 778/4/4 783/4/4
f 778/4/4 754/4/4 784/4/4
f 783/4/4 778/4/4 784/4/4
f 755/4/4 779/4/4 785/4/4
f 779/4/4 780/4/4 785/4/4
f 780/4/4 756/4/4 786/4/4
f 785/4/4 780/4/4 786/4/4
f 781/4/4 782/4/4 787/4/4
f 757/4/4 781/4/4 787/4/4
f 782/4/4 758/4/4 788/4/4
f 787/4/4 782/4/4 788/4/4
f 789/5/4 790/5/4 791/5/4
f 791/5/4 790/5/4 792/5/4
f 791/5/4 792/5/4 793/5/4
f 793/5/4 792/5/4 794/5/4
f 795/4/4 796/4/4 797/4/4
f 797/4/4 796/4/4 798/4/4
f 795/4/4 797/4/4 799/4/4
f 798/4/4 796/4/4 800/4/4
f 795/4/4 799/4/4 801/4/4
f 799/4/4 800/4/4 801/4/4
f 800/4/4 796/4/4 802/4/4
f 801/4/4 800/4/4 802/4/4
f 803/1/4 804/1/4 805/1/4
f 805/1/4 804/1/4 806/1/4
f 807/1/4 808/1/4 809/1/4
f 809/1/4 808/1/4 810/1/4
f 811/1/4 812/1/4 813/1/4
f 813/1/4 812/1/4 814/1/4
f 815/4/4 816/4/4 817/4/4
f 817/4/4 816/4/4 818/4/4
f 815/4/4 817/4/4 819/4/4
f 818/4/4 816/4/4 820/4/4
f 819/4/4 820/4/4 821/4/4
f 821/4/4 820/4/4 822/4/4
f 819/4/4 821/4/4 823/4/4
f 822/4/4 820/4/4 824/4/4
f 815/4/4 819/4/4 825/4/4
f 823/4/4 824/4/4 825/4/4
f 819/4/4 823/4/4 825/4/4
f 824/4/4 820/4/4 826/4/4
f 825/4/4 824/4/4 826/4/4
f 820/4/4 816/4/4 826/4/4
f 827/1/4 828/1/4 833/1/4
f 833/1/4 828/1/4 834/1/4
f 829/1/4 830/1/4 835/1/4
f 835/1/4 830/1/4 836/1/4
f 831/1/4 832/1/4 837/1/4
f 837/1/4 832/1/4 838/1/4
f 815/4/4 825/4/4 839/4/4
f 826/4/4 816/4/4 840/4/4
f 839/4/4 840/4/4 841/4/4
f 841/4/4 840/4/4 842/4/4
f 839/4/4 841/4/4 843/4/4
f 842/4/4 840/4/4 844/4/4
f 815/4/4 839/4/4 845/4/4
f 843/4/4 844/4/4 845/4/4
f 839/4/4 843/4/4 845/4/4
f 844/4/4 840/4/4 846/4/4
f 845/4/4 844/4/4 846/4/4
f 840/4/4 816/4/4 846/4/4
f 815/4/4 845/4/4 847/4/4
f 846/4/4 816/4/4 848/4/4
f 847/4/4 848/4/4 849/4/4
f 849/4/4 848/4/4 850/4/4
f 847/4/4 849/4/4 851/4/4
f 850/4/4 848/4/4 852/4/4
f 815/4/4 847/4/4 853/4/4
f 851/4/4 852/4/4 853/4/4
f 847/4/4 851/4/4 853/4/4
f 852/4/4 848/4/4 854/4/4
f 853/4/4 852/4/4 854/4/4
f 848/4/4 816/4/4 854/4/4
f 855/1/4 856/1/4 861/1/4
f 861/1/4 856/1/4 862/1/4
f 857/1/4 858/1/4 863/1/4
f 863/1/4 858/1/4 864/1/4
f 859/1/4 860/1/4 865/1/4
f 865/1/4 860/1/4 866/1/4
f 815/4/4 853/4/4 867/4/4
f 854/4/4 816/4/4 868/4/4
f 867/4/4 868/4/4 869/4/4
f 869/4/4 868/4/4 870/4/4
f 867/4/4 869/4/4 871/4/4
f 870/4/4 868/4/4 872/4/4
f 815/4/4 867/4/4 873/4/4
f 871/4/4 872/4/4 873/4/4
f 867/4/4 871/4/4 873/4/4
f 872/4/4 868/4/4 874/4/4
f 873/4/4 872/4/4 874/4/4
f 868/4/4 816/4/4 874/4/4
f 815/4/4 873/4/4 875/4/4
f 874/4/4 816/4/4 876/4/4
f 815/4/4 875/4/4 877/4/4
f 875/4/4 876/4/4 877/4/4
f 876/4/4 816/4/4 878/4/4
f 877/4/4 876/4/4 878/4/4
f 879/3/4 880/3/4 883/3/4
f 883/3/4 880/3/4 884/3/4
f 881/7/4 882/7/4 885/7/4
f 885/7/4 882/7/4 886/7/4
f 889/3/5 888/3/5 887/3/5
f 890/3/5 888/3/5 889/3/5
f 901/4/5 892/4/5 891/4/5
f 902/4/5 892/4/5 901/4/5
f 903/4/5 894/4/5 893/4/5
f 904/4/5 894/4/5 903/4/5
f 905/4/5 896/4/5 895/4/5
f 906/4/5 896/4/5 905/4/5
f 907/4/5 898/4/5 897/4/5
f 908/4/5 898/4/5 907/4/5
f 909/4/5 900/4/5 899/4/5
f 910/4/5 900/4/5 909/4/5
f 917/1/5 912/1/5 911/1/5
f 918/1/5 912/1/5 917/1/5
f 919/1/5 914/1/5 913/1/5
f 920/1/5 914/1/5 919/1/5
f 921/1/5 916/1/5 915/1/5
f 922/1/5 916/1/5 921/1/5
f 931/1/5 924/1/5 923/1/5
f 932/1/5 926/1/5 925/1/5
f 933/1/5 928/1/5 927/1/5
f 934/1/5 930/1/5 929/1/5
f 935/1/5 931/1/5 923/1/5
f 935/1/5 932/1/5 931/1/5
f 936/1/5 926/1/5 932/1/5
f 936/1/5 932/1/5 935/1/5
f 937/1/5 933/1/5 927/1/5
f 937/1/5 934/1/5 933/1/5
f 938/1/5 930/1/5 934/1/5
f 938/1/5 934/1/5 937/1/5
f 943/4/5 940/4/5 939/4/5
f 944/4/5 940/4/5 943/4/5
f 945/4/5 942/4/5 941/4/5
f 946/4/5 942/4/5 945/4/5
f 955/1/5 948/1/5 947/1/5
f 956/1/5 950/1/5 949/1/5
f 957/1/5 952/1/5 951/1/5
f 958/1/5 954/1/5 953/1/5
f 959/1/5 955/1/5 947/1/5
f 959/1/5 956/1/5 955/1/5
f 960/1/5 950/1/5 956/1/5
f 960/1/5 956/1/5 959/1/5
f 961/1/5 957/1/5 951/1/5
f 961/1/5 958/1/5 957/1/5
f 962/1/5 954/1/5 958/1/5
f 962/1/5 958/1/5 961/1/5
f 967/4/5 964/4/5 963/4/5
f 968/4/5 964/4/5 967/4/5
f 969/4/5 966/4/5 965/4/5
f 970/4/5 966/4/5 969/4/5
f 979/1/5 972/1/5 971/1/5
f 980/1/5 974/1/5 973/1/5
f 981/1/5 976/1/5 975/1/5
f 982/1/5 978/1/5 977/1/5
f 983/1/5 979/1/5 971/1/5
f 983/1/5 980/1/5 979/1/5
f 984/1/5 974/1/5 980/1/5
f 984/1/5 980/1/5 983/1/5
f 985/1/5 981/1/5 975/1/5
f 985/1/5 982/1/5 981/1/5
f 986/1/5 978/1/5 982/1/5
f 986/1/5 982/1/5 985/1/5
f 1001/3/5 988/3/5 987/3/5
f 1002/3/5 988/3/5 1001/3/5
f 1003/3/5 990/3/5 989/3/5
f 1004/3/5 990/3/5 1003/3/5
f 1005/3/5 992/3/5 991/3/5
f 1006/3/5 992/3/5 1005/3/5
f 1007/3/5 994/3/5 993/3/5
f 1008/3/5 994/3/5 1007/3/5
f 1009/3/5 996/3/5 995/3/5
f 1010/3/5 996/3/5 1009/3/5
f 1011/3/5 998/3/5 997/3/5
f 1012/3/5 998/3/5 1011/3/5
f 1013/3/5 1000/3/5 999/3/5
f 1014/3/5 1000/3/5 1013/3/5
f 1027/4/5 1016/4/5 1015/4/5
f 1027/5/5 1017/5/5 1016/5/5
f 1028/5/5 1017/5/5 1027/5/5
f 1029/5/5 1019/5/5 1018/5/5
f 1030/4/5 1020/4/5 1019/4/5
f 1030/5/5 1019/5/5 1029/5/5
f 1031/4/5 1022/4/5 1021/4/5
f 1031/5/5 1023/5/5 1022/5/5
f 1032/5/5 1023/5/5 1031/5/5
f 1033/5/5 1025/5/5 1024/5/5
f 1034/4/5 1026/4/5 1025/4/5
f 1034/5/5 1025/5/5 1033/5/5
f 1035/4/5 1028/4/5 1027/4/5
f 1035/4/5 1027/4/5 1015/4/5
f 1036/4/5 1028/4/5 1035/4/5
f 1037/4/5 1030/4/5 1029/4/5
f 1038/4/5 1020/4/5 1030/4/5
f 1038/4/5 1030/4/5 1037/4/5
f 1039/4/5 1032/4/5 1031/4/5
f 1039/4/5 1031/4/5 1021/4/5
f 1040/4/5 1032/4/5 1039/4/5
f 1041/4/5 1034/4/5 1033/4/5
f 1042/4/5 1026/4/5 1034/4/5
f 1042/4/5 1034/4/5 1041/4/5
f 1057/4/5 1044/4/5 1043/4/5
f 1058/4/5 1044/4/5 1057/4/5
f 1059/4/5 1046/4/5 1045/4/5
f 1060/4/5 1046/4/5 1059/4/5
f 1061/4/5 1048/4/5 1047/4/5
f 1062/4/5 1048/4/5 1061/4/5
f 1063/4/5 1050/4/5 1049/4/5
f 1064/4/5 1050/4/5 1063/4/5
f 1065/4/5 1052/4/5 1051/4/5
f 1066/4/5 1052/4/5 1065/4/5
f 1067/4/5 1054/4/5 1053/4/5
f 1068/4/5 1054/4/5 1067/4/5
f 1069/4/5 1056/4/5 1055/4/5
f 1070/4/5 1056/4/5 1069/4/5
f 1081/4/5 1074/4/5 1073/4/5
f 1082/4/5 1074/4/5 1081/4/5
f 1083/4/5 1078/4/5 1077/4/5
f 1084/4/5 1078/4/5 1083/4/5
f 1085/4/5 1072/4/5 1071/4/5
f 1086/4/5 1072/4/5 1085/4/5
f 1087/4/5 1082/4/5 1081/4/5
f 1088/4/5 1082/4/5 1087/4/5
f 1089/4/5 1076/4/5 1075/4/5
f 1090/4/5 1076/4/5 1089/4/5
f 1091/4/5 1084/4/5 1083/4/5
f 1092/4/5 1084/4/5 1091/4/5
f 1093/4/5 1080/4/5 1079/4/5
f 1094/4/5 1080/4/5 1093/4/5
f 1097/7/5 1096/7/5 1095/7/5
f 1098/7/5 1096/7/5 1097/7/5
f 1099/7/5 1096/7/5 1098/7/5
f 1100/7/5 1096/7/5 1099/7/5
f 1101/7/5 1096/7/5 1100/7/5
f 1102/7/5 1096/7/5 1101/7/5
f 1103/7/5 1097/7/5 1095/7/5
f 1103/8/5 1098/8/5 1097/8/5
f 1104/7/5 1099/7/5 1098/7/5
f 1104/8/5 1098/8/5 1103/8/5
f 1105/7/5 1099/7/5 1104/7/5
f 1106/7/5 1101/7/5 1100/7/5
f 1107/8/5 1102/8/5 1101/8/5
f 1107/7/5 1101/7/5 1106/7/5
f 1108/7/5 1096/7/5 1102/7/5
f 1108/8/5 1102/8/5 1107/8/5
f 1109/7/5 1103/7/5 1095/7/5
f 1110/7/5 1096/7/5 1108/7/5
f 1111/7/5 1109/7/5 1095/7/5
f 1111/7/5 1110/7/5 1109/7/5
f 1112/7/5 1096/7/5 1110/7/5
f 1112/7/5 1110/7/5 1111/7/5
f 1113/3/6 1114/3/6 1115/3/6
f 1115/3/6 1114/3/6 1116/3/6
f 1113/3/6 1115/3/6 1117/3/6
f 1117/3/6 1115/3/6 1118/3/6
f 1116/3/6 1114/3/6 1119/3/6
f 1119/3/6 1114/3/6 1120/3/6
f 1113/3/6 1117/3/6 1121/3/6
f 1120/3/6 1114/3/6 1122/3/6
f 1113/3/6 1121/3/6 1123/3/6
f 1121/3/6 1122/3/6 1123/3/6
f 1122/3/6 1114/3/6 1124/3/6
f 1123/3/6 1122/3/6 1124/3/6
f 1125/4/6 1126/4/6 1139/4/6
f 1139/4/6 1126/4/6 1140/4/6
f 1140/4/6 1126/4/6 1141/4/6
f 1141/4/6 1126/4/6 1142/4/6
f 1127/4/6 1128/4/6 1143/4/6
f 1143/4/6 1128/4/6 1144/4/6
f 1144/4/6 1128/4/6 1145/4/6
f 1145/4/6 1128/4/6 1146/4/6
f 1129/4/6 1130/4/6 1147/4/6
f 1147/4/6 1130/4/6 1148/4/6
f 1131/4/6 1132/4/6 1149/4/6
f 1149/4/6 1132/4/6 1150/4/6
f 1150/4/6 1132/4/6 1151/4/6
f 1151/4/6 1132/4/6 1152/4/6
f 1152/4/6 1132/4/6 1153/4/6
f 1153/4/6 1132/4/6 1154/4/6
f 1133/4/6 1134/4/6 1155/4/6
f 1155/4/6 1134/4/6 1156/4/6
f 1135/4/6 1136/4/6 1157/4/6
f 1157/4/6 1136/4/6 1158/4/6
f 1158/4/6 1136/4/6 1159/4/6
f 1159/4/6 1136/4/6 1160/4/6
f 1137/4/6 1138/4/6 1161/4/6
f 1161/4/6 1138/4/6 1162/4/6
f 1162/4/6 1138/4/6 1163/4/6
f 1163/4/6 1138/4/6 1164/4/6
f 1167/4/6 1168/4/6 1175/4/6
f 1175/4/6 1168/4/6 1176/4/6
f 1171/4/6 1172/4/6 1177/4/6
f 1177/4/6 1172/4/6 1178/4/6
f 1165/4/6 1166/4/6 1179/4/6
f 1179/4/6 1166/4/6 1180/4/6
f 1175/4/6 1176/4/6 1181/4/6
f 1181/4/6 1176/4/6 1182/4/6
f 1169/4/6 1170/4/6 1183/4/6
f 1183/4/6 1170/4/6 1184/4/6
f 1177/4/6 1178/4/6 1185/4/6
f 1185/4/6 1178/4/6 1186/4/6
f 1173/4/6 1174/4/6 1187/4/6
f 1187/4/6 1174/4/6 1188/4/6
f 1189/3/6 1190/3/6 1215/3/6
f 1190/2/6 1191/2/6 1216/2/6
f 1215/3/6 1190/3/6 1216/3/6
f 1191/3/6 1192/3/6 1217/3/6
f 1216/2/6 1191/2/6 1217/2/6
f 1217/3/6 1192/3/6 1218/3/6
f 1193/3/6 1194/3/6 1219/3/6
f 1194/2/6 1195/2/6 1220/2/6
f 1219/3/6 1194/3/6 1220/3/6
f 1195/3/6 1196/3/6 1221/3/6
f 1220/2/6 1195/2/6 1221/2/6
f 1221/3/6 1196/3/6 1222/3/6
f 1197/3/6 1198/3/6 1223/3/6
f 1223/3/6 1198/3/6 1224/3/6
f 1199/3/6 1200/3/6 1225/3/6
f 1200/2/6 1201/2/6 1226/2/6
f 1225/3/6 1200/3/6 1226/3/6
f 1201/3/6 1202/3/6 1227/3/6
f 1226/2/6 1201/2/6 1227/2/6
f 1202/2/6 1203/2/6 1228/2/6
f 1227/3/6 1202/3/6 1228/3/6
f 1203/3/6 1204/3/6 1229/3/6
f 1228/2/6 1203/2/6 1229/2/6
f 1229/3/6 1204/3/6 1230/3/6
f 1205/3/6 1206/3/6 1231/3/6
f 1231/3/6 1206/3/6 1232/3/6
f 1207/3/6 1208/3/6 1233/3/6
f 1208/2/6 1209/2/6 1234/2/6
f 1233/3/6 1208/3/6 1234/3/6
f 1209/3/6 1210/3/6 1235/3/6
f 1234/2/6 1209/2/6 1235/2/6
f 1235/3/6 1210/3/6 1236/3/6
f 1211/3/6 1212/3/6 1237/3/6
f 1212/2/6 1213/2/6 1238/2/6
f 1237/3/6 1212/3/6 1238/3/6
f 1213/3/6 1214/3/6 1239/3/6
f 1238/2/6 1213/2/6 1239/2/6
f 1239/3/6 1214/3/6 1240/3/6
f 1241/4/6 1242/4/6 1253/4/6
f 1242/5/6 1243/5/6 1253/5/6
f 1253/5/6 1243/5/6 1254/5/6
f 1244/5/6 1245/5/6 1255/5/6
f 1245/4/6 1246/4/6 1256/4/6
f 1255/5/6 1245/5/6 1256/5/6
f 1247/4/6 1248/4/6 1257/4/6
f 1248/5/6 1249/5/6 1257/5/6
f 1257/5/6 1249/5/6 1258/5/6
f 1250/5/6 1251/5/6 1259/5/6
f 1251/4/6 1252/4/6 1260/4/6
f 1259/5/6 1251/5/6 1260/5/6
f 1253/4/6 1254/4/6 1261/4/6
f 1241/4/6 1253/4/6 1261/4/6
f 1261/4/6 1254/4/6 1262/4/6
f 1255/4/6 1256/4/6 1263/4/6
f 1256/4/6 1246/4/6 1264/4/6
f 1263/4/6 1256/4/6 1264/4/6
f 1257/4/6 1258/4/6 1265/4/6
f 1247/4/6 1257/4/6 1265/4/6
f 1265/4/6 1258/4/6 1266/4/6
f 1259/4/6 1260/4/6 1267/4/6
f 1260/4/6 1252/4/6 1268/4/6
f 1267/4/6 1260/4/6 1268/4/6
f 1269/1/6 1270/1/6 1277/1/6
f 1271/1/6 1272/1/6 1278/1/6
f 1273/1/6 1274/1/6 1279/1/6
f 1275/1/6 1276/1/6 1280/1/6
f 1269/1/6 1277/1/6 1281/1/6
f 1277/1/6 1278/1/6 1281/1/6
f 1278/1/6 1272/1/6 1282/1/6
f 1281/1/6 1278/1/6 1282/1/6
f 1273/1/6 1279/1/6 1283/1/6
f 1279/1/6 1280/1/6 1283/1/6
f 1280/1/6 1276/1/6 1284/1/6
f 1283/1/6 1280/1/6 1284/1/6
f 1285/4/6 1286/4/6 1289/4/6
f 1289/4/6 1286/4/6 1290/4/6
f 1287/4/6 1288/4/6 1291/4/6
f 1291/4/6 1288/4/6 1292/4/6
f 1293/1/6 1294/1/6 1301/1/6
f 1295/1/6 1296/1/6 1302/1/6
f 1297/1/6 1298/1/6 1303/1/6
f 1299/1/6 1300/1/6 1304/1/6
f 1293/1/6 1301/1/6 1305/1/6
f 1301/1/6 1302/1/6 1305/1/6
f 1302/1/6 1296/1/6 1306/1/6
f 1305/1/6 1302/1/6 1306/1/6
f 1297/1/6 1303/1/6 1307/1/6
f 1303/1/6 1304/1/6 1307/1/6
f 1304/1/6 1300/1/6 1308/1/6
f 1307/1/6 1304/1/6 1308/1/6
f 1309/4/6 1310/4/6 1313/4/6
f 1313/4/6 1310/4/6 1314/4/6
f 1311/4/6 1312/4/6 1315/4/6
f 1315/4/6 1312/4/6 1316/4/6
f 1317/1/6 1318/1/6 1325/1/6
f 1319/1/6 1320/1/6 1326/1/6
f 1321/1/6 1322/1/6 1327/1/6
f 1323/1/6 1324/1/6 1328/1/6
f 1317/1/6 1325/1/6 1329/1/6
f 1325/1/6 1326/1/6 1329/1/6
f 1326/1/6 1320/1/6 1330/1/6
f 1329/1/6 1326/1/6 1330/1/6
f 1321/1/6 1327/1/6 1331/1/6
f 1327/1/6 1328/1/6 1331/1/6
f 1328/1/6 1324/1/6 1332/1/6
f 1331/1/6 1328/1/6 1332/1/6
f 1333/1/6 1334/1/6 1339/1/6
f 1339/1/6 1334/1/6 1340/1/6
f 1335/1/6 1336/1/6 1341/1/6
f 1341/1/6 1336/1/6 1342/1/6
f 1337/1/6 1338/1/6 1343/1/6
f 1343/1/6 1338/1/6 1344/1/6
f 1345/4/6 1346/4/6 1355/4/6
f 1355/4/6 1346/4/6 1356/4/6
f 1347/4/6 1348/4/6 1357/4/6
f 1357/4/6 1348/4/6 1358/4/6
f 1349/4/6 1350/4/6 1359/4/6
f 1359/4/6 1350/4/6 1360/4/6
f 1351/4/6 1352/4/6 1361/4/6
f 1361/4/6 1352/4/6 1362/4/6
f 1353/4/6 1354/4/6 1363/4/6
f 1363/4/6 1354/4/6 1364/4/6
f 1365/7/6 1366/7/6 1367/7/6
f 1367/7/6 1366/7/6 1368/7/6
f 1365/7/6 1367/7/6 1369/7/6
f 1367/8/6 1368/8/6 1369/8/6
f 1368/7/6 1366/7/6 1370/7/6
f 1369/8/6 1368/8/6 1370/8/6
f 1365/7/6 1369/7/6 1371/7/6
f 1369/7/6 1370/7/6 1371/7/6
f 1370/7/6 1366/7/6 1372/7/6
f 1371/7/6 1370/7/6 1372/7/6
