# MagicaVoxel @ Ephtracy

# group
o 02-lampe2

# material
mtllib ludum dare_tile02-12-02-lampe2.mtl
usemtl palette

# normals
vn -1 0 0
vn 1 0 0
vn 0 0 1
vn 0 0 -1
vn 0 -1 0
vn 0 1 0

# texcoords
vt 0.0722656 0.5
vt 0.0761719 0.5
vt 0.0800781 0.5
vt 0.103516 0.5
vt 0.107422 0.5
vt 0.138672 0.5

# verts
v -1.5 2.2 0.3
v -1.5 2.2 -0.3
v -1.5 3.1 0.3
v -1.5 3.1 -0.3
v -0.4 0.1 0.9
v -0.4 0.1 -0.9
v -0.4 0.2 0.9
v -0.4 0.2 -0.9
v -0.4 0.8 0.9
v -0.4 0.8 -0.9
v -0.3 0.1 1
v -0.3 0.1 0.9
v -0.3 0.1 -0.9
v -0.3 0.1 -1
v -0.3 0.2 1
v -0.3 0.2 0.9
v -0.3 0.2 -0.9
v -0.3 0.2 -1
v -0.3 0.8 1
v -0.3 0.8 0.9
v -0.3 0.8 0.7
v -0.3 0.8 -0.7
v -0.3 0.8 -0.9
v -0.3 0.8 -1
v -0.3 1 0.7
v -0.3 1 -0.7
v -0.1 0.8 0.9
v -0.1 0.8 0.7
v -0.1 0.8 -0.7
v -0.1 0.8 -0.9
v -0.1 1 0.9
v -0.1 1 0.7
v -0.1 1 0.6
v -0.1 1 -0.6
v -0.1 1 -0.7
v -0.1 1 -0.9
v -0.1 1.1 0.6
v -0.1 1.1 -0.6
v 0 1 0.7
v 0 1 0.6
v 0 1 -0.6
v 0 1 -0.7
v 0 1.1 0.7
v 0 1.1 0.6
v 0 1.1 -0.6
v 0 1.1 -0.7
v 0.2 0.2 0.3
v 0.2 0.2 -0.3
v 0.2 0.7 0.3
v 0.2 0.7 -0.3
v 0.3 0.2 0.4
v 0.3 0.2 0.3
v 0.3 0.2 -0.3
v 0.3 0.2 -0.4
v 0.3 0.7 0.4
v 0.3 0.7 0.3
v 0.3 0.7 -0.3
v 0.3 0.7 -0.4
v 0.3 1.1 0.3
v 0.3 1.1 -0.3
v 0.3 1.3 0.3
v 0.3 1.3 -0.3
v 0.5 1.3 0.1
v 0.5 1.3 -0.1
v 0.5 2.7 0.1
v 0.5 2.7 -0.1
v 1.2 0.1 0.9
v 1.2 0.1 0.7
v 1.2 0.1 -0.7
v 1.2 0.1 -0.9
v 1.2 0.2 0.9
v 1.2 0.2 0.7
v 1.2 0.2 -0.7
v 1.2 0.2 -0.9
v 1.2 0.7 0.9
v 1.2 0.7 0.7
v 1.2 0.7 -0.7
v 1.2 0.7 -0.9
v 1.4 0.1 0.7
v 1.4 0.1 -0.7
v 1.4 0.2 0.7
v 1.4 0.2 -0.7
v 1.4 0.7 0.7
v 1.4 0.7 -0.7
v -1.3 2.3 0.3
v -1.3 2.3 -0.3
v -1.3 2.7 0.1
v -1.3 2.7 -0.1
v -1.3 2.9 0.1
v -1.3 2.9 -0.1
v -1.3 3.1 0.3
v -1.3 3.1 -0.3
v -1.1 2.2 0.3
v -1.1 2.2 -0.3
v -1.1 2.3 0.3
v -1.1 2.3 -0.3
v -0.3 0.1 0.7
v -0.3 0.1 -0.7
v -0.3 0.2 0.7
v -0.3 0.2 -0.7
v -0.3 0.7 0.7
v -0.3 0.7 -0.7
v -0.1 0.1 0.9
v -0.1 0.1 0.7
v -0.1 0.1 -0.7
v -0.1 0.1 -0.9
v -0.1 0.2 0.9
v -0.1 0.2 0.7
v -0.1 0.2 -0.7
v -0.1 0.2 -0.9
v -0.1 0.7 0.9
v -0.1 0.7 0.7
v -0.1 0.7 -0.7
v -0.1 0.7 -0.9
v 0.6 1.3 0.1
v 0.6 1.3 -0.1
v 0.6 2.7 0.1
v 0.6 2.7 -0.1
v 0.8 0.2 0.4
v 0.8 0.2 0.3
v 0.8 0.2 -0.3
v 0.8 0.2 -0.4
v 0.8 0.7 0.4
v 0.8 0.7 0.3
v 0.8 0.7 -0.3
v 0.8 0.7 -0.4
v 0.8 1.1 0.3
v 0.8 1.1 -0.3
v 0.8 1.3 0.3
v 0.8 1.3 -0.3
v 0.8 2.7 0.1
v 0.8 2.7 -0.1
v 0.8 2.9 0.1
v 0.8 2.9 -0.1
v 0.9 0.2 0.3
v 0.9 0.2 -0.3
v 0.9 0.7 0.3
v 0.9 0.7 -0.3
v 1.1 1 0.7
v 1.1 1 0.6
v 1.1 1 -0.6
v 1.1 1 -0.7
v 1.1 1.1 0.7
v 1.1 1.1 0.6
v 1.1 1.1 -0.6
v 1.1 1.1 -0.7
v 1.2 0.8 0.9
v 1.2 0.8 0.7
v 1.2 0.8 -0.7
v 1.2 0.8 -0.9
v 1.2 1 0.9
v 1.2 1 0.7
v 1.2 1 0.6
v 1.2 1 -0.6
v 1.2 1 -0.7
v 1.2 1 -0.9
v 1.2 1.1 0.6
v 1.2 1.1 -0.6
v 1.4 0.1 1
v 1.4 0.1 0.9
v 1.4 0.1 -0.9
v 1.4 0.1 -1
v 1.4 0.2 1
v 1.4 0.2 0.9
v 1.4 0.2 -0.9
v 1.4 0.2 -1
v 1.4 0.8 1
v 1.4 0.8 0.9
v 1.4 0.8 0.7
v 1.4 0.8 -0.7
v 1.4 0.8 -0.9
v 1.4 0.8 -1
v 1.4 1 0.7
v 1.4 1 -0.7
v 1.5 0.1 0.9
v 1.5 0.1 -0.9
v 1.5 0.2 0.9
v 1.5 0.2 -0.9
v 1.5 0.8 0.9
v 1.5 0.8 -0.9
v -0.3 0.1 1
v -0.3 0.2 1
v -0.3 0.8 1
v 1.4 0.1 1
v 1.4 0.2 1
v 1.4 0.8 1
v -0.4 0.1 0.9
v -0.4 0.2 0.9
v -0.4 0.8 0.9
v -0.3 0.1 0.9
v -0.3 0.2 0.9
v -0.3 0.8 0.9
v -0.1 0.8 0.9
v -0.1 1 0.9
v 1.2 0.8 0.9
v 1.2 1 0.9
v 1.4 0.1 0.9
v 1.4 0.2 0.9
v 1.4 0.8 0.9
v 1.5 0.1 0.9
v 1.5 0.2 0.9
v 1.5 0.8 0.9
v -0.3 0.8 0.7
v -0.3 1 0.7
v -0.1 0.8 0.7
v -0.1 1 0.7
v 0 1 0.7
v 0 1.1 0.7
v 1.1 1 0.7
v 1.1 1.1 0.7
v 1.2 0.8 0.7
v 1.2 1 0.7
v 1.4 0.8 0.7
v 1.4 1 0.7
v -0.1 1 0.6
v -0.1 1.1 0.6
v 0 1 0.6
v 0 1.1 0.6
v 1.1 1 0.6
v 1.1 1.1 0.6
v 1.2 1 0.6
v 1.2 1.1 0.6
v 0.3 0.2 0.4
v 0.3 0.7 0.4
v 0.8 0.2 0.4
v 0.8 0.7 0.4
v -1.5 2.2 0.3
v -1.5 3.1 0.3
v -1.3 2.3 0.3
v -1.3 3.1 0.3
v -1.1 2.2 0.3
v -1.1 2.3 0.3
v 0.2 0.2 0.3
v 0.2 0.7 0.3
v 0.3 0.2 0.3
v 0.3 0.7 0.3
v 0.3 1.1 0.3
v 0.3 1.3 0.3
v 0.8 0.2 0.3
v 0.8 0.7 0.3
v 0.8 1.1 0.3
v 0.8 1.3 0.3
v 0.9 0.2 0.3
v 0.9 0.7 0.3
v -1.3 2.7 0.1
v -1.3 2.9 0.1
v 0.5 1.3 0.1
v 0.5 2.7 0.1
v 0.6 1.3 0.1
v 0.6 2.7 0.1
v 0.8 2.7 0.1
v 0.8 2.9 0.1
v -0.3 0.1 -0.7
v -0.3 0.2 -0.7
v -0.3 0.7 -0.7
v -0.1 0.1 -0.7
v -0.1 0.2 -0.7
v -0.1 0.7 -0.7
v 1.2 0.1 -0.7
v 1.2 0.2 -0.7
v 1.2 0.7 -0.7
v 1.4 0.1 -0.7
v 1.4 0.2 -0.7
v 1.4 0.7 -0.7
v -0.1 0.1 -0.9
v -0.1 0.2 -0.9
v -0.1 0.7 -0.9
v 1.2 0.1 -0.9
v 1.2 0.2 -0.9
v 1.2 0.7 -0.9
v -0.1 0.1 0.9
v -0.1 0.2 0.9
v -0.1 0.7 0.9
v 1.2 0.1 0.9
v 1.2 0.2 0.9
v 1.2 0.7 0.9
v -0.3 0.1 0.7
v -0.3 0.2 0.7
v -0.3 0.7 0.7
v -0.1 0.1 0.7
v -0.1 0.2 0.7
v -0.1 0.7 0.7
v 1.2 0.1 0.7
v 1.2 0.2 0.7
v 1.2 0.7 0.7
v 1.4 0.1 0.7
v 1.4 0.2 0.7
v 1.4 0.7 0.7
v -1.3 2.7 -0.1
v -1.3 2.9 -0.1
v 0.5 1.3 -0.1
v 0.5 2.7 -0.1
v 0.6 1.3 -0.1
v 0.6 2.7 -0.1
v 0.8 2.7 -0.1
v 0.8 2.9 -0.1
v -1.5 2.2 -0.3
v -1.5 3.1 -0.3
v -1.3 2.3 -0.3
v -1.3 3.1 -0.3
v -1.1 2.2 -0.3
v -1.1 2.3 -0.3
v 0.2 0.2 -0.3
v 0.2 0.7 -0.3
v 0.3 0.2 -0.3
v 0.3 0.7 -0.3
v 0.3 1.1 -0.3
v 0.3 1.3 -0.3
v 0.8 0.2 -0.3
v 0.8 0.7 -0.3
v 0.8 1.1 -0.3
v 0.8 1.3 -0.3
v 0.9 0.2 -0.3
v 0.9 0.7 -0.3
v 0.3 0.2 -0.4
v 0.3 0.7 -0.4
v 0.8 0.2 -0.4
v 0.8 0.7 -0.4
v -0.1 1 -0.6
v -0.1 1.1 -0.6
v 0 1 -0.6
v 0 1.1 -0.6
v 1.1 1 -0.6
v 1.1 1.1 -0.6
v 1.2 1 -0.6
v 1.2 1.1 -0.6
v -0.3 0.8 -0.7
v -0.3 1 -0.7
v -0.1 0.8 -0.7
v -0.1 1 -0.7
v 0 1 -0.7
v 0 1.1 -0.7
v 1.1 1 -0.7
v 1.1 1.1 -0.7
v 1.2 0.8 -0.7
v 1.2 1 -0.7
v 1.4 0.8 -0.7
v 1.4 1 -0.7
v -0.4 0.1 -0.9
v -0.4 0.2 -0.9
v -0.4 0.8 -0.9
v -0.3 0.1 -0.9
v -0.3 0.2 -0.9
v -0.3 0.8 -0.9
v -0.1 0.8 -0.9
v -0.1 1 -0.9
v 1.2 0.8 -0.9
v 1.2 1 -0.9
v 1.4 0.1 -0.9
v 1.4 0.2 -0.9
v 1.4 0.8 -0.9
v 1.5 0.1 -0.9
v 1.5 0.2 -0.9
v 1.5 0.8 -0.9
v -0.3 0.1 -1
v -0.3 0.2 -1
v -0.3 0.8 -1
v 1.4 0.1 -1
v 1.4 0.2 -1
v 1.4 0.8 -1
v -0.3 0.1 1
v 1.4 0.1 1
v -0.4 0.1 0.9
v -0.3 0.1 0.9
v -0.1 0.1 0.9
v 1.2 0.1 0.9
v 1.4 0.1 0.9
v 1.5 0.1 0.9
v -0.3 0.1 0.7
v -0.1 0.1 0.7
v 1.2 0.1 0.7
v 1.4 0.1 0.7
v -0.3 0.1 -0.7
v -0.1 0.1 -0.7
v 1.2 0.1 -0.7
v 1.4 0.1 -0.7
v -0.4 0.1 -0.9
v -0.3 0.1 -0.9
v -0.1 0.1 -0.9
v 1.2 0.1 -0.9
v 1.4 0.1 -0.9
v 1.5 0.1 -0.9
v -0.3 0.1 -1
v 1.4 0.1 -1
v 0.3 0.2 0.4
v 0.8 0.2 0.4
v 0.2 0.2 0.3
v 0.3 0.2 0.3
v 0.8 0.2 0.3
v 0.9 0.2 0.3
v 0.2 0.2 -0.3
v 0.3 0.2 -0.3
v 0.8 0.2 -0.3
v 0.9 0.2 -0.3
v 0.3 0.2 -0.4
v 0.8 0.2 -0.4
v -0.1 0.7 0.9
v 1.2 0.7 0.9
v -0.3 0.7 0.7
v -0.1 0.7 0.7
v 1.2 0.7 0.7
v 1.4 0.7 0.7
v 0.3 0.7 0.4
v 0.8 0.7 0.4
v 0.2 0.7 0.3
v 0.3 0.7 0.3
v 0.8 0.7 0.3
v 0.9 0.7 0.3
v 0.2 0.7 -0.3
v 0.3 0.7 -0.3
v 0.8 0.7 -0.3
v 0.9 0.7 -0.3
v 0.3 0.7 -0.4
v 0.8 0.7 -0.4
v -0.3 0.7 -0.7
v -0.1 0.7 -0.7
v 1.2 0.7 -0.7
v 1.4 0.7 -0.7
v -0.1 0.7 -0.9
v 1.2 0.7 -0.9
v -1.5 2.2 0.3
v -1.1 2.2 0.3
v -1.5 2.2 -0.3
v -1.1 2.2 -0.3
v -1.3 2.7 0.1
v 0.5 2.7 0.1
v 0.6 2.7 0.1
v 0.8 2.7 0.1
v -1.3 2.7 -0.1
v 0.5 2.7 -0.1
v 0.6 2.7 -0.1
v 0.8 2.7 -0.1
v -0.3 0.8 1
v 1.4 0.8 1
v -0.4 0.8 0.9
v -0.3 0.8 0.9
v -0.1 0.8 0.9
v 1.2 0.8 0.9
v 1.4 0.8 0.9
v 1.5 0.8 0.9
v -0.3 0.8 0.7
v -0.1 0.8 0.7
v 1.2 0.8 0.7
v 1.4 0.8 0.7
v -0.3 0.8 -0.7
v -0.1 0.8 -0.7
v 1.2 0.8 -0.7
v 1.4 0.8 -0.7
v -0.4 0.8 -0.9
v -0.3 0.8 -0.9
v -0.1 0.8 -0.9
v 1.2 0.8 -0.9
v 1.4 0.8 -0.9
v 1.5 0.8 -0.9
v -0.3 0.8 -1
v 1.4 0.8 -1
v -0.1 1 0.9
v 1.2 1 0.9
v -0.3 1 0.7
v -0.1 1 0.7
v 0 1 0.7
v 1.1 1 0.7
v 1.2 1 0.7
v 1.4 1 0.7
v -0.1 1 0.6
v 0 1 0.6
v 1.1 1 0.6
v 1.2 1 0.6
v -0.1 1 -0.6
v 0 1 -0.6
v 1.1 1 -0.6
v 1.2 1 -0.6
v -0.3 1 -0.7
v -0.1 1 -0.7
v 0 1 -0.7
v 1.1 1 -0.7
v 1.2 1 -0.7
v 1.4 1 -0.7
v -0.1 1 -0.9
v 1.2 1 -0.9
v 0 1.1 0.7
v 1.1 1.1 0.7
v -0.1 1.1 0.6
v 0 1.1 0.6
v 1.1 1.1 0.6
v 1.2 1.1 0.6
v 0.3 1.1 0.3
v 0.8 1.1 0.3
v 0.3 1.1 -0.3
v 0.8 1.1 -0.3
v -0.1 1.1 -0.6
v 0 1.1 -0.6
v 1.1 1.1 -0.6
v 1.2 1.1 -0.6
v 0 1.1 -0.7
v 1.1 1.1 -0.7
v 0.3 1.3 0.3
v 0.8 1.3 0.3
v 0.5 1.3 0.1
v 0.6 1.3 0.1
v 0.5 1.3 -0.1
v 0.6 1.3 -0.1
v 0.3 1.3 -0.3
v 0.8 1.3 -0.3
v -1.3 2.3 0.3
v -1.1 2.3 0.3
v -1.3 2.3 -0.3
v -1.1 2.3 -0.3
v -1.3 2.9 0.1
v 0.8 2.9 0.1
v -1.3 2.9 -0.1
v 0.8 2.9 -0.1
v -1.5 3.1 0.3
v -1.3 3.1 0.3
v -1.5 3.1 -0.3
v -1.3 3.1 -0.3

# faces
f 3/5/1 2/5/1 1/5/1
f 4/5/1 2/5/1 3/5/1
f 7/3/1 6/3/1 5/3/1
f 8/3/1 6/3/1 7/3/1
f 9/2/1 8/2/1 7/2/1
f 10/2/1 8/2/1 9/2/1
f 15/3/1 12/3/1 11/3/1
f 16/3/1 12/3/1 15/3/1
f 17/3/1 14/3/1 13/3/1
f 18/3/1 14/3/1 17/3/1
f 19/2/1 16/2/1 15/2/1
f 20/2/1 16/2/1 19/2/1
f 23/2/1 18/2/1 17/2/1
f 24/2/1 18/2/1 23/2/1
f 25/2/1 22/2/1 21/2/1
f 26/2/1 22/2/1 25/2/1
f 31/2/1 28/2/1 27/2/1
f 32/2/1 28/2/1 31/2/1
f 35/2/1 30/2/1 29/2/1
f 36/2/1 30/2/1 35/2/1
f 37/2/1 34/2/1 33/2/1
f 38/2/1 34/2/1 37/2/1
f 43/2/1 40/2/1 39/2/1
f 44/2/1 40/2/1 43/2/1
f 45/2/1 42/2/1 41/2/1
f 46/2/1 42/2/1 45/2/1
f 49/6/1 48/6/1 47/6/1
f 50/6/1 48/6/1 49/6/1
f 55/6/1 52/6/1 51/6/1
f 56/6/1 52/6/1 55/6/1
f 57/6/1 54/6/1 53/6/1
f 58/6/1 54/6/1 57/6/1
f 61/2/1 60/2/1 59/2/1
f 62/2/1 60/2/1 61/2/1
f 65/1/1 64/1/1 63/1/1
f 66/1/1 64/1/1 65/1/1
f 71/3/1 68/3/1 67/3/1
f 72/3/1 68/3/1 71/3/1
f 73/3/1 70/3/1 69/3/1
f 74/3/1 70/3/1 73/3/1
f 75/2/1 72/2/1 71/2/1
f 76/2/1 72/2/1 75/2/1
f 77/2/1 74/2/1 73/2/1
f 78/2/1 74/2/1 77/2/1
f 81/3/1 80/3/1 79/3/1
f 82/3/1 80/3/1 81/3/1
f 83/2/1 82/2/1 81/2/1
f 84/2/1 82/2/1 83/2/1
f 85/5/2 86/5/2 87/5/2
f 87/5/2 86/5/2 88/5/2
f 85/5/2 87/5/2 89/5/2
f 88/5/2 86/5/2 90/5/2
f 85/5/2 89/5/2 91/5/2
f 89/5/2 90/5/2 91/5/2
f 90/5/2 86/5/2 92/5/2
f 91/5/2 90/5/2 92/5/2
f 93/5/2 94/5/2 95/5/2
f 95/5/2 94/5/2 96/5/2
f 97/3/2 98/3/2 99/3/2
f 99/3/2 98/3/2 100/3/2
f 99/2/2 100/2/2 101/2/2
f 101/2/2 100/2/2 102/2/2
f 103/3/2 104/3/2 107/3/2
f 107/3/2 104/3/2 108/3/2
f 105/3/2 106/3/2 109/3/2
f 109/3/2 106/3/2 110/3/2
f 107/2/2 108/2/2 111/2/2
f 111/2/2 108/2/2 112/2/2
f 109/2/2 110/2/2 113/2/2
f 113/2/2 110/2/2 114/2/2
f 115/1/2 116/1/2 117/1/2
f 117/1/2 116/1/2 118/1/2
f 119/6/2 120/6/2 123/6/2
f 123/6/2 120/6/2 124/6/2
f 121/6/2 122/6/2 125/6/2
f 125/6/2 122/6/2 126/6/2
f 127/2/2 128/2/2 129/2/2
f 129/2/2 128/2/2 130/2/2
f 131/5/2 132/5/2 133/5/2
f 133/5/2 132/5/2 134/5/2
f 135/6/2 136/6/2 137/6/2
f 137/6/2 136/6/2 138/6/2
f 139/2/2 140/2/2 143/2/2
f 143/2/2 140/2/2 144/2/2
f 141/2/2 142/2/2 145/2/2
f 145/2/2 142/2/2 146/2/2
f 147/2/2 148/2/2 151/2/2
f 151/2/2 148/2/2 152/2/2
f 149/2/2 150/2/2 155/2/2
f 155/2/2 150/2/2 156/2/2
f 153/2/2 154/2/2 157/2/2
f 157/2/2 154/2/2 158/2/2
f 159/3/2 160/3/2 163/3/2
f 163/3/2 160/3/2 164/3/2
f 161/3/2 162/3/2 165/3/2
f 165/3/2 162/3/2 166/3/2
f 163/2/2 164/2/2 167/2/2
f 167/2/2 164/2/2 168/2/2
f 165/2/2 166/2/2 171/2/2
f 171/2/2 166/2/2 172/2/2
f 169/2/2 170/2/2 173/2/2
f 173/2/2 170/2/2 174/2/2
f 175/3/2 176/3/2 177/3/2
f 177/3/2 176/3/2 178/3/2
f 177/2/2 178/2/2 179/2/2
f 179/2/2 178/2/2 180/2/2
f 184/3/3 182/3/3 181/3/3
f 185/2/3 183/2/3 182/2/3
f 185/3/3 182/3/3 184/3/3
f 186/2/3 183/2/3 185/2/3
f 190/3/3 188/3/3 187/3/3
f 191/2/3 189/2/3 188/2/3
f 191/3/3 188/3/3 190/3/3
f 192/2/3 189/2/3 191/2/3
f 195/2/3 194/2/3 193/2/3
f 196/2/3 194/2/3 195/2/3
f 200/3/3 198/3/3 197/3/3
f 201/2/3 199/2/3 198/2/3
f 201/3/3 198/3/3 200/3/3
f 202/2/3 199/2/3 201/2/3
f 205/2/3 204/2/3 203/2/3
f 206/2/3 204/2/3 205/2/3
f 209/2/3 208/2/3 207/2/3
f 210/2/3 208/2/3 209/2/3
f 213/2/3 212/2/3 211/2/3
f 214/2/3 212/2/3 213/2/3
f 217/2/3 216/2/3 215/2/3
f 218/2/3 216/2/3 217/2/3
f 221/2/3 220/2/3 219/2/3
f 222/2/3 220/2/3 221/2/3
f 225/6/3 224/6/3 223/6/3
f 226/6/3 224/6/3 225/6/3
f 229/5/3 228/5/3 227/5/3
f 230/5/3 228/5/3 229/5/3
f 231/5/3 229/5/3 227/5/3
f 232/5/3 229/5/3 231/5/3
f 235/6/3 234/6/3 233/6/3
f 236/6/3 234/6/3 235/6/3
f 241/2/3 238/2/3 237/2/3
f 242/2/3 238/2/3 241/2/3
f 243/6/3 240/6/3 239/6/3
f 244/6/3 240/6/3 243/6/3
f 248/5/3 246/5/3 245/5/3
f 249/1/3 248/1/3 247/1/3
f 250/5/3 246/5/3 248/5/3
f 250/1/3 248/1/3 249/1/3
f 251/5/3 246/5/3 250/5/3
f 252/5/3 246/5/3 251/5/3
f 256/3/3 254/3/3 253/3/3
f 257/2/3 255/2/3 254/2/3
f 257/3/3 254/3/3 256/3/3
f 258/2/3 255/2/3 257/2/3
f 262/3/3 260/3/3 259/3/3
f 263/2/3 261/2/3 260/2/3
f 263/3/3 260/3/3 262/3/3
f 264/2/3 261/2/3 263/2/3
f 268/3/3 266/3/3 265/3/3
f 269/2/3 267/2/3 266/2/3
f 269/3/3 266/3/3 268/3/3
f 270/2/3 267/2/3 269/2/3
f 271/3/4 272/3/4 274/3/4
f 272/2/4 273/2/4 275/2/4
f 274/3/4 272/3/4 275/3/4
f 275/2/4 273/2/4 276/2/4
f 277/3/4 278/3/4 280/3/4
f 278/2/4 279/2/4 281/2/4
f 280/3/4 278/3/4 281/3/4
f 281/2/4 279/2/4 282/2/4
f 283/3/4 284/3/4 286/3/4
f 284/2/4 285/2/4 287/2/4
f 286/3/4 284/3/4 287/3/4
f 287/2/4 285/2/4 288/2/4
f 289/5/4 290/5/4 292/5/4
f 291/1/4 292/1/4 293/1/4
f 292/5/4 290/5/4 294/5/4
f 293/1/4 292/1/4 294/1/4
f 294/5/4 290/5/4 295/5/4
f 295/5/4 290/5/4 296/5/4
f 297/5/4 298/5/4 299/5/4
f 299/5/4 298/5/4 300/5/4
f 297/5/4 299/5/4 301/5/4
f 301/5/4 299/5/4 302/5/4
f 303/6/4 304/6/4 305/6/4
f 305/6/4 304/6/4 306/6/4
f 307/2/4 308/2/4 311/2/4
f 311/2/4 308/2/4 312/2/4
f 309/6/4 310/6/4 313/6/4
f 313/6/4 310/6/4 314/6/4
f 315/6/4 316/6/4 317/6/4
f 317/6/4 316/6/4 318/6/4
f 319/2/4 320/2/4 321/2/4
f 321/2/4 320/2/4 322/2/4
f 323/2/4 324/2/4 325/2/4
f 325/2/4 324/2/4 326/2/4
f 327/2/4 328/2/4 329/2/4
f 329/2/4 328/2/4 330/2/4
f 331/2/4 332/2/4 333/2/4
f 333/2/4 332/2/4 334/2/4
f 335/2/4 336/2/4 337/2/4
f 337/2/4 336/2/4 338/2/4
f 339/3/4 340/3/4 342/3/4
f 340/2/4 341/2/4 343/2/4
f 342/3/4 340/3/4 343/3/4
f 343/2/4 341/2/4 344/2/4
f 345/2/4 346/2/4 347/2/4
f 347/2/4 346/2/4 348/2/4
f 349/3/4 350/3/4 352/3/4
f 350/2/4 351/2/4 353/2/4
f 352/3/4 350/3/4 353/3/4
f 353/2/4 351/2/4 354/2/4
f 355/3/4 356/3/4 358/3/4
f 356/2/4 357/2/4 359/2/4
f 358/3/4 356/3/4 359/3/4
f 359/2/4 357/2/4 360/2/4
f 364/3/5 362/3/5 361/3/5
f 365/3/5 362/3/5 364/3/5
f 366/3/5 362/3/5 365/3/5
f 367/3/5 362/3/5 366/3/5
f 369/3/5 364/3/5 363/3/5
f 369/3/5 365/3/5 364/3/5
f 370/3/5 365/3/5 369/3/5
f 371/3/5 368/3/5 367/3/5
f 371/3/5 367/3/5 366/3/5
f 372/3/5 368/3/5 371/3/5
f 373/3/5 369/3/5 363/3/5
f 376/3/5 368/3/5 372/3/5
f 377/3/5 374/3/5 373/3/5
f 377/3/5 373/3/5 363/3/5
f 378/3/5 374/3/5 377/3/5
f 379/3/5 374/3/5 378/3/5
f 380/3/5 376/3/5 375/3/5
f 381/3/5 368/3/5 376/3/5
f 381/3/5 376/3/5 380/3/5
f 382/3/5 368/3/5 381/3/5
f 383/3/5 379/3/5 378/3/5
f 383/3/5 380/3/5 379/3/5
f 383/3/5 381/3/5 380/3/5
f 384/3/5 381/3/5 383/3/5
f 388/6/5 386/6/5 385/6/5
f 389/6/5 386/6/5 388/6/5
f 391/6/5 388/6/5 387/6/5
f 391/6/5 390/6/5 389/6/5
f 391/6/5 389/6/5 388/6/5
f 392/6/5 390/6/5 391/6/5
f 393/6/5 390/6/5 392/6/5
f 394/6/5 390/6/5 393/6/5
f 395/6/5 393/6/5 392/6/5
f 396/6/5 393/6/5 395/6/5
f 400/2/5 398/2/5 397/2/5
f 401/2/5 398/2/5 400/2/5
f 403/2/5 400/2/5 399/2/5
f 403/2/5 402/2/5 401/2/5
f 403/2/5 401/2/5 400/2/5
f 404/2/5 402/2/5 403/2/5
f 405/2/5 403/2/5 399/2/5
f 406/2/5 403/2/5 405/2/5
f 407/2/5 402/2/5 404/2/5
f 408/2/5 402/2/5 407/2/5
f 409/2/5 405/2/5 399/2/5
f 412/2/5 402/2/5 408/2/5
f 413/2/5 410/2/5 409/2/5
f 414/2/5 412/2/5 411/2/5
f 415/2/5 413/2/5 409/2/5
f 415/2/5 414/2/5 413/2/5
f 415/2/5 409/2/5 399/2/5
f 416/2/5 414/2/5 415/2/5
f 417/2/5 412/2/5 414/2/5
f 417/2/5 414/2/5 416/2/5
f 417/2/5 402/2/5 412/2/5
f 418/2/5 402/2/5 417/2/5
f 419/2/5 417/2/5 416/2/5
f 420/2/5 417/2/5 419/2/5
f 423/5/5 422/5/5 421/5/5
f 424/5/5 422/5/5 423/5/5
f 429/5/5 426/5/5 425/5/5
f 430/5/5 426/5/5 429/5/5
f 431/5/5 428/5/5 427/5/5
f 432/5/5 428/5/5 431/5/5
f 433/2/6 434/2/6 436/2/6
f 436/2/6 434/2/6 437/2/6
f 437/2/6 434/2/6 438/2/6
f 438/2/6 434/2/6 439/2/6
f 435/2/6 436/2/6 441/2/6
f 436/2/6 437/2/6 441/2/6
f 441/2/6 437/2/6 442/2/6
f 439/2/6 440/2/6 443/2/6
f 438/2/6 439/2/6 443/2/6
f 443/2/6 440/2/6 444/2/6
f 435/2/6 441/2/6 445/2/6
f 444/2/6 440/2/6 448/2/6
f 445/2/6 446/2/6 449/2/6
f 435/2/6 445/2/6 449/2/6
f 449/2/6 446/2/6 450/2/6
f 450/2/6 446/2/6 451/2/6
f 447/2/6 448/2/6 452/2/6
f 448/2/6 440/2/6 453/2/6
f 452/2/6 448/2/6 453/2/6
f 453/2/6 440/2/6 454/2/6
f 450/2/6 451/2/6 455/2/6
f 451/2/6 452/2/6 455/2/6
f 452/2/6 453/2/6 455/2/6
f 455/2/6 453/2/6 456/2/6
f 457/2/6 458/2/6 460/2/6
f 460/2/6 458/2/6 461/2/6
f 461/2/6 458/2/6 462/2/6
f 462/2/6 458/2/6 463/2/6
f 459/2/6 460/2/6 465/2/6
f 460/2/6 461/2/6 465/2/6
f 465/2/6 461/2/6 466/2/6
f 463/2/6 464/2/6 467/2/6
f 462/2/6 463/2/6 467/2/6
f 467/2/6 464/2/6 468/2/6
f 459/2/6 465/2/6 469/2/6
f 468/2/6 464/2/6 472/2/6
f 469/2/6 470/2/6 473/2/6
f 459/2/6 469/2/6 473/2/6
f 473/2/6 470/2/6 474/2/6
f 474/2/6 470/2/6 475/2/6
f 471/2/6 472/2/6 476/2/6
f 472/2/6 464/2/6 477/2/6
f 476/2/6 472/2/6 477/2/6
f 477/2/6 464/2/6 478/2/6
f 474/2/6 475/2/6 479/2/6
f 475/2/6 476/2/6 479/2/6
f 476/2/6 477/2/6 479/2/6
f 479/2/6 477/2/6 480/2/6
f 481/2/6 482/2/6 484/2/6
f 484/2/6 482/2/6 485/2/6
f 483/2/6 484/2/6 487/2/6
f 485/2/6 486/2/6 487/2/6
f 484/2/6 485/2/6 487/2/6
f 487/2/6 486/2/6 488/2/6
f 483/2/6 487/2/6 489/2/6
f 488/2/6 486/2/6 490/2/6
f 483/2/6 489/2/6 491/2/6
f 489/2/6 490/2/6 491/2/6
f 491/2/6 490/2/6 492/2/6
f 490/2/6 486/2/6 493/2/6
f 492/2/6 490/2/6 493/2/6
f 493/2/6 486/2/6 494/2/6
f 492/2/6 493/2/6 495/2/6
f 495/2/6 493/2/6 496/2/6
f 497/2/6 498/2/6 499/2/6
f 499/2/6 498/2/6 500/2/6
f 497/2/6 499/2/6 501/2/6
f 500/2/6 498/2/6 502/2/6
f 497/2/6 501/2/6 503/2/6
f 501/2/6 502/2/6 503/2/6
f 502/2/6 498/2/6 504/2/6
f 503/2/6 502/2/6 504/2/6
f 505/5/6 506/5/6 507/5/6
f 507/5/6 506/5/6 508/5/6
f 509/5/6 510/5/6 511/5/6
f 511/5/6 510/5/6 512/5/6
f 513/5/6 514/5/6 515/5/6
f 515/5/6 514/5/6 516/5/6
